\relax 
\providecommand\hyper@newdestlabel[2]{}
\providecommand\HyperFirstAtBeginDocument{\AtBeginDocument}
\HyperFirstAtBeginDocument{\ifx\hyper@anchor\@undefined
\global\let\oldcontentsline\contentsline
\gdef\contentsline#1#2#3#4{\oldcontentsline{#1}{#2}{#3}}
\global\let\oldnewlabel\newlabel
\gdef\newlabel#1#2{\newlabelxx{#1}#2}
\gdef\newlabelxx#1#2#3#4#5#6{\oldnewlabel{#1}{{#2}{#3}}}
\AtEndDocument{\ifx\hyper@anchor\@undefined
\let\contentsline\oldcontentsline
\let\newlabel\oldnewlabel
\fi}
\fi}
\global\let\hyper@last\relax 
\gdef\HyperFirstAtBeginDocument#1{#1}
\providecommand\HyField@AuxAddToFields[1]{}
\providecommand\HyField@AuxAddToCoFields[2]{}
\AC@reset@newl@bel
\providecommand \oddpage@label [2]{}
\babel@aux{english}{}
\@writefile{toc}{\contentsline {title}{A Markovian Approach to Evaluate Session-based IR Systems}{1}{chapter.1}\protected@file@percent }
\@writefile{toc}{\authcount {4}}
\@writefile{toc}{\contentsline {author}{David van Dijk \and Marco Ferrante \and Nicola Ferro \and Evangelos Kanoulas}{1}{chapter.1}\protected@file@percent }
\@writefile{toc}{\contentsline {section}{\numberline {A}Pseudocode for the Computation of the MsM Measure}{1}{section.A.1}\protected@file@percent }
\providecommand*\caption@xref[2]{\@setref\relax\@undefined{#1}}
\newlabel{MsM-pseudo-code}{{1}{2}{Pseudocode for the Computation of the MsM Measure}{algocf.1}{}}
\@writefile{loa}{\contentsline {algocf}{\numberline {1}{\ignorespaces Pseudo-code for computing the $MsM$ measure (It continues on the next page.)\relax }}{2}{algocf.1}\protected@file@percent }
\@writefile{loa}{\contentsline {algocf}{\numberline {1}{\ignorespaces Pseudo-code for computing the $MsM$ measure. (Continued from the previous page and it continues on the next page.)\relax }}{3}{algocf.1}\protected@file@percent }
\@writefile{loa}{\contentsline {algocf}{\numberline {1}{\ignorespaces Pseudo-code for computing the $MsM$ measure. (Continued from the previous page, last page.)\relax }}{4}{algocf.1}\protected@file@percent }
