topic	BASE_INDRI_50	DDTJU_EXPLORE	GU_RUN3_SIMI	GU_RUN4_SIMI	baseline	lm	lmrf	multir	okapi	simti	simtir	simtir20	tfidf	ul_combi_roc.2	ul_lda_roc.10	ul_lda_roc.2	ul_lda_roc.3	uogTrEpsilonG	uogTrIL	uogTrRR	uogTrSI	uogTrxQuADRR
DD15-1	2.7433184385498355	1.4356279584698362	3.362136039221456	3.2878622194662483	2.092335447664268	0.0	0.0	4.246948081772866	0.0	3.223892378398997	3.223892378398997	2.6840786421876004	0.0	0.0	1.0859134737692049	0.0	0.8924855279664128	0.0	0.0	0.0	0.0	0.0
DD15-10	0.0	2.035694063094048	2.19296502421929	2.19296502421929	4.181232218299281	2.5224563444480315	3.767175410912953	4.181232218299281	1.9358543228504472	4.181232218299281	4.181232218299281	4.181232218299281	3.6944699369452985	0.8941494174324993	2.113180282819425	1.6869241035464182	1.8498578562161327	4.181232218299281	4.181232218299281	4.181232218299281	4.181232218299281	2.19296502421929
DD15-100	0.0	2.6415404649049328	6.532620532923982	6.5728329992344925	6.476652284329705	9.685114093289467	10.729331726052642	6.523057012129391	0.0	5.202599726977782	6.075022737238424	5.625374487182568	5.539703145354161	3.322649656690904	6.3624644365985645	3.322649656690904	5.5076684832843315	0.0	0.863401352513986	0.0	0.0	0.8976825249468214
DD15-101	0.0	6.923290695716503	9.478287988985544	5.284041656362846	10.87169031300508	6.3624644365985645	11.656929469623744	6.435647121562736	4.150763271463564	5.977988629050101	5.977988629050101	6.571277751240437	3.1772387087555964	2.7737471067036887	5.36811670440914	6.6626074591245	7.720983338656312	1.1310548349784175	4.0	6.1487177399686015	9.539703145354162	1.6253744871825682
DD15-102	0.0	3.596567008662368	6.582576577080253	6.283634231674242	6.276292318735063	0.0	0.0	3.6077665959483887	0.0	4.761047132278738	4.761047132278738	4.9617022984419785	0.0	1.12253631481073	0.3308180555337065	0.3098490712194459	1.3525781215090815	0.0	0.0	0.0	0.0	0.0
DD15-103	0.0	4.108135096952635	9.703759906406354	9.67527433877807	10.221143971157796	2.3319953346687115	11.028354089656546	8.327150102887668	0.0	6.71897938999846	6.71897938999846	8.247596949358934	0.0	0.0	0.2858066479919904	0.0	0.0	0.0	0.0	0.0	3.6944699369452985	0.5949903519776085
DD15-104	0.0	8.098958891631359	7.788374466017077	7.502399716327343	8.112118916441402	1.341224126148749	7.468019713473297	5.726590089691943	4.181232218299281	5.316687016841779	5.316687016841779	6.2361121858318675	1.845233053314728	0.0	0.0	0.0	0.0	0.0	0.0	0.0	0.0	0.3006499317444456
DD15-105	0.0	2.2789764120326863	5.336708708086818	4.340497356042399	6.180122665475207	0.0	0.0	2.378213883101344	0.0	4.505855241159702	4.528073998349632	4.505855241159702	0.0	1.840370374170676	7.857249915785142	8.108072942021149	9.99711175285014	0.0	0.0	0.0	1.2393962848777835	1.1342442070960759
DD15-106	0.0	1.72745869255829	3.3210969428837203	3.3210969428837203	5.331995334668712	1.7718483274489236	3.661636111067413	5.331995334668712	1.041704905417948	5.331995334668712	5.331995334668712	5.331995334668712	1.7718483274489236	3.0	3.0373667004030485	2.8376872199158467	3.0642639187016543	0.8506831553220568	1.341224126148749	1.3802777806280069	1.2190308653869262	1.1428707507562228
DD15-107	0.0	0.9332273663456444	0.0	0.0	0.9853138512884994	2.362464436598565	1.5343508218259054	0.9853138512884994	0.0	0.9853138512884994	1.2547972986292877	0.9853138512884994	4.0	4.0	2.362464436598565	1.7882988348649986	1.5343508218259054	0.0	0.0	0.0	0.0	0.0
DD15-108	0.0	5.539703145354161	9.668591772585893	9.460340276769443	10.916097529024766	1.3889398738905971	3.966760674724247	6.266836903632457	4.0	5.5166399863388245	5.5166399863388245	6.266836903632457	5.788298834864999	2.1380465306828733	1.840370374170676	1.4435765937375742	1.6253744871825682	0.0	1.840370374170676	3.809442104167588	2.147369733689664	4.694414717575119
DD15-109	0.0	11.344373925130649	13.165064548521118	12.075712959512446	10.951043366719553	7.074053967180066	7.074053967180066	12.111658439496901	8.150763271463564	5.815851366327647	5.815851366327647	11.869733543742079	7.177238708755596	3.1772387087555964	1.3569052118207694	0.0	1.189980703955217	5.539703145354161	1.7882988348649986	5.539703145354161	4.607219190043076	2.5468859157759858
DD15-11	0.0	7.145033504668845	14.612762693073414	15.14095793199352	13.71577855460801	6.263835569967103	6.74825355028729	12.875464534090073	6.02646527161401	13.233627567967513	13.233627567967513	14.250837021555336	5.807542390542972	4.758621819324912	6.699266750691803	4.956141563338315	7.824294889423344	6.884261952062683	4.181232218299281	6.884261952062683	6.884261952062683	4.505936645813828
DD15-110	0.0	0.0	1.6253744871825682	1.6253744871825682	2.4061542827375977	1.7882988348649986	1.3889398738905971	1.6253744871825682	0.0	2.9252672813862364	2.937220088171004	2.9252672813862364	0.0	0.0	0.98821069536605	0.0	0.0	0.0	0.0	0.0	0.0	0.0
DD15-111	0.0	1.4435765937375742	1.2625561883916023	1.2625561883916023	1.7367606185959084	1.7882988348649986	1.3889398738905971	1.6203915770210169	1.7882988348649986	1.6675895911280398	1.6675895911280398	1.6675895911280398	2.362464436598565	0.0	0.0	0.0	0.0	0.8438630612754388	0.0	0.0	0.0	0.0
DD15-112	0.0	1.9530397898232967	4.353845985935898	5.057416749059506	4.191454410216154	3.0417049054179484	5.835501359637445	3.890486588249746	0.0	2.8941494174325	3.698006067134591	2.8941494174325	0.0	1.0797907359815606	0.6944699369452986	0.8941494174324993	0.8941494174324993	0.0	0.0	0.0	0.0	1.1541879661594323
DD15-113	0.0	3.0	4.120769121502969	3.7049160218591	5.9909385778949655	1.7718483274489236	3.6153686912147776	5.04846721148406	0.0	4.187080936090659	4.187080936090659	4.828868630559093	1.845233053314728	2.190103297839345	0.8941494174324993	0.8941494174324993	1.1812322182992825	0.4176999091475561	0.5716132959839808	0.5671221035480379	0.6451637076501558	0.9410979739719656
DD15-114	0.0	0.0	0.9201851870853376	0.9201851870853376	0.6273986493146438	0.8941494174324993	2.0	0.6273986493146438	0.0	0.6273986493146438	0.6273986493146438	0.6273986493146438	0.0	0.0	0.0	0.0	0.0	0.6312780941958012	0.0	0.0	0.6312780941958012	0.0
DD15-115	0.0	0.0	9.784302733575958	4.880998565394308	6.290894548615023	2.7301640000393457	10.373629164147316	5.488342751048707	1.150763116369429	6.199685737886632	6.199685737886632	7.5257471920833074	1.341224126148749	0.0	0.0	0.0	0.0	0.0	0.0	0.0	0.26339465842239435	0.0
DD15-116	0.0	0.0	1.4966693172063756	1.5245375656359461	1.6872133372580964	0.0	0.0	1.6872133372580964	0.0	1.5939964626303875	1.5939964626303875	1.6872133372580964	0.0	0.0	0.9924541666011196	0.9924541666011196	1.0826824453031807	0.0	0.7621244832917735	1.3780205472737868	0.0	0.0
DD15-117	0.0	0.0	1.2190308653869262	1.2190308653869262	2.803435999336005	0.0	0.0	2.8398632640242094	1.1812322182992825	2.113390351667036	2.113390351667036	2.354594736862594	2.0	1.8757021552445807	2.175483670938804	2.0359563762529773	4.049474148426817	0.0	0.4563038041332234	0.44286305773529777	0.0	0.0
DD15-118	0.0	0.0	3.722829173388837	4.529478537303153	5.923672761965594	2.1083995370617017	4.083307514391406	5.075381635731782	5.617081380763652	5.6832697969442485	5.6832697969442485	5.690818723735615	5.707702650299371	0.6944699369452986	2.1083995370617017	3.4251903144299347	2.035694063094048	0.7411580215245375	1.341224126148749	1.9999759230668983	3.8941494174324993	0.3985978755604473
DD15-12	0.0	0.0	22.26773653719637	20.04157527075766	21.134050298621816	0.0	0.0	31.448826055790697	0.0	32.11984037923615	33.806517994678394	25.47579266759067	0.0	1.7882988348649986	1.2625561883916023	0.0	1.4478846316922738	1.0964928615312983	0.0	0.0	1.0535786336895774	0.0
DD15-13	0.0	0.0	3.3558152939626504	3.3712413571795827	4.087971504708508	0.0	0.0	2.6631934678171403	0.0	5.820549110404471	5.863917563242119	4.69543788663971	0.0	0.0	0.0	0.0	0.0	0.7217882968687871	0.5205198637033529	0.527527134953203	0.8126872435912841	0.0
DD15-14	0.0	0.0	7.536728109792692	6.149491627403829	15.095333105170939	0.6944699369452986	0.6944699369452986	13.5714704795613	2.8425570466447345	9.179345826959782	9.825744008219377	13.749415535420168	0.0	0.9201851870853376	2.895989377536941	4.154173682898963	4.874932335621058	0.0	0.431700676256993	0.0	1.4616453478582514	0.0
DD15-15	0.0	0.0	10.939664359988209	10.939664359988209	11.070101624596793	7.8544516791167425	12.041111174932967	10.25403137536065	7.502012327488267	11.404501428736825	11.404501428736825	11.102322501594463	8.6527754438577	1.7882988348649986	2.318487087548935	4.0	6.684379299033733	7.8544516791167425	3.1607882013395208	7.8544516791167425	7.8544516791167425	3.0056522678105746
DD15-16	0.0	0.0	1.7411719290624004	1.7411719290624004	3.2281519020666116	3.0	3.0	3.0	1.041704905417948	3.2195985809249668	3.2195985809249668	3.2128194492867843	1.041704905417948	1.150763116369429	1.7718483274489236	1.341224126148749	3.0	3.0	3.0	3.0	3.0	1.2190308653869262
DD15-17	0.0	0.0	12.617297636908125	12.750858477964215	5.9322375637646765	1.041704905417948	1.7718483274489236	5.032018768577983	3.0	3.5998053257481253	4.6533686445097455	4.211435984572874	1.7718483274489236	3.0	3.0	1.341224126148749	1.7718483274489236	4.150763116369428	1.7718483274489236	4.150763116369428	4.150763116369428	2.301713310690107
DD15-18	0.0	0.0	1.8806669764543391	1.8806669764543391	1.8725514132382157	0.0	0.0	3.4550024938974984	0.0	3.0097573321620352	3.0097573321620352	2.6606903536706548	0.0	0.0	0.0	0.0	0.0	0.8924855279664128	0.0	0.6151690789568518	0.9295472136583376	0.0
DD15-19	0.4758173071138935	0.4758173071138935	9.036693738624656	9.013326873406326	16.119476598854167	6.9643163492363005	10.554525751373003	16.352045112777667	6.533692147936126	14.427568388979152	13.162532115102868	15.717702481496122	6.533692147936126	8.803479337545266	10.26968712898784	10.26968712898784	13.328974698217944	6.533692147936126	3.0	6.533692147936126	6.533692147936126	4.223714690949564
DD15-2	0.0	0.0	18.984660604645992	18.916608642465228	7.841617791883464	2.035694063094048	4.506356226555286	11.91866241088797	2.0	5.6816374482092495	5.546093537756363	7.037907662064054	1.1812322182992825	1.842868329366696	2.1268553229754743	2.721115547823512	3.0049874093730597	1.0	0.4470747087162497	1.0	1.0	0.4600925935426689
DD15-20	0.0	0.0	13.30737410767253	13.351503326797845	8.657136872167221	0.0	0.0	5.346307873980838	0.0	4.109820521752382	6.643870056404379	5.203986426286163	0.0	0.0	0.0	0.0	0.0	0.8512777971471369	0.0	0.0	2.2709792648186373	0.0
DD15-21	0.0	0.0	3.4657448613532438	3.4657448613532438	6.3624644365985645	5.388939873890597	6.3624644365985645	6.3624644365985645	6.3624644365985645	6.3624644365985645	6.3624644365985645	6.3624644365985645	3.7514043104891615	0.0	0.0	0.0	0.0	0.0	0.0	0.0	0.0	0.0
DD15-22	0.0	0.0	28.468075800066057	24.159388596276283	8.373627618076448	0.0	0.0	9.365699037003672	0.0	4.831159284709752	5.8304046050278036	6.9775512454839825	0.0	0.0	0.0	0.0	0.0	1.5343508218259054	1.4478846316922738	1.5343508218259054	1.5343508218259054	0.9853138512884994
DD15-23	0.0	0.0	31.557562669841147	35.43247281610272	23.407700505370684	0.0	0.0	20.44783923036126	0.0	28.93847839268405	28.88304574361792	30.14068449703273	0.0	4.677416293983931	13.260288796968426	12.209079911519424	15.690099265471638	4.711589530581501	1.6253744871825682	4.711589530581501	1.3889398738905971	2.6829728786153577
DD15-24	0.0	0.0	11.129426184790411	11.136780426779502	2.5742247076544915	1.661324828345452	1.5886193543777978	9.565537229135149	0.0	8.174728623582848	9.639914405699377	7.661219069762278	0.0	0.0	0.0	0.0	0.0	1.9220013802594569	0.7279027907424229	1.5052766299934577	2.301713310690107	2.0751366119043
DD15-25	0.0	0.0	2.3098249942863447	2.3098249942863447	2.0081830603454005	0.0	0.0	2.052712911602766	0.0	1.9731327625179027	1.9990542426032416	2.052712911602766	0.0	0.0	0.9469171412937016	0.0	1.0859134737692049	0.7279027907424229	0.0	0.0	0.790183975267183	0.0
DD15-26	0.0	0.0	0.0	0.0	0.0	0.0	0.0	0.0	0.0	0.0	0.0	0.0	0.0	0.0	0.0	0.0	0.0	0.0	0.0	0.0	0.0	0.0
DD15-27	0.0	0.0	15.1672561308654	14.60550757432852	7.825609119486747	1.7882988348649986	5.989505292427981	7.028413368365853	9.539703145354162	7.688227107156893	7.779361933686463	9.498105035904036	8.711589530581502	3.9878389237811334	8.217323700441263	8.939780354951633	9.000095683179149	9.685114093289467	4.150763271463564	9.685114093289467	10.032349061762119	6.54244274844509
DD15-28	0.0	0.0	22.32249721297889	19.471805566075584	23.476217981361085	3.322649656690904	11.81671220323085	25.17732443198625	9.285755132315069	25.29163611726627	25.26867553032189	26.870831675496305	8.711589530581502	3.951608380903207	8.209079911519424	8.392223303054969	13.251410760391176	9.539703145354162	3.322649656690904	9.539703145354162	9.539703145354162	6.1487177399686015
DD15-29	0.0	0.0	18.030605079474846	17.9562150739643	16.149284189504687	4.0	6.311642087651031	15.127994523739153	9.685114093289467	10.148183940581825	10.058986545437335	12.569848624729204	4.150763271463564	4.246562917851329	3.1772387087555964	5.788298834864999	3.322649656690904	9.539703145354162	6.3624644365985645	9.539703145354162	9.539703145354162	4.909321455090819
DD15-3	0.0	0.0	41.70319100158289	41.369127030718936	6.567493245330723	0.0	0.0	8.000043203783079	2.362464436598565	9.997371318170787	10.457984437375853	8.207576025244936	1.3889398738905971	0.0	0.0	0.0	0.0	2.3458263189457442	0.0	0.0	3.5109756592966472	2.5626685070126096
DD15-30	0.0	0.0	1.840370374170676	1.840370374170676	4.0	1.5343508218259054	1.3889398738905971	4.8223696461484735	1.5343508218259054	5.219030865386926	5.219030865386926	4.8223696461484735	1.7882988348649986	1.3889398738905971	3.2920116502569026	3.1685766154930053	2.753381687212832	4.0	4.0	4.0	4.0	1.840370374170676
DD15-31	0.0	0.0	2.19296502421929	2.19296502421929	4.181232218299281	3.1507631163694287	3.0417049054179484	4.181232218299281	2.665997744881424	4.181232218299281	4.181232218299281	4.181232218299281	3.1507631163694287	1.9634503599607127	2.4663182643942223	2.1083995370617017	2.5224563444480315	3.767175410912953	3.0	3.767175410912953	3.8941494174324993	1.8806669764543391
DD15-32	0.0	0.0	9.068594583658747	8.495990894373653	4.5254720627817555	0.0	0.0	4.612179245523516	1.041704905417948	3.9446156401470684	4.0864189170207705	5.245018711288708	2.9226114438183526	4.041704905417949	2.7013955411072605	4.219030865386927	2.3336782927498687	2.462960225931187	0.8482911262338132	1.6395818286636177	1.2190308653869262	0.7389853884663745
DD15-33	0.0	0.0	0.0	0.0	21.533549592215685	2.923290695716503	16.492882084671322	23.452090809849828	5.788298834864999	27.04351086540443	30.54397463377524	34.12181410585765	7.177238708755596	5.992241776636645	10.402416315739364	4.711589530581501	15.59820804092096	0.0	0.0	0.0	0.0	1.6253744871825682
DD15-34	0.0	0.0	24.592336878307854	23.164277358998138	11.016657364460556	0.0	0.0	17.217517823256777	0.0	12.998582004479735	14.877361786396545	17.325276833721613	0.0	3.845842894540103	5.367306075813564	5.036488020279856	9.899731416885292	0.5482464307656492	0.0	0.0	0.5267893168447887	0.0
DD15-35	0.0	0.0	41.1149596223972	41.0600471529379	46.09438165761545	11.074053967180069	30.68560822350413	40.976706889451926	11.074053967180069	38.623019517680895	38.715469575204466	38.94216216589616	11.074053967180069	15.622753233566993	17.157104055392896	17.157104055392896	23.149316037374433	5.539703145354161	1.3889398738905971	5.539703145354161	11.074053967180069	7.471989962103428
DD15-36	0.0	0.0	30.40692574299696	28.111617504010788	31.907356146629862	1.3889398738905971	13.403891758553787	25.42394769672308	0.0	18.1134192924185	19.606652434284644	22.92012255797559	0.0	9.390159556341347	3.7514043104891615	5.788298834864999	3.1772387087555964	2.362464436598565	2.362464436598565	2.362464436598565	2.362464436598565	1.6253744871825682
DD15-37	0.0	0.0	1.840370374170676	1.840370374170676	4.0	4.0	2.362464436598565	4.0	4.0	4.0	4.0	4.0	1.3889398738905971	1.5343508218259054	1.3889398738905971	1.5343508218259054	2.362464436598565	4.0	2.362464436598565	4.0	4.0	1.840370374170676
DD15-38	0.0	0.0	9.011742221368399	9.243017662992834	1.21955479592754	0.0	0.0	3.7811358508638113	0.0	6.120777202746801	6.506350102317425	6.120777202746801	0.0	0.0	0.0	0.0	0.0	0.0	0.0	0.0	0.0	0.0
DD15-39	0.0	0.0	10.303469273251363	10.303469273251363	12.703009262543091	6.1276430927396754	10.633916113076141	12.576479365613926	6.537026983590032	11.829488646890015	11.321405658028832	12.768229193668974	5.884261952062683	9.39953876967351	6.5058465537287935	5.8902462288177215	7.808981314307473	0.7239423158461369	2.0	4.1423386028473566	6.1276430927396754	2.6286633679299314
DD15-4	0.0	0.0	1.5475838363999816	1.5514632812811389	2.3985978755604482	0.7671754109129527	0.8941494174324993	2.0	0.7671754109129527	2.0	2.0	2.0	2.0	0.7671754109129527	2.0	1.1812322182992825	0.8941494174324993	2.0	2.0	2.0	2.0	0.8126872435912841
DD15-40	0.0	0.0	4.392223303054968	7.371277089051998	9.037078886901725	8.949087036204519	8.364354562108852	14.196332931967346	10.099850152573946	26.66985995694353	26.709852795201268	19.93473045630399	8.285755132315067	8.098216488827097	7.434710239371814	8.45789095481074	10.445355353012037	8.150763271463564	6.3624644365985645	8.150763271463564	8.150763271463564	4.909321455090819
DD15-41	0.0	0.0	7.32177696679295	7.379995808501242	6.688221714896242	3.6944699369452985	3.767175410912953	11.15531686275687	0.0	9.852896492908355	9.466661926498816	8.228574335372956	0.0	0.0	0.0	0.0	0.0	0.0	0.0	0.0	0.4219315306377194	0.0
DD15-42	0.0	0.0	4.565420599062397	4.702238139695711	4.283935027403017	1.341224126148749	2.1432172829705487	8.773719642974585	1.7718483274489236	6.455700926624501	6.6763728018947806	6.329331622724682	3.0	0.9295472136583376	0.9924541666011196	1.2190308653869262	1.2190308653869262	1.341224126148749	0.9295472136583376	1.341224126148749	1.341224126148749	1.0826824453031807
DD15-43	0.0	0.0	14.877381336928856	14.818008201919039	9.750448275590207	0.0	0.0	8.367238301535691	0.0	9.264712811710831	12.313121916661894	9.209708013211822	0.0	0.0	2.6829728786153577	3.4657448613532438	3.2839469679082502	1.7882988348649986	1.840370374170676	1.7882988348649986	1.7882988348649986	2.9486467093173943
DD15-44	0.0	0.0	2.599308646014933	2.599308646014933	4.771848327448923	4.150763116369428	4.041704905417949	4.771848327448923	4.150763116369428	4.771848327448923	4.771848327448923	4.771848327448923	2.9226114438183526	1.9712521190762853	2.0803103300277668	3.1521261080769305	2.764302494050044	4.771848327448923	4.341224126148749	4.771848327448923	4.771848327448923	2.599308646014933
DD15-45	0.0	0.0	23.547985343138752	24.878945941294823	28.210321090767703	11.074053967180069	24.835506959047947	26.140111203717694	10.726818998707415	16.37354330792346	17.8348350444841	25.751119874264784	10.074053967180069	5.651274047259853	14.87615930411994	14.011692952363456	21.169760054334194	9.685114093289467	5.534350821825905	9.685114093289467	9.685114093289467	6.232593677225642
DD15-46	0.0	0.0	15.25663749561503	15.174978864805455	14.36683222430268	2.8425570466447345	2.3557947652907507	14.215801604503353	2.8425570466447345	16.363034056749893	15.404232127092856	14.833969023858517	4.075381635731782	1.1812322182992825	4.697592487320391	3.458806043667982	6.0761021422621475	2.7698515726770805	0.7671754109129527	2.7698515726770805	2.6428775661575337	2.154173682898964
DD15-47	0.0	0.0	25.906438565200038	25.912801601551642	23.67282462247137	0.0	0.0	17.734943471575857	0.0	24.007288485226287	25.685294282976518	23.92915210509512	0.0	0.0	7.798634928238211	7.374795478216822	12.557509618937775	1.2393962848777835	0.9126076082664468	0.98821069536605	1.2393962848777835	0.8202254386091359
DD15-48	0.0	0.0	5.496099822224307	5.496099822224307	4.9133913569592425	1.7718483274489236	1.341224126148749	4.9133913569592425	1.341224126148749	4.138788795283987	4.178080793833666	4.9133913569592425	1.7718483274489236	3.0	1.341224126148749	3.0	1.341224126148749	3.0	1.7718483274489236	3.0	3.0	1.2190308653869262
DD15-49	0.0	0.0	4.0498022109752325	4.663831566517072	11.628971658070693	0.0	0.0	9.884726215364084	0.0	6.925632057167418	5.907953148301841	9.676966993068767	0.0	2.5100871317337856	0.8602182768668745	0.0	0.0	0.0	0.0	0.0	0.0	0.0
DD15-5	0.0	0.0	23.67121604637515	23.58653301898254	16.535330907140306	11.074053967180069	19.11290795124369	13.857699092744188	7.7514043104891615	20.856410721779802	22.391065108724327	18.668636311239915	7.074053967180066	2.6283361587683807	4.471271713480356	4.301199637698305	5.000095683179149	1.2625561883916023	0.810517548283288	0.8353998182951121	1.840370374170676	6.028413368365853
DD15-50	0.0	0.0	10.159878085440443	9.992599960632068	4.094440053538047	1.7718483274489236	16.247637236241783	10.235810205833909	0.0	9.910895392849225	10.683364525668306	11.123373281927574	0.0	0.0	0.0	0.0	0.0	0.0	0.0	0.0	0.0	0.6151690789568518
DD15-51	0.0	0.0	4.77413899720551	4.77413899720551	15.516881803714952	4.769851572677081	6.81842359641342	16.93442808729425	1.661324828345452	16.149219418277337	18.051828925099606	15.13186300842464	2.8941494174325	0.8941494174324993	9.834454398701991	9.006340783929334	15.252500778949964	1.0535786336895774	1.3889398738905971	3.079766659048459	1.6253744871825682	1.4435765937375742
DD15-52	0.0	0.0	7.757270992329714	7.702839379002428	14.640970711608329	2.228820758771204	5.484925413277957	14.063542498350008	9.716262447117472	12.469744187680066	12.5040253601129	15.181601345901973	3.129639847511518	10.303247982654282	9.273021964641748	9.273021964641748	11.30669498059407	8.718259201889316	4.150763271463564	8.718259201889316	8.718259201889316	3.735994981051714
DD15-53	0.0	0.0	14.110662486584845	14.156984011514174	11.161633847054693	2.362464436598565	4.0	13.563419352101402	2.362464436598565	8.192422534725248	9.149838249609221	9.972741439102991	1.5343508218259054	2.2830892913230967	2.2830892913230967	2.2830892913230967	4.3624644365985645	2.923290695716503	1.1342442070960759	2.923290695716503	2.3242249110512927	1.0410397274067058
DD15-54	0.0	0.0	6.300374310046959	11.656284384892464	4.702842231440272	0.0	0.0	7.660031815281732	0.0	18.06154160122271	18.06154160122271	12.965151873881853	0.0	0.0	0.0	0.0	0.0	1.073684866844832	0.0	0.0	0.2637635674766015	0.4032000921004885
DD15-55	0.0	0.0	2.3062652892093523	2.3062652892093523	5.988910682212306	3.5886193543777978	3.8757021552445807	3.792794578399555	0.0	3.914629187299857	3.7015123060222415	3.6749309009653457	2.6944699369452985	2.002860237216162	2.1083995370617017	1.845233053314728	2.22293712371723	0.0	0.0	0.0	0.0	0.0
DD15-56	0.0	0.0	0.0	0.0	2.9003251526749474	0.0	0.0	2.290177090013085	0.0	1.940662203171728	2.4044761306311955	2.1277276565696783	0.0	1.1435052991249903	0.6451637076501558	0.0	0.0	0.0	0.0	0.0	0.0	0.0
DD15-57	0.0	0.0	5.740453303579116	5.827589324197322	0.7239423158461369	0.8941494174324993	0.8941494174324993	0.0	0.0	0.0	5.823332879255881	0.0	0.0	0.0	0.0	0.0	0.0	0.0	0.0	0.0	0.0	0.0
DD15-58	0.0	0.0	0.4600925935426689	0.4600925935426689	2.175318713844109	0.3835877054564764	0.3835877054564764	2.4148436320029574	1.4470747087162497	1.4902747545739532	1.3678010145255792	1.7896547748944724	2.5661580046378227	0.3472349684726493	0.0	0.0	0.0	0.0	0.0	0.0	0.0	0.0
DD15-59	0.0	0.0	13.409864644981875	14.513012294484728	5.7272847380340295	0.0	0.0	3.5059988892699234	0.0	6.4724977371317	7.646654172779586	6.001935235424781	0.0	1.6146551240306364	3.91967699417046	4.209839671346296	4.904978385855519	0.6548653500530929	0.4066564057025282	0.630269833465525	0.4066564057025282	0.4856866804044246
DD15-6	0.0	0.0	3.0056522678105746	3.0056522678105746	1.8257128943120569	0.0	0.0	0.8924855279664128	1.5343508218259054	2.1472828265957005	2.201714439922989	2.0235403629448303	0.0	1.4435765937375742	1.7882988348649986	1.5343508218259054	1.7882988348649986	1.3889398738905971	1.2547972986292877	1.3889398738905971	1.4435765937375742	1.6253744871825682
DD15-60	0.0	0.0	2.8328245407717962	2.8328245407717962	1.4409039061978637	0.0	0.0	4.3538547382229815	0.0	1.7577337029117197	1.7787026872259804	1.4409039061978637	0.0	0.0	0.8223696461484737	0.0	0.0	7.3061991492748275	2.5760557272438533	7.3061991492748275	2.807255377594024	4.382673461692428
DD15-61	0.0	0.0	18.138160726440688	15.638569716031801	19.040845703127502	5.285755132315066	7.8968152584244695	19.47738034180761	1.3889398738905971	16.314027484966942	17.82632345628951	18.211736490856907	7.074053967180066	4.1626869805942865	7.314405867769066	6.4611856766638445	8.697993418131407	1.0535786336895774	1.3889398738905971	6.232593677225642	6.232593677225642	6.391570942955937
DD15-62	0.0	0.0	0.0	0.0	1.2625561883916023	0.0	0.0	5.209948396040524	0.0	2.9088503995669037	4.0098074899948735	3.1114797866377253	0.0	0.0	0.0	0.0	0.0	0.0	0.0	0.0	0.0	0.0
DD15-63	0.0	0.0	0.0	0.0	5.669169637331881	0.0	0.0	10.760233021277623	0.0	7.653732103013934	8.43952303299541	8.167050218874929	1.3889398738905971	2.362464436598565	0.0	0.0	0.0	1.189980703955217	0.7724691328190821	0.8353998182951121	0.9705370543232306	1.323272222134826
DD15-64	0.0	0.0	4.9136294930455175	4.9136294930455175	7.685736658733393	0.0	0.0	8.816791493711806	0.0	7.493519271576983	12.034049008678926	11.18028980694073	0.0	0.0	0.0	0.0	0.0	1.1342442070960759	1.3889398738905971	7.471989962103428	1.3889398738905971	5.257326735859863
DD15-65	0.0	0.0	9.962467882090888	9.962467882090888	0.0	9.685114093289467	24.60586377739131	0.0	4.711589530581501	0.0	0.0	0.0	11.074053967180069	15.917707770515113	17.157104055392896	16.18357949268493	18.61338996118814	0.0	0.0	0.0	11.074053967180069	7.471989962103428
DD15-66	0.0	0.0	0.9201851870853376	0.9201851870853376	1.341224126148749	4.382929031566697	5.331995334668712	2.2986569964779484	0.0	2.0651664419948856	2.0651664419948856	1.849307115009932	2.0	0.0	0.0	0.0	0.0	0.0	0.0	0.0	0.0	0.8506831553220568
DD15-67	0.0	0.0	22.91098186900599	19.75394182353772	19.085722422946574	9.285755132315069	9.685114093289467	23.547503122270122	1.041704905417948	26.787462173727288	25.404645101886988	24.762078202148253	9.685114093289467	7.7514043104891615	12.806136713515285	10.831170969537618	9.620910985672321	4.711589530581501	1.2393962848777835	4.711589530581501	7.074053967180066	5.631619587932752
DD15-68	0.0	0.0	11.659858917666115	12.466259101867092	10.812842974676943	1.7882988348649986	18.77842986532857	9.204756180534943	1.5343508218259054	8.67235539019798	12.380951380485456	10.704854202344682	0.0	1.4435765937375742	0.0	0.0	0.0	0.0	0.8202254386091359	1.6311003322883981	1.073684866844832	0.8857261154705955
DD15-69	0.0	0.0	9.17900781001617	13.237824418117167	9.48820492888808	4.355794765290751	9.598893088433927	12.597484947246587	4.642877566157535	12.492235234365056	12.062201582019918	13.204150339509926	3.537026983590033	0.0	0.4666136831728222	0.0	0.0	0.0	0.0	0.0	2.0	4.674445257919233
DD15-7	0.0	0.0	5.477891811827413	5.446163888513234	18.98775983233132	11.074053967180069	18.570401355530482	18.581823099839767	7.7514043104891615	16.438253984341596	16.654104322470094	19.277029896723885	6.923290695716503	6.923290695716503	8.569702100223317	6.923290695716503	14.639085070415671	8.150763271463564	5.788298834864999	8.150763271463564	8.150763271463564	4.909321455090819
DD15-70	0.0	0.0	5.239613266985749	5.239613266985749	2.444319702476027	0.0	0.0	12.391335314008575	0.0	23.242591669592056	23.850479830804524	20.12807666969314	1.041704905417948	0.9295472136583376	3.0141670378385954	0.0	0.0	0.0	0.0	0.0	1.0176789088655769	0.9332273663456444
DD15-71	0.0	0.0	23.782746690369216	26.316267025275845	24.13659806808785	4.263835569967101	17.34040804494584	27.489264263213148	8.30554047538505	18.688202432345268	20.434503631336728	19.962333332838547	8.30554047538505	0.0	0.0	0.0	0.0	0.0	0.0	0.0	6.9643163492363005	4.5213100262743895
DD15-72	0.0	0.0	4.392223303054968	4.392223303054968	7.219714352383707	4.150763271463564	9.818007237854806	8.15294171872935	0.0	7.616508132816807	9.844055829326523	9.030004485596976	3.322649656690904	15.83383183325807	9.993461459087397	12.289038561479435	11.194482636800732	1.0535786336895774	1.2393962848777835	2.6194614002123715	3.0689510809201423	1.2547972986292877
DD15-73	0.0	0.0	10.103574686264473	10.05387447864602	8.971213843015889	4.0	7.719911558295996	23.217482921158233	7.8968152584244695	18.666000970497414	18.593294727475367	15.38706064468091	7.8968152584244695	5.481804039189439	10.929821347148142	8.311776560217496	12.446903051157186	7.560147162313923	2.5760557272438533	7.560147162313923	8.264514821865253	5.901775621691938
DD15-74	0.0	0.0	5.51092262564222	5.51092262564222	1.840370374170676	4.0	4.9519414311705	1.840370374170676	0.0	14.125854611556251	14.115789375834426	11.616723114716006	0.0	0.0	0.0	0.0	0.0	0.0	0.0	0.0	2.5824756618421807	0.0
DD15-75	0.0	0.0	11.113916336438177	11.076452088358224	3.0	8.30554047538505	8.30554047538505	6.9672281048055495	0.0	9.381995565302509	10.76080049740285	8.033013492960597	0.0	6.27606522892862	8.09597971409575	7.498034059788318	11.037431027072751	2.923290695716503	1.1342442070960759	2.923290695716503	6.3624644365985645	3.4657448613532438
DD15-76	0.0	0.0	9.64851125535194	9.964279319334675	3.784389338288917	0.0	0.0	6.969727920447669	0.0	7.080868905511467	11.090394506024444	5.6929591014372445	0.0	0.0	4.997513247943669	4.2059948982091	8.489248894999829	1.0535786336895774	2.252819435793164	2.7080569324857486	0.0	2.4655635405578518
DD15-77	0.0	0.0	6.2262298018062925	6.2262298018062925	7.641930023614185	7.15477735901562	5.305540475385049	7.660783596001427	0.0	8.077359778356284	8.098291305453863	8.120234212093871	5.922611443818353	1.150763116369429	3.0	1.041704905417948	3.0	0.0	0.0	0.0	8.30554047538505	5.603992471577572
DD15-78	0.0	0.0	0.0	0.0	1.0826824453031807	0.0	0.0	1.341224126148749	0.0	1.341224126148749	1.341224126148749	1.8078378093215712	0.0	0.0	0.0	0.0	0.0	0.0	0.0	0.0	1.5429042788468028	2.0751366119043
DD15-79	0.0	0.0	2.397956689493584	2.397956689493584	2.8545307727521045	3.0	1.041704905417948	2.8545307727521045	2.813553232866872	3.1521261080769305	3.1521261080769305	2.8545307727521045	1.041704905417948	1.041704905417948	2.721501906776756	2.764302494050044	2.5310408969974354	1.7718483274489236	1.041704905417948	1.7718483274489236	3.0	2.301713310690107
DD15-8	0.0	0.0	15.213228795171625	15.319579523591552	21.531000662695615	5.752615184101299	7.311551317708949	24.642974294058703	6.5132275529679955	22.37097674279304	19.8375163955409	22.51228069745181	9.305540475385053	2.0341590720190674	9.592446144518695	8.685252761658122	13.974976493943204	8.689128180841525	4.771848327448923	8.689128180841525	8.689128180841525	5.934810527111278
DD15-80	0.0	0.0	5.028877596671869	4.663983993816203	6.685611297159608	0.0	0.0	6.5958447761184535	0.0	10.8147286119874	9.527807038045427	8.869643032407398	0.0	0.0	0.0	0.0	0.0	0.0	0.0	0.0	0.0	0.3985978755604473
DD15-81	0.0	0.0	1.8226436362931016	1.829556263497181	4.7305377062879606	1.0	5.1220452087446064	4.7164456435682895	0.0	2.23910348513699	2.478891029399585	2.23910348513699	0.0	0.0	0.0	0.0	0.0	0.0	0.0	0.0	1.2055990716391969	0.6196981424388918
DD15-82	0.0	0.0	8.300266617024901	6.951436883145993	8.749764189162104	7.15477735901562	6.9643163492363005	8.749764189162104	7.263835569967103	7.9183515869158745	6.725895016266309	8.974184820398806	7.263835569967103	3.9257596971889566	4.856396950356831	4.981851318628387	5.63186454195887	0.790183975267183	1.150763116369429	4.674445257919233	4.771848327448923	3.050509523928484
DD15-83	0.0	0.0	0.0	0.0	0.0	0.0	0.0	0.0	0.0	0.0	0.0	0.0	0.0	0.0	0.6616361110674129	0.6616361110674129	2.2583607508909496	0.2393582175822998	0.3098490712194459	0.6707432196538394	1.9742038146061167	0.9523605260418968
DD15-84	0.0	0.0	0.0	0.0	12.975201040546231	8.30554047538505	18.402562739079798	12.149769312286756	0.0	12.192608759415839	12.818750489546893	15.264967795953774	0.0	4.581821298152751	1.9999759230668983	0.8126872435912841	0.0	0.0	0.0	0.0	0.0	4.212621979454132
DD15-85	0.0	0.0	13.713232628839627	13.696877413248195	5.6864026563770445	0.0	0.0	17.250128664832832	4.388939873890597	14.55523451715263	16.44752797491457	13.172391349770924	5.3624644365985645	2.8238543743655806	0.0	0.0	0.0	0.0	0.0	0.0	3.560147162313922	3.0056522678105746
DD15-86	0.0	0.0	10.144013707801076	10.144013707801076	17.05376335009893	3.425292610874424	10.86281929041925	19.24612347465681	3.4847655265821404	17.474809625925378	17.405428232983244	16.173254074336203	3.2777371228889765	0.0	2.920185187085337	1.5071571805365829	3.7105649171350414	0.3619711579230685	0.5906161091496412	1.741426847048974	2.0085597968181013	2.155361707644516
DD15-87	0.0	0.0	1.4670807370853811	1.6441275029314746	4.1682873611597	0.0	0.0	4.3302081949970646	0.0	2.1893523498322627	2.1315218947847594	2.4439652139231245	0.0	0.0	3.9510985449300593	6.3471627840513545	4.075309433114978	1.5567889851731234	0.0	0.0	3.322649656690904	1.2393962848777835
DD15-88	0.0	0.0	31.69122911365819	30.957273000792533	37.38589595118326	11.074053967180069	30.68560822350413	42.333891929834536	11.074053967180069	35.269055670249315	37.71853694699314	38.38797412683153	11.074053967180069	3.8968152584244704	11.3688052205279	9.129313252470963	18.01432417652293	1.3889398738905971	1.0535786336895774	1.3889398738905971	11.074053967180069	7.471989962103428
DD15-89	0.0	0.0	0.0	0.0	0.0	0.0	0.0	0.0	0.0	0.0	0.0	0.0	0.0	0.0	0.0	0.0	0.0	0.0	0.0	0.0	0.0	0.0
DD15-9	0.0	0.0	17.83425027873984	18.441467356552693	21.0710501558923	5.537026983590033	13.979124831802368	22.490043495575136	3.8757021552445807	19.647391882125227	19.683509853745576	22.023989070766863	3.8757021552445807	3.762742233730072	5.611697136296295	6.630144398484213	9.258807766414144	3.9484076292122334	1.4616453478582514	3.9484076292122334	4.642877566157535	3.0142066841829265
DD15-90	0.0	0.0	6.198207302232523	6.241724121152212	5.572452003139092	0.0	0.0	5.488279485374199	2.362464436598565	5.412852913296313	5.412852913296313	5.572452003139092	1.5343508218259054	3.3840832225695814	5.735611974533786	5.914322470706724	5.9139907246913985	0.8353998182951121	1.1342442070960759	1.189980703955217	1.1342442070960759	1.0535786336895774
DD15-91	0.0	0.0	3.749757137493341	3.783178924763519	3.9118793595445744	0.0	0.0	3.9118793595445744	0.0	3.963423050754475	5.012067359794951	4.39714788670619	0.0	2.4919872425181784	2.4996113471377024	2.8336859894175617	2.358358735638704	3.0	1.7718483274489236	3.0	1.7718483274489236	1.2190308653869262
DD15-92	0.0	0.0	5.202897339745236	5.592504184741434	5.360829258415368	2.4663182643942223	2.3319953346687115	5.3938122151614545	0.0	3.614172375046565	3.614172375046565	5.649138681141603	0.0	0.0	0.0	0.0	0.0	0.0	0.0	0.0	0.0	0.8126872435912841
DD15-93	0.0	0.0	5.749589982215817	5.580549781951377	5.697680787015183	0.0	0.0	3.5071571805365824	0.0	4.798690033419442	4.798690033419442	4.787148983027389	0.0	3.6972812045984296	3.0618991947536216	3.076601907193748	3.283298295796077	0.0	2.0	1.3552204100419378	0.0	1.4175826245818268
DD15-94	0.0	0.0	3.792935972159463	3.792935972159463	3.445112087989032	1.3889398738905971	1.7882988348649986	4.395966160053852	0.0	5.845524143924084	5.845524143924084	5.339416957147195	0.0	1.4435765937375742	1.4478846316922738	0.0	1.2625561883916023	0.7621244832917735	1.0859134737692049	0.9924541666011196	1.341224126148749	0.0
DD15-95	0.0	0.0	9.435553451859189	9.449636064539403	15.749875611745408	4.0	1.3889398738905971	14.694821341839	1.5343508218259054	11.833475729813294	11.833475729813294	15.515404125844107	1.5343508218259054	12.66072576557998	1.323272222134826	1.323272222134826	3.0732591188748417	0.0	0.0	0.0	5.788298834864999	3.2839469679082502
DD15-96	0.0	0.0	2.8727564210149548	2.8820723547595373	3.150763345884964	3.0	1.041704905417948	2.9226114438183526	0.0	2.9226114438183526	2.9226114438183526	2.9226114438183526	0.0	0.0	0.0	0.0	0.0	0.0	0.0	0.0	1.3802777806280069	1.2417479057164114
DD15-97	0.0	0.0	2.1481959142505738	2.098063233345307	2.782313354000289	1.3889398738905971	1.7882988348649986	1.323272222134826	1.7882988348649986	2.3768508558244035	2.9562027054387148	2.2564995884804704	2.362464436598565	0.0	0.9276278549189364	0.0	0.0	0.0	0.0	0.0	0.8976825249468214	0.0
DD15-98	0.0	0.0	0.0	0.0	0.0	0.0	0.0	0.0	0.0	0.0	0.0	0.0	0.0	0.0	0.0	0.0	0.0	0.0	0.0	0.0	0.6475510143854896	0.0
DD15-99	0.0	0.0	13.290133538635965	11.963666748237861	12.444568573734925	8.30554047538505	15.800949053967258	10.150722011518763	8.30554047538505	14.029221075940411	14.029221075940411	11.665721032239952	8.30554047538505	7.062548007609396	10.634382479872064	9.867828041544673	12.858514595797924	0.5882398892655308	0.9295472136583376	1.0826824453031807	8.30554047538505	3.050509523928484
