topic	BASE_INDRI_50	DDTJU_EXPLORE	GU_RUN3_SIMI	GU_RUN4_SIMI	baseline	lm	lmrf	multir	okapi	simti	simtir	simtir20	tfidf	ul_combi_roc.2	ul_lda_roc.10	ul_lda_roc.2	ul_lda_roc.3	uogTrEpsilonG	uogTrIL	uogTrRR	uogTrSI	uogTrxQuADRR
DD15-1	1.127606871015346	0.419780160935212	0.4009049980146277	0.3720536369481138	0.7556637460855162	0.0	0.0	0.8272463131313913	0.0	1.1328950634763209	1.1328950634763209	0.7779722228498458	0.0	0.0	0.17842512517068726	0.0	0.11045364891518734	0.0	0.0	0.0	0.0	0.0
DD15-10	0.0	1.4	0.8234224404437168	0.8234224404437168	4.0	2.0	3.5	4.0	1.2666666666666666	4.0	4.0	4.0	3.4	0.6666666666666666	1.0769230769230766	0.6720647773279351	0.8271665043816943	4.0	4.0	4.0	4.0	0.8234224404437168
DD15-100	0.0	0.5625007010277339	1.0822215489009748	1.0881075218825638	4.548623870259318	8.333333333333332	8.236222005842258	4.550381912833451	0.0	4.079934456076468	4.093117603287339	4.547008547008547	4.133333333333333	2.333333333333333	6.0	2.333333333333333	3.530739854798774	0.0	0.0017132216296062847	0.0	0.0	0.003373365824904618
DD15-101	0.0	5.8	0.8696856934568047	0.9013281606998929	2.6769617213129457	6.0	5.966257748705418	2.63498778510332	3.333333333333333	2.512072769765772	2.512072769765772	2.6456897344360413	2.1333333333333333	1.3104643104643103	3.0969267139479904	4.84647841609867	4.889413566336644	0.038430026959840345	4.0	2.0269190859010404	8.133333333333333	0.5470085470085468
DD15-102	0.0	0.10401414786766	0.2875440455266499	0.32212312117763203	0.2891345623650041	0.0	0.0	0.2521039761185769	0.0	0.24425819004933405	0.24425819004933405	0.2538952376376521	0.0	0.351120351120351	0.09068825910931172	0.0776160776160776	0.29375970456166844	0.0	0.0	0.0	0.0	0.0
DD15-103	0.0	1.5680954894289119	1.185553652465371	1.2903514537511809	3.3008274383502467	1.75	5.089250743294357	3.2639749034851784	0.0	2.2109134799255257	2.2109134799255257	3.2846217207973414	0.0	0.0	0.017715969875103696	0.0	0.0	0.0	0.0	0.0	3.4	0.07363576594345822
DD15-104	0.0	2.2079148625598832	0.548876861185956	0.5957815127812894	1.981012269591253	1.0	1.8056297227850968	1.9438303546707445	4.0	0.8749733333999736	0.8749733333999736	1.9492468019680005	1.15	0.0	0.0	0.0	0.0	0.0	0.0	0.0	0.0	0.01998361401911697
DD15-105	0.0	0.43775001432271854	0.04422342680730737	0.03774583427415649	1.0535642981396556	0.0	0.0	1.0028281753885564	0.0	1.0093181588342184	1.009744809292835	1.0093181588342184	0.0	0.7332242225859245	5.316563886184139	5.798975042279506	5.247395316778139	0.0	0.0	0.0	0.3104643104643104	0.13067755646303855
DD15-106	0.0	1.0003391936545438	1.178285580116983	1.178285580116983	4.75	1.5	3.181376518218624	4.75	0.6	4.75	4.75	4.75	1.5	3.0	1.6887314439946015	1.4220647773279351	1.56025641025641	0.09800816734727892	1.0	0.5499181669394434	0.4102564102564101	0.008013028925891263
DD15-107	0.0	0.012327799155693485	0.0	0.0	0.014271097544768319	2.0	1.0	0.014271097544768319	0.0	0.014271097544768319	0.0916679542161329	0.014271097544768319	4.0	4.0	2.0	1.3333333333333333	1.0	0.0	0.0	0.0	0.0	0.0
DD15-108	0.0	4.133333333333333	1.2159027674632028	1.0889926731057789	2.1916172082604986	0.8	1.3668995623052973	2.1222694465508285	4.0	1.4357931587668646	1.4357931587668646	2.1222694465508285	5.333333333333333	0.8362220058422589	0.7332242225859245	0.4362220058422589	0.5470085470085468	0.0	0.7332242225859245	0.5133708989682801	0.1213981927452708	0.3061083726564454
DD15-109	0.0	4.871130441639123	1.5674224596962414	1.4887720292769435	2.243252441435953	5.133333333333333	5.133333333333333	2.2917791413233157	7.333333333333332	1.5254187982679457	1.5254187982679457	2.2365654325113504	6.133333333333333	2.1333333333333333	0.1974065214654412	0.0	0.14727153188691647	4.133333333333333	1.3333333333333333	4.133333333333333	1.5321992648654303	0.3446780533523577
DD15-11	0.0	5.351494605143063	2.01919739281208	2.064887967974346	7.531303971359531	5.25	5.1980431848852895	7.531599770253033	5.15	7.820960261493982	7.820960261493982	7.546630015705174	4.9	2.3244811613232663	3.9173860396704736	3.1399552694462467	2.728291395110838	5.766666666666668	4.0	5.766666666666668	5.766666666666668	1.4557581944317024
DD15-110	0.0	0.0	0.5470085470085468	0.5470085470085468	0.5597148312260379	1.3333333333333333	0.8	0.5470085470085468	0.0	0.5503314791018576	0.5526917923829601	0.5503314791018576	0.0	0.0	0.026373547913615927	0.0	0.0	0.0	0.0	0.0	0.0	0.0
DD15-111	0.0	0.4362220058422589	0.1686928456159225	0.1686928456159225	0.021941522351900302	1.3333333333333333	0.8	0.01745050277180392	1.3333333333333333	0.01808771865033287	0.01808771865033287	0.01808771865033287	2.0	0.0	0.0	0.0	0.0	0.0028281753885563967	0.0	0.0	0.0	0.0
DD15-112	0.0	0.4614950218635086	0.6454811915988979	0.6735205997625475	2.670510872309952	2.6	3.2523145532783	2.678715368544038	0.0	2.6666666666666665	2.667430598670797	2.6666666666666665	0.0	0.33853821087863634	0.4	0.6666666666666666	0.6666666666666666	0.0	0.0	0.0	0.0	0.07471203204898692
DD15-113	0.0	3.0	0.5631725165342247	0.5539755943629895	2.077994922163589	1.5	1.32429844922065	2.0691481942531147	0.0	1.173390600659263	1.173390600659263	2.068355771526321	1.15	1.3813765182186235	0.6666666666666666	0.6666666666666666	1.0	0.0007640042402298298	0.03543193975020738	0.06533877823151928	0.0022419077145940827	0.06875096566209968
DD15-114	0.0	0.0	0.36661211129296223	0.36661211129296223	0.04583397710806645	0.6666666666666666	2.0	0.04583397710806645	0.0	0.04583397710806645	0.04583397710806645	0.04583397710806645	0.0	0.0	0.0	0.0	0.0	0.08434642280796124	0.0	0.0	0.08434642280796124	0.0
DD15-115	0.0	0.0	0.4669581202076222	0.2348445225316891	2.329892848699434	1.8	5.604298209044021	2.3470942686343363	0.75	2.5331973227040425	2.5331973227040425	2.3778125926069222	1.0	0.0	0.0	0.0	0.0	0.0	0.0	0.0	0.01443902747046024	0.0
DD15-116	0.0	0.0	0.2981870110797521	0.306483998791691	0.2183923532089212	0.0	0.0	0.2183923532089212	0.0	0.1861712021802808	0.1861712021802808	0.2183923532089212	0.0	0.0	0.2720647773279352	0.2720647773279352	0.3271665043816942	0.0	0.01161911551439025	0.009765097750774757	0.0	0.0
DD15-117	0.0	0.0	0.4102564102564101	0.4102564102564101	0.4753463565721258	0.0	0.0	0.4775209131134274	1.0	0.3112735169723501	0.3112735169723501	0.4736596736596735	2.0	1.4	1.0032753401174452	0.7733431581532846	1.7427053029655113	0.0	0.0018025066317623386	0.002932219434805643	0.0	0.0
DD15-118	0.0	0.0	0.6314601483832974	0.6614217482057158	4.6954891868865465	1.5	2.31658483360611	4.666666666666667	4.65	4.667253984296802	4.667253984296802	4.667285838812334	4.766666666666667	0.4	1.5	1.9665848336061105	1.4	0.01978016093521194	1.0	0.7051503221715986	3.6666666666666665	0.00037238691737384485
DD15-12	0.0	0.0	1.6527057475946578	1.699310574856657	4.049674222432043	0.0	0.0	4.2985755896629785	0.0	4.504894811078482	4.5080381428097125	4.211651527594285	0.0	1.3333333333333333	0.1686928456159225	0.0	0.2379001668942497	0.03448848573319005	0.0	0.0	0.05775610988184096	0.0
DD15-13	0.0	0.0	0.9029541537688816	0.9035646820060907	1.1948704912917645	0.0	0.0	1.18235459015524	0.0	1.84396757131916	1.897478910144588	1.2257077157532583	0.0	0.0	0.0	0.0	0.0	0.21811100292112945	0.008470856144994059	0.015640127251097813	0.2735042735042734	0.0
DD15-14	0.0	0.0	1.2758904988880435	1.2635434802841718	3.48970323923036	0.4	0.4	3.4916198507897804	2.1666666666666665	3.02495326717058	3.001582186109339	3.4734740673419573	0.0	0.36661211129296223	1.103220784743741	2.646847431657558	1.4144880942049165	0.0	0.0008566108148031423	0.0	0.9	0.0
DD15-15	0.0	0.0	1.9833433254935444	1.9833433254935444	7.537118099804823	6.75	5.6941413880383625	7.222014868760429	6.3	7.782482781982408	7.782482781982408	7.250837388980311	7.05	1.3333333333333333	1.032848232848233	4.0	1.9311660383573082	6.75	2.3	6.75	6.75	1.09692671394799
DD15-16	0.0	0.0	0.6589736684000079	0.6589736684000079	3.000901253315881	3.0	3.0	3.0	0.6	3.0007924227267937	3.0007924227267937	3.000403830812693	0.6	0.75	1.5	1.0	3.0	3.0	3.0	3.0	3.0	0.4102564102564101
DD15-17	0.0	0.0	1.8805943923233448	1.8496698677537364	1.9624927410969013	0.6	1.5	2.025398588708025	3.0	1.5608703885328192	1.6403596189972622	2.024573025847136	1.5	3.0	3.0	1.0	1.5	3.75	1.5	3.75	3.75	0.7374229146381044
DD15-18	0.0	0.0	0.5916329284750336	0.5916329284750336	0.9681110029211296	0.0	0.0	0.9836124222941512	0.0	1.3065323970800553	1.3065323970800553	0.9601990384385036	0.0	0.0	0.0	0.0	0.0	0.11045364891518734	0.0	0.0010872368034039886	0.2328482328482328	0.0
DD15-19	0.003577845732377527	0.003577845732377527	2.1394596378575006	2.1212719409738883	7.9249989350507315	5.85	6.910889470621799	7.957092684143001	5.35	7.622613175202756	7.581546302832375	7.920237315895066	5.35	5.71347719500015	6.544836061169144	6.544836061169144	7.42047159410041	5.35	3.0	5.35	5.35	1.2423359248142725
DD15-2	0.0	0.0	2.1317824950005977	2.130917949943472	1.5766994386445656	1.4	2.1979730580385244	1.6638697841915824	2.0	0.9072758528687259	0.9232814317397996	1.5518760894388617	1.0	1.181376518218623	0.8287364287364286	1.5218442665251175	1.1941063561358158	1.0	0.3333333333333333	1.0	1.0	0.18330605564648111
DD15-20	0.0	0.0	2.50019545590874	2.498842131645957	0.6084606705003905	0.0	0.0	0.5851704526303164	0.0	0.5629595562812291	1.213037409290525	0.5736756608509039	0.0	0.0	0.0	0.0	0.0	0.00161532325077164	0.0	0.0	0.015744564786041186	0.0
DD15-21	0.0	0.0	1.2802327695944715	1.2802327695944715	6.0	4.8	6.0	6.0	6.0	6.0	6.0	6.0	2.8	0.0	0.0	0.0	0.0	0.0	0.0	0.0	0.0	0.0
DD15-22	0.0	0.0	3.5234561941791136	3.5186480056210248	0.9439065878035292	0.0	0.0	0.9228439320059906	0.0	0.9954497892120554	1.0103885404431288	0.9171102192429484	0.0	0.0	0.0	0.0	0.0	1.0	0.2379001668942497	1.0	1.0	0.014271097544768319
DD15-23	0.0	0.0	2.1133620457955717	2.16916730852537	5.724462009623188	0.0	0.0	5.648996763684182	0.0	6.8286646668574855	6.87605273772595	5.837990592000248	0.0	1.9299923719530503	7.72300545567162	7.842663575329741	6.327004989647232	3.1333333333333333	0.5470085470085468	3.1333333333333333	0.8	0.7466863163065692
DD15-24	0.0	0.0	0.9872909885956634	1.010404416924254	0.13511115010423175	1.1666666666666663	1.0666666666666669	0.2593870748115528	0.0	0.41555073231504985	1.0275178403134235	0.2393198304360537	0.0	0.0	0.0	0.0	0.0	0.504913010176168	0.005791859180630947	0.04124373982235681	0.7374229146381044	0.5992312817096292
DD15-25	0.0	0.0	0.7827663997876761	0.7827663997876761	0.8031479096253111	0.0	0.0	0.8099508420573509	0.0	0.7758663642998925	0.7788225202198803	0.8099508420573509	0.0	0.0	0.12651963421194187	0.0	0.17842512517068726	0.005791859180630947	0.0	0.0	0.04331708241138072	0.0
DD15-26	0.0	0.0	0.0	0.0	0.0	0.0	0.0	0.0	0.0	0.0	0.0	0.0	0.0	0.0	0.0	0.0	0.0	0.0	0.0	0.0	0.0	0.0
DD15-27	0.0	0.0	2.509175336151945	2.5386616691021735	2.9541948903307764	1.3333333333333333	2.0816483240464634	2.9534501164960285	8.133333333333333	2.7247365121033846	2.733288248981479	2.9701091817942067	7.133333333333333	2.547008547008547	5.746686316306567	4.976319139365051	6.280232769594472	8.333333333333332	3.333333333333333	8.333333333333332	8.533333333333331	2.1568238894900547
DD15-28	0.0	0.0	2.9364988961392564	2.9204569185830485	11.507647609881609	2.333333333333333	7.286783449829361	11.641713614736029	7.8	12.15026188773207	12.148578469780135	11.700343402312159	7.133333333333333	1.4732173469015573	3.8426635753297407	5.3459835892880525	4.407718965614894	8.133333333333333	2.333333333333333	8.133333333333333	8.133333333333333	2.0269190859010404
DD15-29	0.0	0.0	3.224702532754745	3.1976017774589307	6.589754958651046	4.0	2.813243872225826	6.673394269821467	8.333333333333332	6.3187867447982775	6.358870723719907	6.582479656683438	3.333333333333333	2.162753036437247	2.1333333333333333	5.333333333333333	2.333333333333333	8.133333333333333	6.0	8.133333333333333	8.133333333333333	1.7164547754367303
DD15-3	0.0	0.0	3.628873618126085	3.63438273748832	0.29378673964023605	0.0	0.0	0.31440774580088376	2.0	0.3110970948054592	0.4472877470860427	0.28714900731439136	0.8	0.0	0.0	0.0	0.0	0.15079833557688266	0.0	0.0	0.2293585201744417	0.6732173469015572
DD15-30	0.0	0.0	0.7332242225859245	0.7332242225859245	4.0	1.0	0.8	4.025866364299892	1.0	4.410256410256411	4.410256410256411	4.025866364299892	1.3333333333333333	0.8	2.232848232848233	1.8832515002727763	1.41025641025641	4.0	4.0	4.0	4.0	0.7332242225859245
DD15-31	0.0	0.0	0.8234224404437168	0.8234224404437168	4.0	2.75	2.6	4.0	2.1666666666666665	4.0	4.0	4.0	2.75	1.0235042735042734	1.9	1.5	2.0	3.5	3.0	3.5	3.6666666666666665	0.5916329284750336
DD15-32	0.0	0.0	1.4516598993247511	1.4251813734543957	0.5312301718531975	0.0	0.0	0.6612722100662146	0.6	0.6962744547102386	0.9269954363059859	0.6868589991880889	2.25	3.6	1.7328482328482329	3.41025641025641	1.2720647773279352	0.8770846713211374	0.028822520219880257	0.052282711096526976	0.4102564102564101	0.010703323158576238
DD15-33	0.0	0.0	0.0	0.0	8.837079101202386	1.8	7.39393464119227	8.86367799790285	5.333333333333333	8.465924275861267	8.739109322339324	9.039404948226279	6.133333333333333	2.7832305528508057	7.377021866383567	3.1333333333333333	7.980581658219035	0.0	0.0	0.0	0.0	0.5470085470085468
DD15-34	0.0	0.0	2.359999536181628	2.1904363663040614	1.3657313198132572	0.0	0.0	1.4954300142661234	0.0	2.3607441431729628	2.3969184797512324	1.4641495842738563	0.0	2.571898821898822	2.088943123697259	1.9982548645879472	3.0747074671843952	0.017244242866595025	0.0	0.0	0.02887805494092048	0.0
DD15-35	0.0	0.0	3.905435582832887	3.8929000972014665	12.993900507389649	9.133333333333333	12.768818560535474	12.975707799318593	9.133333333333333	12.882760537468009	12.886140723499274	12.95194541003103	9.133333333333333	9.723005455671617	10.723005455671617	10.723005455671617	11.071620744663855	4.133333333333333	0.8	4.133333333333333	9.133333333333333	2.3896721223382875
DD15-36	0.0	0.0	3.727467959045117	3.7450465118884577	9.198010102212061	0.8	2.1706659744068517	9.034342179823485	0.0	8.272342233636753	8.26074260458715	8.999897609590269	0.0	7.643797643797642	2.8	5.333333333333333	2.1333333333333333	2.0	2.0	2.0	2.0	0.5470085470085468
DD15-37	0.0	0.0	0.7332242225859245	0.7332242225859245	4.0	4.0	2.0	4.0	4.0	4.0	4.0	4.0	0.8	1.0	0.8	1.0	2.0	4.0	2.0	4.0	4.0	0.7332242225859245
DD15-38	0.0	0.0	0.2666182574557201	0.3055190584959089	0.021210033685563453	0.0	0.0	0.0457392248604184	0.0	0.04885983533243772	0.10745088387206968	0.04885983533243772	0.0	0.0	0.0	0.0	0.0	0.0	0.0	0.0	0.0	0.0
DD15-39	0.0	0.0	1.95364362588963	1.95364362588963	6.459744329740674	5.066666666666666	6.8705582292963765	6.439500574869949	5.566666666666667	6.401169715714543	6.39342363870495	6.46455818731546	4.766666666666667	5.653864284942857	3.2615027278358104	2.763432265263668	3.0242742758144585	0.11895008344712485	2.0	1.3315881979212807	5.066666666666666	0.37563553293126495
DD15-4	0.0	0.0	0.4124460884010287	0.4509585341009234	2.0003723869173737	0.5	0.6666666666666666	2.0	0.5	2.0	2.0	2.0	2.0	0.5	2.0	1.0	0.6666666666666666	2.0	2.0	2.0	2.0	0.2735042735042734
DD15-40	0.0	0.0	1.3459835892880525	1.4332456199768655	3.7100883046089264	7.633333333333333	6.933333333333333	3.7998492661566265	8.383333333333333	6.383671804146777	6.385211365361697	3.9138297207693	6.8	4.5179726951878845	4.502779561761517	5.783230552850808	7.040439139908832	7.333333333333332	6.0	7.333333333333332	7.333333333333332	1.7164547754367303
DD15-41	0.0	0.0	1.6688456333358042	1.7049580799689863	4.081151299837901	3.4	3.5	3.546902326836828	0.0	4.763263492857848	4.762924299203304	3.5142451481533654	0.0	0.0	0.0	0.0	0.0	0.0	0.0	0.0	0.0014140876942781984	0.0
DD15-42	0.0	0.0	1.1853320719578115	1.292982587710052	0.7374172700340765	1.0	1.0220647773279352	0.7599121708234838	1.5	0.6011451711075311	0.6014343989125366	0.7493020458154874	3.0	0.2328482328482328	0.2720647773279352	0.4102564102564101	0.4102564102564101	1.0	0.2328482328482328	1.0	1.0	0.3271665043816942
DD15-43	0.0	0.0	3.0070011491141977	2.9979305725381447	5.576794800073451	0.0	0.0	5.609663527187423	0.0	5.778303606161487	6.843007123789783	5.611878145685967	0.0	0.0	0.7466863163065692	1.2802327695944715	1.1694462284281837	1.3333333333333333	0.7332242225859245	1.3333333333333333	1.3333333333333333	0.9097615834457936
DD15-44	0.0	0.0	0.9601745771958536	0.9601745771958536	4.5	3.75	3.6	4.5	3.75	4.5	4.5	4.5	2.25	0.8328482328482327	0.9828482328482328	2.0499181669394435	1.7720647773279352	4.5	4.0	4.5	4.5	0.9601745771958536
DD15-45	0.0	0.0	2.8414267407058147	2.6232116668680487	9.040489066868927	9.133333333333333	12.299215510747885	9.035016067503859	8.933333333333332	7.563640520590122	7.7575354920243855	8.95157784548002	8.133333333333333	3.2460863697705795	8.989672122338286	7.939672122338287	9.771620744663856	8.333333333333332	5.0	8.333333333333332	8.333333333333332	2.0792078118739767
DD15-46	0.0	0.0	1.4436408786352843	1.4151308920207013	4.203371997350684	2.1666666666666665	1.5666666666666664	4.246088089075477	2.1666666666666665	4.854939117044333	4.836590722684476	4.261862991485002	3.6666666666666665	1.0	2.954719676371908	2.0661541878064202	2.412112713942858	2.0666666666666664	0.5	2.0666666666666664	1.9	0.646847431657558
DD15-47	0.0	0.0	1.6700016325047302	1.7061540333176899	1.6564857891196751	0.0	0.0	1.3979211346251286	0.0	1.4657771824355792	1.4689607539793217	1.3846585932156512	0.0	0.0	3.2623395618391857	2.7143817747075145	3.5735048475179503	0.3104643104643104	0.003605013263524677	0.026373547913615927	0.3104643104643104	0.001449649071205318
DD15-48	0.0	0.0	1.4364129204391385	1.4364129204391385	1.4328950911581697	1.5	1.0	1.4328950911581697	1.0	1.054880762411226	1.0553426146442753	1.4328950911581697	1.5	3.0	1.0	3.0	1.0	3.0	1.5	3.0	3.0	0.4102564102564101
DD15-49	0.0	0.0	0.30360115164391405	0.3186275300842057	2.935036580760661	0.0	0.0	2.907830049221372	0.0	3.2744114358114103	3.1263565447123294	2.9185955871590226	0.0	1.5514443362544628	0.002989210286125444	0.0	0.0	0.0	0.0	0.0	0.0	0.0
DD15-5	0.0	0.0	2.5478279323097057	2.741276236106471	6.56674479702026	9.133333333333333	10.602273965566713	6.575291928478472	6.8	7.190320346878614	7.2426960119574	6.677506736562065	5.133333333333333	1.1104643104643104	2.0800196496399024	1.7989750422795057	2.2802327695944715	0.1686928456159225	0.0007830901735128441	0.0015280084804596597	0.7332242225859245	1.9534501164960285
DD15-50	0.0	0.0	0.8707890673559149	0.9609164173872498	0.28657101991827955	1.5	3.04478814714336	0.6716459788081698	0.0	1.2419055997764248	1.2425839870855124	0.8072988833010339	0.0	0.0	0.0	0.0	0.0	0.0	0.0	0.0	0.0	0.0010872368034039886
DD15-51	0.0	0.0	0.054216249305076236	0.054216249305076236	7.523668361782464	4.066666666666666	4.649082978330147	7.5758204689343325	1.1666666666666663	8.733943217823537	8.730760255309482	7.568905812530483	2.6666666666666665	0.6666666666666666	4.389672122338288	3.3896721223382875	4.071620744663857	0.05775610988184096	0.8	1.043688533050235	0.5470085470085468	0.4362220058422589
DD15-52	0.0	0.0	2.334815238331606	2.318749253034852	7.910307280763062	1.4	2.8415334433648463	7.8902067155111615	8.133333333333333	8.1932193873076	8.194879531502899	7.926355143560962	2.5	6.751306028521218	5.761502727835809	5.761502727835809	6.0635024948236165	7.566666666666667	3.333333333333333	7.566666666666667	7.566666666666667	1.1948360611691438
DD15-53	0.0	0.0	0.9791098878476502	0.9876305570294868	2.3319494692128564	2.0	4.0	2.438747353886396	2.0	1.526800031079804	1.552508685503856	2.295246077023626	1.0	1.4666666666666668	1.4666666666666668	1.4666666666666668	4.0	1.8	0.13067755646303855	1.8	0.277949088349955	0.016941712289988118
DD15-54	0.0	0.0	0.3906426810044728	0.4900374749021635	1.7993193180692268	0.0	0.0	1.8582438626384536	0.0	3.299139603780106	3.299139603780106	1.89568156783097	0.0	0.0	0.0	0.0	0.0	0.0606990963726354	0.0	0.0	0.007820063625548906	0.0006894672411830173
DD15-55	0.0	0.0	0.14491979311437692	0.14491979311437692	1.0111587804617876	3.0666666666666664	3.4	0.7263673408745984	0.0	0.6995201546156687	0.6997321622793665	0.7281682943644044	2.4	1.181376518218623	1.5	1.15	1.6	0.0	0.0	0.0	0.0	0.0
DD15-56	0.0	0.0	0.0	0.0	0.12525431745957674	0.0	0.0	0.10925278889555494	0.0	0.30466206309086824	0.3079952697988097	0.12373739370960744	0.0	0.3641925326135851	0.0022419077145940827	0.0	0.0	0.0	0.0	0.0	0.0	0.0
DD15-57	0.0	0.0	0.6490017706754383	0.6538737726777482	0.11895008344712485	0.6666666666666666	0.6666666666666666	0.0	0.0	0.0	0.04333951425382517	0.0	0.0	0.0	0.0	0.0	0.0	0.0	0.0	0.0	0.0	0.0
DD15-58	0.0	0.0	0.18330605564648111	0.18330605564648111	1.0207821420905487	0.25	0.25	0.16621302633438045	1.3333333333333333	0.20274147529252173	0.24981423691455645	0.16886872933992025	2.033333333333333	0.2	0.0	0.0	0.0	0.0	0.0	0.0	0.0	0.0
DD15-59	0.0	0.0	1.3134415880487798	1.3431443803807068	0.06800323018350822	0.0	0.0	0.07171936217221228	0.0	0.10261318153120112	0.28423383054863033	0.09121804095714718	0.0	0.7666121112929623	2.6073003704022737	2.790009824819951	3.5074909489220003	0.09152484177034093	0.0007071458883928381	0.00117686984068599	0.0007071458883928381	0.0068748894564979795
DD15-6	0.0	0.0	1.09692671394799	1.09692671394799	0.12278144807088084	0.0	0.0	0.11045364891518734	1.0	0.20212160313132024	0.2181875884280748	0.14888367587502768	0.0	0.4362220058422589	1.3333333333333333	1.0	1.3333333333333333	0.8	0.0916679542161329	0.8	0.4362220058422589	0.5470085470085468
DD15-60	0.0	0.0	1.0052889999138597	1.0052889999138597	0.11604610457591795	0.0	0.0	0.1682102213742397	0.0	0.3155162445103273	0.3285884260035614	0.11604610457591795	0.0	0.0	0.02586636429989254	0.0	0.0	6.5	1.6	6.5	0.9484256055761574	1.5062336692795817
DD15-61	0.0	0.0	2.8646206874784386	2.852230526545758	9.976937443434997	3.8	7.0	9.981733939145665	0.8	9.450172365778764	9.640358574949394	9.966380706076473	5.133333333333333	2.1104643104643106	4.429310592356504	3.3027795617615165	6.09597725902317	0.05775610988184096	0.8	2.0792078118739767	2.0792078118739767	0.8819486223255684
DD15-62	0.0	0.0	0.0	0.0	0.1686928456159225	0.0	0.0	0.018038980907110216	0.0	0.013415860863184512	0.07074818082341948	0.013611633406562724	0.0	0.0	0.0	0.0	0.0	0.0	0.0	0.0	0.0	0.0
DD15-63	0.0	0.0	0.0	0.0	0.07078113843286404	0.0	0.0	4.8650282901005415	0.0	4.749461150439858	4.750177854087712	4.848550796766227	0.8	2.0	0.0	0.0	0.0	0.14727153188691647	0.0006783873090877285	0.0015280084804596597	0.0077224789075079295	0.3627530364372469
DD15-64	0.0	0.0	1.5181329364887213	1.5181329364887213	6.362753036437247	0.0	0.0	6.401183063397088	0.0	6.0384300269598405	6.4108498997515735	6.38282066303175	0.0	0.0	0.0	0.0	0.0	0.13067755646303855	0.8	2.3896721223382875	0.8	0.7512710658625299
DD15-65	0.0	0.0	2.341968145921312	2.341968145921312	0.0	8.333333333333332	11.484888534073658	0.0	3.1333333333333333	0.0	0.0	0.0	9.133333333333333	10.41254114520731	10.723005455671617	9.523005455671619	8.127004989647236	0.0	0.0	0.0	9.133333333333333	2.3896721223382875
DD15-66	0.0	0.0	0.36661211129296223	0.36661211129296223	1.0	3.6	4.75	1.0132284602812236	0.0	1.1189500834471249	1.1189500834471249	1.0077460770095934	2.0	0.0	0.0	0.0	0.0	0.0	0.0	0.0	0.0	0.09800816734727892
DD15-67	0.0	0.0	2.6805775484822223	2.423034127116869	3.751493831621005	7.8	8.333333333333332	8.372147473859174	0.6	7.932583761209055	7.909905869030847	8.283650733567164	8.333333333333332	6.8	8.71645477543673	7.843688533050235	4.849788108770063	3.1333333333333333	0.3104643104643104	3.1333333333333333	5.133333333333333	1.6564478997523628
DD15-68	0.0	0.0	0.14491597881116194	0.146294913293528	1.078951006873307	1.3333333333333333	4.687324110619973	1.102259024822781	1.0	1.1574717223634499	1.2687130833031768	1.1424331213911687	0.0	0.4362220058422589	0.0	0.0	0.0	0.0	0.001449649071205318	0.001608653034402656	0.0606990963726354	0.005864438869611285
DD15-69	0.0	0.0	0.8770224755229202	0.9595289390695736	3.110829294010846	3.5666666666666664	5.249865256959816	6.175800027268746	3.9	6.10890458449544	6.107839444276798	6.191633877726535	2.5666666666666664	0.0	0.006163899577846742	0.0	0.0	0.0	0.0	0.0	2.0	1.5594058589054829
DD15-7	0.0	0.0	1.7437782520517942	1.7468043236230482	10.998550641843732	9.133333333333333	10.4222842917154	10.997977214203763	6.8	10.623897065344462	10.624325370751864	11.001652428702753	5.8	5.8	4.9694462284281835	5.8	8.275745828268523	7.333333333333332	5.333333333333333	7.333333333333332	7.333333333333332	1.7164547754367303
DD15-70	0.0	0.0	0.1565565488751437	0.1565565488751437	0.03204336460077282	0.0	0.0	0.5707615883771949	0.0	1.7056326188177278	1.7062199364478623	0.699683606649088	0.6	0.2328482328482328	0.2047667058987949	0.0	0.0	0.0	0.0	0.0	0.1480548910990809	0.012327799155693485
DD15-71	0.0	0.0	1.593386716408951	1.560392820174776	4.055927174738166	3.25	5.016663078344256	2.8592499889040632	6.85	2.974210857853846	3.05145385101998	2.812760354678073	6.85	0.0	0.0	0.0	0.0	0.0	0.0	0.0	5.85	1.4650875873720215
DD15-72	0.0	0.0	1.3459835892880525	1.3459835892880525	4.316563886184139	3.333333333333333	3.6839097589312053	4.3288916853398325	0.0	4.613566102927805	4.686484615620834	4.323542265272568	2.333333333333333	10.360252419234374	5.627028196648449	8.345983589288052	5.648009768237307	0.05775610988184096	0.3104643104643104	0.3660993670813637	0.9832305528508056	0.0916679542161329
DD15-73	0.0	0.0	2.3969180707830957	2.448748339872766	5.3828423015426266	4.0	2.8760008750257056	5.820703671054994	7.0	6.85618315688229	6.845517072601045	5.690688270523753	7.0	2.1846393618545514	6.679464051304102	3.8760452478852976	7.576279035777831	6.833333333333332	1.6	6.833333333333332	6.8	1.9885195527646653
DD15-74	0.0	0.0	1.0402215398178722	1.0402215398178722	0.7332242225859245	4.0	2.4293105923565044	0.7332242225859245	0.0	1.5486994388586948	1.548656966171318	0.8845001938584955	0.0	0.0	0.0	0.0	0.0	0.0	0.0	0.0	0.008987076581856369	0.0
DD15-75	0.0	0.0	1.6983523560164564	1.6979682004776766	3.0	6.85	6.85	3.1193928152187764	0.0	4.5251041930565	4.5423596435583695	3.0997586939477784	0.0	3.810014737229927	3.5422540917537155	3.8819976814973054	3.8452537422354265	1.8	0.13067755646303855	1.8	6.0	1.2802327695944715
DD15-76	0.0	0.0	1.4834489206477477	1.7322047732209396	0.6185882463412046	0.0	0.0	0.6601867575854585	0.0	0.8814939406579266	0.9049674891857916	0.6633728966139564	0.0	0.0	2.466528358933422	1.8574728574728567	2.429907507465567	0.05775610988184096	0.5956012692854796	0.8741750513902411	0.0	0.3859550579933306
DD15-77	0.0	0.0	1.3120645190776452	1.3120645190776452	4.835827581585548	6.1	3.85	4.448694707488148	0.0	5.228498759015415	5.230016890755944	4.462572746808422	5.25	0.75	3.0	0.6	3.0	0.0	0.0	0.0	6.85	1.7922540917537158
DD15-78	0.0	0.0	0.0	0.0	0.3271665043816942	0.0	0.0	1.0	0.0	1.0	1.0	1.0061638995778468	0.0	0.0	0.0	0.0	0.0	0.0	0.0	0.0	0.02432539973188134	0.5992312817096292
DD15-79	0.0	0.0	0.6979730580385243	0.6979730580385243	1.8271665043816945	3.0	0.6	1.8271665043816945	2.1	2.0499181669394435	2.0499181669394435	1.8271665043816945	0.6	0.6	1.5499181669394435	1.7720647773279352	1.2999181669394435	1.5	0.6	1.5	3.0	0.7374229146381044
DD15-8	0.0	0.0	2.921967792321074	2.956585497594157	8.813354291162657	4.183333333333334	6.05	9.146016275599482	5.75	9.632466945202713	9.643975244053381	9.167754914856587	7.85	0.8720647773279351	5.555213497118183	4.0701523104134125	5.875093444430464	7.1	4.5	7.1	7.1	1.8829423508630272
DD15-80	0.0	0.0	0.4964861624933512	0.5229883524163317	4.153741283449706	0.0	0.0	2.627853883389457	0.0	3.5665392136325846	3.5459120279207297	2.6525839323882003	0.0	0.0	0.0	0.0	0.0	0.0	0.0	0.0	0.0	0.00037238691737384485
DD15-81	0.0	0.0	0.004862521554773193	0.0048978788491928354	0.0867633924110903	1.0	1.299055686634289	0.10183868606114453	0.0	0.07032945307161799	0.17310825092018178	0.07032945307161799	0.0	0.0	0.0	0.0	0.0	0.0	0.0	0.0	0.016867222736422983	0.1552321552321552
DD15-82	0.0	0.0	1.6092142876898985	1.6007815028646093	5.576675593284202	6.1	5.85	5.576675593284202	6.25	5.277821509629045	5.268078362884954	5.577518934740429	6.25	2.7735042735042734	2.64540793548122	2.5321006767815275	2.256442416906008	0.04331708241138072	0.75	1.5594058589054829	4.5	0.45299965048171
DD15-83	0.0	0.0	0.0	0.0	0.0	0.0	0.0	0.0	0.0	0.0	0.0	0.0	0.0	0.0	0.18137651821862344	0.18137651821862344	0.44514820679501055	0.0033071150703059	0.0776160776160776	0.1866715790766423	1.75	0.12834272474207006
DD15-84	0.0	0.0	0.0	0.0	6.870377090397764	6.85	9.08485163075006	6.868453051289633	0.0	7.06354369606352	7.0643847829013655	6.940930244888157	0.0	3.5479886295115857	0.7051503221715986	0.2735042735042734	0.0	0.0	0.0	0.0	0.0	0.5919741946566874
DD15-85	0.0	0.0	0.97157493871105	0.9714139038134808	2.047108583956551	0.0	0.0	2.198539267930083	3.8	3.205759152206773	3.425674738620077	2.127458098062148	5.0	0.9861401727817024	0.0	0.0	0.0	0.0	0.0	0.0	2.833333333333333	1.09692671394799
DD15-86	0.0	0.0	1.5895369481321122	1.5895369481321122	5.290869486016296	2.85	3.2330194993869794	5.331540785332686	3.1666666666666665	5.225196635084395	5.242684249708875	5.311815054321307	2.9166666666666665	0.0	2.3666121112929623	0.6735042735042734	1.2876388241179275	0.059475041723562425	0.5	0.5199147290972598	1.3666666666666665	0.2827960087065012
DD15-87	0.0	0.0	0.3984331527246772	0.4855621947400871	0.7191764356280763	0.0	0.0	0.5488931411637857	0.0	0.4221063841597989	0.42806023082606826	0.5117554975081828	0.0	0.0	1.751335225507054	4.765119549929676	2.061718398560504	0.001388419507229112	0.0	0.0	2.333333333333333	0.3104643104643104
DD15-88	0.0	0.0	3.6695346338444015	3.62686646506299	12.804408450693009	9.133333333333333	12.768818560535474	12.851159295968804	9.133333333333333	12.81882637114534	12.840341806593713	12.798666943290614	9.133333333333333	3.0	5.389672122338288	6.798975042279506	6.6049540779971885	0.8	0.05775610988184096	0.8	9.133333333333333	2.3896721223382875
DD15-89	0.0	0.0	0.0	0.0	0.0	0.0	0.0	0.0	0.0	0.0	0.0	0.0	0.0	0.0	0.0	0.0	0.0	0.0	0.0	0.0	0.0	0.0
DD15-9	0.0	0.0	1.9612228052171543	2.0443726802182542	6.615352669444608	4.566666666666666	6.131980080446107	6.6631521278465975	3.4	6.576553042229464	6.577851375664652	6.628832853731673	3.4	2.533278777959629	2.5948360611691434	3.86150272783581	4.237138260767075	3.5	0.9	3.5	3.9	0.9767250582480144
DD15-90	0.0	0.0	0.9977078382054896	1.0244671739586035	1.0153214958287935	0.0	0.0	1.0079625544960582	2.0	1.3815563272788105	1.3815563272788105	1.0153214958287935	1.0	1.5994603441411952	2.6271878218126816	2.880782306986114	2.8341833576669924	0.0015280084804596597	0.13067755646303855	0.14727153188691647	0.13067755646303855	0.05775610988184096
DD15-91	0.0	0.0	0.6418158430425462	0.6442691963368361	1.4045814791904223	0.0	0.0	1.4045814791904223	0.0	1.4036038917880835	1.4878930714135457	1.4084427186441764	0.0	1.75	0.9455690508322088	1.1768685215493724	0.9142247510668562	3.0	1.5	3.0	1.5	0.4102564102564101
DD15-92	0.0	0.0	0.7957350351098588	0.8191762565411533	1.4746415999232811	1.9	1.75	1.5042695014133514	0.0	1.1849932382046482	1.1849932382046482	1.4817756512329303	0.0	0.0	0.0	0.0	0.0	0.0	0.0	0.0	0.0	0.2735042735042734
DD15-93	0.0	0.0	0.7811742368180606	0.6967800286767699	2.7106228309008813	0.0	0.0	2.6735042735042733	0.0	3.0688682503865685	3.0688682503865685	2.7031834045389567	0.0	1.940009824819951	1.5916329284750337	1.6006707778859677	1.7680291698605728	0.0	2.0	0.20329650625508608	0.0	0.08915105951944716
DD15-94	0.0	0.0	0.9056933046356354	0.9056933046356354	1.5562397629572664	0.8	1.3333333333333333	1.5635869177771191	0.0	1.7763466480317345	1.7763466480317345	1.5748217518408327	0.0	0.4362220058422589	0.2379001668942497	0.0	0.1686928456159225	0.01161911551439025	0.17842512517068726	0.2720647773279352	1.0	0.0
DD15-95	0.0	0.0	1.4319837033159126	1.4135956490075576	8.616820568906586	4.0	0.8	8.58554031440439	1.0	7.786621935532402	7.786621935532402	8.58636587726528	1.0	8.516454775436731	0.3627530364372469	0.3627530364372469	0.7849087139027965	0.0	0.0	0.0	5.333333333333333	1.1694462284281837
DD15-96	0.0	0.0	0.9760850979117108	0.9697820839358136	2.250901253315881	3.0	0.6	2.25	0.0	2.25	2.25	2.25	0.0	0.0	0.0	0.0	0.0	0.0	0.0	0.0	0.5499181669394434	0.08873457968121665
DD15-97	0.0	0.0	0.220866712342088	0.21718668240065314	0.3647900917362154	0.8	1.3333333333333333	0.3627530364372469	1.3333333333333333	0.4205091463190878	0.4210179368009036	0.3750808355929404	2.0	0.0	0.006666413415882914	0.0	0.0	0.0	0.0	0.0	0.003373365824904618	0.0
DD15-98	0.0	0.0	0.0	0.0	0.0	0.0	0.0	0.0	0.0	0.0	0.0	0.0	0.0	0.0	0.0	0.0	0.0	0.0	0.0	0.0	0.0012849162222047141	0.0
DD15-99	0.0	0.0	2.3992522177612714	2.3490571754032468	5.542791728478197	6.85	8.572396703642948	5.493174568793682	6.85	7.2264801850330755	7.2264801850330755	5.601911241461898	6.85	3.5430228100440866	6.965087587372023	5.0422540917537155	6.4895757709890685	0.0005325241486060377	0.2328482328482328	0.3271665043816942	6.85	0.45299965048171
