topic	BASE_INDRI_50	DDTJU_EXPLORE	GU_RUN3_SIMI	GU_RUN4_SIMI	baseline	lm	lmrf	multir	okapi	simti	simtir	simtir20	tfidf	ul_combi_roc.2	ul_lda_roc.10	ul_lda_roc.2	ul_lda_roc.3	uogTrEpsilonG	uogTrIL	uogTrRR	uogTrSI	uogTrxQuADRR
DD15-1	1.2587860230551922	0.4613044428805556	0.8150501690035329	0.7551255708093773	0.7847193654638936	0.0	0.0	1.021083205192213	0.0	1.4683764419863157	1.4683764419863157	0.8620252388710438	0.0	0.0	0.4000166604190095	0.0	0.21053093077294047	0.0	0.0	0.0	0.0	0.0
DD15-10	0.0	1.4	1.3441683590468425	1.3441683590468425	4.0	2.0	3.5	4.0	1.2666666666666666	4.0	4.0	4.0	3.4	0.6666666666666666	1.298259458985488	0.7871019750100767	0.9800079968012796	4.0	4.0	4.0	4.0	1.3441683590468425
DD15-100	0.0	0.9093712521945104	2.0306002723617897	2.049192384240591	4.855895612836386	8.333333333333332	8.440010662401706	4.865152101146038	0.0	4.215496374829962	4.275092694586464	4.8421237230917615	4.133333333333333	2.333333333333333	6.0	2.333333333333333	3.743602887778205	0.0	0.015104724896256418	0.0	0.0	0.023028378054276682
DD15-101	0.0	5.8	1.6709104177197565	1.669570492154267	3.160146540154667	6.0	6.834567598013562	2.957349900617216	3.333333333333333	2.719884571518875	2.719884571518875	3.0025136425492867	2.1333333333333333	1.4324373001936153	3.765230220592723	5.271603454720528	5.397372103011809	0.13944038366432093	4.0	3.1453803490216985	8.133333333333333	0.8421237230917621
DD15-102	0.0	0.2817383728467941	0.7438496886148609	0.7902210836603459	0.6969726539310628	0.0	0.0	0.547148183586456	0.0	0.5571008074329312	0.5571008074329312	0.5731346094880209	0.0	0.5291711865942849	0.12903399167002552	0.1081093250484038	0.5182330966065942	0.0	0.0	0.0	0.0	0.0
DD15-103	0.0	1.723804525340264	2.250527846293856	2.369654700091973	4.290637318137783	1.75	6.2448375588953535	4.158156042282436	0.0	2.6577358543241383	2.6577358543241383	4.216790038419206	0.0	0.0	0.04558550604943018	0.0	0.0	0.0	0.0	0.0	3.4	0.14035395384862698
DD15-104	0.0	2.4345519682375563	1.1906594675518405	1.276938475948772	2.8654627480699664	1.0	2.8639987936474083	2.7165110138840967	4.0	1.263201909187348	1.263201909187348	2.7439587982404388	1.15	0.0	0.0	0.0	0.0	0.0	0.0	0.0	0.0	0.05387409370749015
DD15-105	0.0	0.6526658621569059	0.18856703441985925	0.15242995295734588	1.2186529196702778	0.0	0.0	1.0177812121955851	0.0	1.0594818450257395	1.0626745168846985	1.0594818450257395	0.0	1.230808663334615	5.815467718826801	6.1561466290818085	6.193956065400657	0.0	0.0	0.0	0.4324373001936153	0.24242883196708376
DD15-106	0.0	1.0033565604338084	1.8747046210206355	1.8747046210206355	4.75	1.5	3.258067983340051	4.75	0.6	4.75	4.75	4.75	1.5	3.0	1.8037686416767431	1.5371019750100765	1.7815927923188215	0.1818216239753128	1.0	0.9231064975009612	0.6315927923188215	0.04150307200910161
DD15-107	0.0	0.04862453978605885	0.0	0.0	0.059634302142370366	2.0	1.0	0.059634302142370366	0.0	0.059634302142370366	0.26338667434557844	0.059634302142370366	4.0	4.0	2.0	1.3333333333333333	1.0	0.0	0.0	0.0	0.0	0.0
DD15-108	0.0	4.133333333333333	2.299957912254189	2.110866506593818	2.936244234278282	0.8	1.6824394943687897	2.682504649572751	4.0	1.6113567791163603	1.6113567791163603	2.682504649572751	5.333333333333333	1.040010662401706	1.230808663334615	0.640010662401706	0.8421237230917621	0.0	1.230808663334615	1.0243194726414964	0.297466046573982	0.8192541525996511
DD15-109	0.0	5.071085384084316	2.8704101016153185	2.7206050721029804	3.0340904610800736	5.133333333333333	5.133333333333333	3.202085536922298	7.333333333333332	1.7806508243054044	1.7806508243054044	3.0422137951671435	6.133333333333333	2.1333333333333333	0.4102695544448716	0.0	0.28070790769725396	4.133333333333333	1.3333333333333333	4.133333333333333	2.3869552924164235	0.6909774621421256
DD15-11	0.0	5.359621370030585	3.554629330330475	3.6462783744459215	8.284074831211669	5.25	5.2747346500067165	8.283693760756794	5.15	8.741115274083894	8.741115274083894	8.341489565240664	4.9	2.7139887508040843	4.614155650820393	3.551628312964968	3.839933419392159	5.766666666666668	4.0	5.766666666666668	5.766666666666668	2.2465696487329576
DD15-110	0.0	0.0	0.8421237230917621	0.8421237230917621	0.8999405711885891	1.3333333333333333	0.8	0.8421237230917621	0.0	0.8680654312500881	0.8754009023516707	0.8680654312500881	0.0	0.0	0.08173925717407411	0.0	0.0	0.0	0.0	0.0	0.0	0.0
DD15-111	0.0	0.640010662401706	0.33334201049937084	0.33334201049937084	0.10342767633776162	1.3333333333333333	0.8	0.08212397144648168	1.3333333333333333	0.08658053061216921	0.08658053061216921	0.08658053061216921	2.0	0.0	0.0	0.0	0.0	0.017781212195585202	0.0	0.0	0.0	0.0
DD15-112	0.0	0.7059146362755587	1.1875412203847768	1.1550379042331895	2.694539261990592	2.6	3.6710863264902853	2.7247213560901486	0.0	2.6666666666666665	2.674682693527928	2.6666666666666665	0.0	0.5239208159304614	0.4	0.6666666666666666	0.6666666666666666	0.0	0.0	0.0	0.0	0.2014118208465845
DD15-113	0.0	3.0	1.0518446260692211	1.0273279849872468	2.8152576008046517	1.5	1.7079419855247993	2.7730990970302085	0.0	1.469104194007041	1.469104194007041	2.7678575856545384	1.15	1.4580679833400512	0.6666666666666666	0.6666666666666666	1.0	0.0063275998775999725	0.09117101209886036	0.12121441598354188	0.014432055045877563	0.19754000575918385
DD15-114	0.0	0.0	0.6154043316673075	0.6154043316673075	0.13169333717278922	0.6666666666666666	2.0	0.13169333717278922	0.0	0.13169333717278922	0.13169333717278922	0.13169333717278922	0.0	0.0	0.0	0.0	0.0	0.16667100524968542	0.0	0.0	0.16667100524968542	0.0
DD15-115	0.0	0.0	1.1431330999802354	0.5187280664131875	2.719634145756408	1.8	6.249413506133647	2.7457693496865114	0.75	3.2672139877772186	3.2672139877772186	2.8916840507821857	1.0	0.0	0.0	0.0	0.0	0.0	0.0	0.0	0.03485924183689766	0.0
DD15-116	0.0	0.0	0.4455423911287533	0.4646819289938384	0.5077648478339898	0.0	0.0	0.5077648478339898	0.0	0.4336404249703837	0.4336404249703837	0.5077648478339898	0.0	0.0	0.3871019750100767	0.3871019750100767	0.4800079968012795	0.0	0.05043564682706135	0.05121382162611388	0.0	0.0
DD15-117	0.0	0.0	0.6315927923188215	0.6315927923188215	0.8229365122961745	0.0	0.0	0.8333713397705789	1.0	0.5439448530527358	0.5439448530527358	0.8114223232690362	2.0	1.4	1.1409533001035252	0.9362239812976608	2.2424346219664733	0.0	0.01277034896235095	0.014632423725144209	0.0	0.0
DD15-118	0.0	0.0	1.1606944864433442	1.2530020659654175	4.7712469544149085	1.5	2.6897731641676277	4.666666666666667	4.65	4.672909929469493	4.672909929469493	4.673452851381467	4.766666666666667	0.4	1.5	2.339773164167628	1.4	0.06130444288055559	1.0	1.1393251475977688	3.6666666666666665	0.003853851659377443
DD15-12	0.0	0.0	3.5319426452831406	3.596284793899001	6.179914065749272	0.0	0.0	6.981478027733487	0.0	7.6301131540307185	7.656540243530543	6.646351410161457	0.0	1.3333333333333333	0.33334201049937084	0.0	0.5333555472253461	0.1185234549389658	0.0	0.0	0.13943696734759065	0.0
DD15-13	0.0	0.0	1.5434920486699872	1.5472986621501763	1.4105902532841326	0.0	0.0	1.3484926292249981	0.0	2.390454456328951	2.456256584430363	1.5066621950986108	0.0	0.0	0.0	0.0	0.0	0.320005331200853	0.038544565397884624	0.0515316569716164	0.4210618615458809	0.0
DD15-14	0.0	0.0	2.3139010940243745	2.2556439694681605	4.619007667278988	0.4	0.4	4.6305396607933815	2.1666666666666665	3.8685817704238032	3.8444097475306807	4.565401286734631	0.0	0.6154043316673075	1.4896909651041663	2.9572858428435422	2.0864978446638744	0.0	0.007552362448128209	0.0	0.9	0.0
DD15-15	0.0	0.0	3.4623896441949435	3.4623896441949435	7.920406359736376	6.75	6.579066682864204	7.6649427860711645	6.3	8.42354980264565	8.42354980264565	7.7695230738194025	7.05	1.3333333333333333	1.1243279751452115	4.0	2.756975108970868	6.75	2.3	6.75	6.75	1.7652302205927233
DD15-16	0.0	0.0	1.0831091631013876	1.0831091631013876	3.006385174481176	3.0	3.0	3.0	0.6	3.0052415113756696	3.0052415113756696	3.003442972436156	0.6	0.75	1.5	1.0	3.0	3.0	3.0	3.0	3.0	0.6315927923188215
DD15-17	0.0	0.0	3.4069945432475577	3.353029176677662	2.3456016342144457	0.6	1.5	2.3993257975325504	3.0	1.680654551151376	1.88758973327566	2.3902775512461507	1.5	3.0	3.0	1.0	1.5	3.75	1.5	3.75	3.75	1.1116007891201012
DD15-18	0.0	0.0	0.8896607756588726	0.8896607756588726	1.070005331200853	0.0	0.0	1.189473519401151	0.0	1.6998912888905875	1.6998912888905875	1.1126482710882917	0.0	0.0	0.0	0.0	0.0	0.21053093077294047	0.0	0.0087795151806641	0.32432797514521144	0.0
DD15-19	0.01951012402559838	0.01951012402559838	3.5733485150452515	3.541439230415873	9.120874304927153	5.85	7.383635036049519	9.219895592530603	5.35	8.617330404744841	8.498156764384202	9.105283332303156	5.35	6.321283757422988	7.1807581578508985	7.1807581578508985	8.45959566778432	5.35	3.0	5.35	5.35	1.823030739275389
DD15-2	0.0	0.0	3.8983804213783233	3.9396760476315134	2.3212131771716904	1.4	2.730808663334616	2.645076423542329	2.0	1.1985571946946916	1.2382519459035963	2.2352656943535827	1.0	1.258067983340051	1.0372805116426886	1.8316229817641152	1.5090819555317911	1.0	0.3333333333333333	1.0	1.0	0.3077021658336537
DD15-20	0.0	0.0	4.342405250147937	4.37507591432644	1.259871842709516	0.0	0.0	1.1594899517585329	0.0	1.1325210135871662	2.1051041003555047	1.1120020209701744	0.0	0.0	0.0	0.0	0.0	0.013771889744624241	0.0	0.0	0.08101073795814617	0.0
DD15-21	0.0	0.0	2.0729323864263773	2.0729323864263773	6.0	4.8	6.0	6.0	6.0	6.0	6.0	6.0	2.8	0.0	0.0	0.0	0.0	0.0	0.0	0.0	0.0	0.0
DD15-22	0.0	0.0	6.3767119969377015	6.3161638033886645	1.7836917257481475	0.0	0.0	1.7229411577498124	0.0	1.8724167054838488	1.9364147147895687	1.6956680445136407	0.0	0.0	0.0	0.0	0.0	1.0	0.5333555472253461	1.0	1.0	0.059634302142370366
DD15-23	0.0	0.0	4.555841434014435	4.712474045928949	6.995222859532665	0.0	0.0	6.749251985321871	0.0	8.862569073011903	8.974136064140486	7.427532631018439	0.0	2.380150128428975	8.994849649035134	8.819392592610038	8.271816761204724	3.1333333333333333	0.8421237230917621	3.1333333333333333	0.8	1.0724479625953214
DD15-24	0.0	0.0	2.0770708675960265	2.1022467067921142	0.31846308997893097	1.1666666666666663	1.0666666666666669	0.8153527545860116	0.0	1.1209639706294308	2.116744085726909	0.7236529091376418	0.0	0.0	0.0	0.0	0.0	0.711429950155288	0.032923524752313985	0.12968270195470086	1.1116007891201012	0.8671099718113561
DD15-25	0.0	0.0	1.2474344726461726	1.2474344726461726	0.8867565181482906	0.0	0.0	0.9116222811224703	0.0	0.8388925912042243	0.8545802877482407	0.9116222811224703	0.0	0.0	0.25000650787452816	0.0	0.4000166604190095	0.032923524752313985	0.0	0.0	0.10457772551069296	0.0
DD15-26	0.0	0.0	0.0	0.0	0.0	0.0	0.0	0.0	0.0	0.0	0.0	0.0	0.0	0.0	0.0	0.0	0.0	0.0	0.0	0.0	0.0	0.0
DD15-27	0.0	0.0	4.277121900265489	4.331690755501109	4.0292133566188495	1.3333333333333333	2.872987862895509	4.021505653300094	8.133333333333333	3.761832999295364	3.7920533295320378	4.108612897303368	7.133333333333333	2.842123723091761	6.072447962595321	5.922401686439812	7.072932386426379	8.333333333333332	3.333333333333333	8.333333333333332	8.533333333333331	3.337188340556589
DD15-28	0.0	0.0	5.409305649857565	5.275905676694628	13.114580964634571	2.333333333333333	8.354838986633427	13.560398888947821	7.8	14.198706479582588	14.191632663388994	13.722826550065555	7.133333333333333	1.7485732668737173	4.819392592610038	5.99827035217357	5.988382672234027	8.133333333333333	2.333333333333333	8.133333333333333	8.133333333333333	3.1453803490216985
DD15-29	0.0	0.0	5.739368502990318	5.69359940375916	7.187593451468063	4.0	3.6365899592632696	7.437372498836948	8.333333333333332	6.484514575858915	6.609974982667468	7.098589230402122	3.333333333333333	2.3161359666801022	2.1333333333333333	5.333333333333333	2.333333333333333	8.133333333333333	6.0	8.133333333333333	8.133333333333333	2.7129430488280835
DD15-3	0.0	0.0	6.915902878471372	6.905234458846098	0.707661792080282	0.0	0.0	0.8217591793072467	2.0	0.8092064566187445	1.1407561393373116	0.7132678994215051	0.8	0.0	0.0	0.0	0.0	0.3978383990276813	0.0	0.0	0.6183200165231297	0.9485732668737172
DD15-30	0.0	0.0	1.230808663334615	1.230808663334615	4.0	1.0	0.8	4.088892591204225	1.0	4.631592792318823	4.631592792318823	4.088892591204225	1.3333333333333333	0.8	2.3243279751452115	2.2564398308342946	1.6315927923188216	4.0	4.0	4.0	4.0	1.230808663334615
DD15-31	0.0	0.0	1.3441683590468425	1.3441683590468425	4.0	2.75	2.6	4.0	2.1666666666666665	4.0	4.0	4.0	2.75	1.171061861545881	1.9	1.5	2.0	3.5	3.0	3.5	3.6666666666666665	0.8896607756588726
DD15-32	0.0	0.0	2.6951384417030733	2.6088905033907275	0.9651755548088008	0.0	0.0	1.1019237672315556	0.6	1.1240405308745502	1.5144563078265645	1.1889227881274282	2.25	3.6	1.8243279751452115	3.6315927923188216	1.3871019750100766	1.4031144943022409	0.10458028774824067	0.1818777732056653	0.6315927923188215	0.04472572660677777
DD15-33	0.0	0.0	0.0	0.0	10.965820608854663	1.8	9.17706761247688	11.074079450783094	5.333333333333333	10.627474860776823	11.282935341339154	11.76066370541755	6.133333333333333	3.2821343854934684	7.996579296861562	3.1333333333333333	9.437952983214892	0.0	0.0	0.0	0.0	0.8421237230917621
DD15-34	0.0	0.0	4.597365499822116	4.173077977192822	2.335320521812198	0.0	0.0	2.7996384216532184	0.0	3.822758678369953	3.9619008782689775	2.7039695891880715	0.0	2.632885316763474	2.8369897469605334	2.7079557552905085	4.48239475390176	0.0592617274694829	0.0	0.0	0.06971848367379532	0.0
DD15-35	0.0	0.0	7.521137781682483	7.495086950198248	16.440312034966965	9.133333333333333	15.5536446208163	16.327912457306617	9.133333333333333	16.02433051369617	16.04151419211599	16.23535444542727	9.133333333333333	10.994849649035132	11.994849649035132	11.994849649035132	13.261620167535725	4.133333333333333	0.8	4.133333333333333	9.133333333333333	3.6615163157018014
DD15-36	0.0	0.0	6.864804669845011	6.91047619126585	11.179226960687801	0.8	3.5415753912359236	10.578423528146283	0.0	9.286222014256692	9.251071502401672	10.473187983632924	0.0	7.765770633526947	2.8	5.333333333333333	2.1333333333333333	2.0	2.0	2.0	2.0	0.8421237230917621
DD15-37	0.0	0.0	1.230808663334615	1.230808663334615	4.0	4.0	2.0	4.0	4.0	4.0	4.0	4.0	0.8	1.0	0.8	1.0	2.0	4.0	2.0	4.0	4.0	1.230808663334615
DD15-38	0.0	0.0	0.7961772351475442	0.9139569311733148	0.07805311194635099	0.0	0.0	0.1916147988180205	0.0	0.23203657448987025	0.4021899206028876	0.23203657448987025	0.0	0.0	0.0	0.0	0.0	0.0	0.0	0.0	0.0	0.0
DD15-39	0.0	0.0	3.4531059176954195	3.4531059176954195	7.374392231280463	5.066666666666666	7.557427490117995	7.306791191286168	5.566666666666667	7.209395816688019	7.1757720521366455	7.393383572106693	4.766666666666667	6.465129655951648	3.897424824517567	3.4470590070111693	3.964112490186261	0.26667777361267303	2.0	2.0412890886238406	5.066666666666666	0.7788375099334212
DD15-4	0.0	0.0	0.7470976688400967	0.7820753369169928	2.0038538516593776	0.5	0.6666666666666666	2.0	0.5	2.0	2.0	2.0	2.0	0.5	2.0	1.0	0.6666666666666666	2.0	2.0	2.0	2.0	0.4210618615458809
DD15-40	0.0	0.0	1.9982703521735703	2.255148004653224	3.94179017064079	7.633333333333333	6.933333333333333	4.263930392230657	8.383333333333333	8.69066104815511	8.698197767975397	4.6835940802565785	6.8	5.08790235341999	5.204152659069653	6.282134385493468	7.600688521738948	7.333333333333332	6.0	7.333333333333332	7.333333333333332	2.7129430488280835
DD15-41	0.0	0.0	2.87364181020156	2.9417279727942924	4.541264274743583	3.4	3.5	4.141530273971287	0.0	5.773918850323898	5.770562289890091	3.9873647327724	0.0	0.0	0.0	0.0	0.0	0.0	0.0	0.0	0.008890606097792601	0.0
DD15-42	0.0	0.0	1.9263616689612928	2.099248251919573	1.3589937684933393	1.0	1.1371019750100766	1.4928098448484717	1.5	1.1812801425724566	1.1845751388959258	1.4253672824103345	3.0	0.32432797514521144	0.3871019750100767	0.6315927923188215	0.6315927923188215	1.0	0.32432797514521144	1.0	1.0	0.4800079968012795
DD15-43	0.0	0.0	5.300492554309559	5.267338203677321	5.909472771825232	0.0	0.0	6.006129264223	0.0	6.106141736951059	7.763471790508387	6.008062439875124	0.0	0.0	1.0724479625953214	2.0729323864263773	1.8708193257363208	1.3333333333333333	1.230808663334615	1.3333333333333333	1.3333333333333333	1.3582596897718642
DD15-44	0.0	0.0	1.5546992898197824	1.5546992898197824	4.5	3.75	3.6	4.5	3.75	4.5	4.5	4.5	2.25	0.9243279751452114	1.0743279751452115	2.4231064975009606	1.8871019750100768	4.5	4.0	4.5	4.5	1.5546992898197824
DD15-45	0.0	0.0	4.925266958707698	4.552202156684678	11.043825675382156	9.133333333333333	14.448070620769766	10.986584146571984	8.933333333333332	8.372890826906756	8.785627920118468	10.749097910233457	8.133333333333333	3.399469300013435	10.261516315701801	9.2115163157018	11.961620167535724	8.333333333333332	5.0	8.333333333333332	8.333333333333332	3.229079015508185
DD15-46	0.0	0.0	2.8805976693814017	2.8178435630901624	5.334882471025424	2.1666666666666665	1.5666666666666664	5.458960598860906	2.1666666666666665	6.393129817621889	6.330978520532263	5.524811307856761	3.6666666666666665	1.0	3.1942919646377117	2.2447399812075703	3.0338320510675336	2.0666666666666664	0.5	2.0666666666666664	1.9	0.9572858428435418
DD15-47	0.0	0.0	3.602500164377038	3.7303086392016946	3.5898007186916834	0.0	0.0	2.9580144027011532	0.0	3.2680514730840384	3.2933691549592994	2.9723664394541043	0.0	0.0	4.290001500882624	3.727064568998398	5.287659953325043	0.4324373001936153	0.0255406979247019	0.08173925717407411	0.4324373001936153	0.011706020240885469
DD15-48	0.0	0.0	2.4351612957001154	2.4351612957001154	1.804002583700631	1.5	1.0	1.804002583700631	1.0	1.1659496821333883	1.170673150531037	1.804002583700631	1.5	3.0	1.0	3.0	1.0	3.0	1.5	3.0	3.0	0.6315927923188215
DD15-49	0.0	0.0	0.7353306131829296	0.8097116878230127	4.019942265909733	0.0	0.0	3.904942104388743	0.0	4.288085026490422	3.9803828606567686	3.918270965878388	0.0	1.6533386645341863	0.019242740061170088	0.0	0.0	0.0	0.0	0.0	0.0	0.0
DD15-5	0.0	0.0	4.707852126538216	5.00285046122346	7.4694436174392855	9.133333333333333	11.894276975622107	7.434392423500137	6.8	8.666112970075456	8.855129152877035	7.82431063734425	5.133333333333333	1.2324373001936153	2.405781295928654	2.156146629081808	3.0729323864263773	0.33334201049937084	0.008324350403768064	0.012655199755199943	1.230808663334615	3.0215056533000952
DD15-50	0.0	0.0	1.886931903516302	1.9984097717540208	0.6716837542976042	1.5	4.914941600862976	1.3887268979341338	0.0	2.509191216496121	2.5159043373637378	1.8175956811128249	0.0	0.0	0.0	0.0	0.0	0.0	0.0	0.0	0.0	0.0087795151806641
DD15-51	0.0	0.0	0.24084451843342425	0.24084451843342425	8.00832773856075	4.066666666666666	4.911486896476894	8.208282663822928	1.1666666666666663	9.735532408106023	9.736235898014943	8.167530732007965	2.6666666666666665	0.6666666666666666	5.6615163157018005	4.6615163157018005	6.261620167535727	0.13943696734759065	0.8	1.6632459635282302	0.8421237230917621	0.640010662401706
DD15-52	0.0	0.0	3.6534548402362783	3.61397926313469	8.691311229431356	1.4	3.4641736902476947	8.625267305148274	8.133333333333333	8.953647247644271	8.96157090080229	8.753116019199341	2.5	7.321235686753324	6.397424824517566	6.397424824517566	7.03590838060236	7.566666666666667	3.333333333333333	7.566666666666667	7.566666666666667	1.8307581578509
DD15-53	0.0	0.0	2.1311289190509632	2.1696428900155147	3.228977547762182	2.0	4.0	3.5831202035760383	2.0	1.9002358304841127	1.9891937180444088	3.1002016844846487	1.0	1.4666666666666668	1.4666666666666668	1.4666666666666668	4.0	1.8	0.24242883196708376	1.8	0.5231367396643378	0.07708913079576925
DD15-54	0.0	0.0	0.9551972408074916	1.3024560928088154	2.0742618292568	0.0	0.0	2.2918003560546296	0.0	4.822012780044078	4.822012780044078	2.4730495356753006	0.0	0.0	0.0	0.0	0.0	0.14873302328699098	0.0	0.0	0.0257658284858082	0.005444644755633417
DD15-55	0.0	0.0	0.3773933388839567	0.3773933388839567	1.3580246403904352	3.0666666666666664	3.4	1.1307528151543444	0.0	1.105422200882051	1.1020539389082735	1.1405437763802988	2.4	1.258067983340051	1.5	1.15	1.6	0.0	0.0	0.0	0.0	0.0
DD15-56	0.0	0.0	0.0	0.0	0.2738464055592144	0.0	0.0	0.2364815347495297	0.0	0.5693239704312136	0.5868830007925419	0.2756386674653224	0.0	0.5500958532159066	0.014432055045877563	0.0	0.0	0.0	0.0	0.0	0.0	0.0
DD15-57	0.0	0.0	1.3176320754914796	1.343151849562793	0.26667777361267303	0.6666666666666666	0.6666666666666666	0.0	0.0	0.0	0.2052462079230302	0.0	0.0	0.0	0.0	0.0	0.0	0.0	0.0	0.0	0.0	0.0
DD15-58	0.0	0.0	0.3077021658336537	0.3077021658336537	1.0676675345531779	0.25	0.25	0.3528637412882566	1.3333333333333333	0.3817011294841685	0.4657094888894372	0.35514723244331764	2.033333333333333	0.2	0.0	0.0	0.0	0.0	0.0	0.0	0.0	0.0
DD15-59	0.0	0.0	2.460103062728045	2.4833756716345956	0.26931206947084324	0.0	0.0	0.26499911724850816	0.0	0.4191955480915419	0.8631443669801893	0.35951231447316506	0.0	1.0154043316673076	2.8944383233373334	2.9528906479643267	3.7824423693133746	0.1859028912360606	0.005648827438038076	0.009941476038036872	0.005648827438038076	0.028300971230405907
DD15-6	0.0	0.0	1.7652302205927233	1.7652302205927233	0.2591554705589993	0.0	0.0	0.21053093077294047	1.0	0.4739176051185189	0.5133931822201065	0.34997131443726137	0.0	0.640010662401706	1.3333333333333333	1.0	1.3333333333333333	0.8	0.26338667434557844	0.8	0.640010662401706	0.8421237230917621
DD15-60	0.0	0.0	1.6179106383446915	1.6179106383446915	0.24754970871272475	0.0	0.0	0.42515946142996097	0.0	0.6414648722737499	0.6623895388953716	0.24754970871272475	0.0	0.0	0.08889259120422434	0.0	0.0	6.5	1.6	6.5	1.4698312201262689	2.378537422333539
DD15-61	0.0	0.0	4.936094971801016	4.876921619076292	10.751616398877363	3.8	7.0	10.773726800680564	0.8	9.869530513018196	10.268197605538807	10.69366664453099	5.133333333333333	2.232437300193616	5.08027796334805	4.0041526590696535	6.746944630014718	0.13943696734759065	0.8	3.229079015508185	3.229079015508185	1.800103851833926
DD15-62	0.0	0.0	0.0	0.0	0.33334201049937084	0.0	0.0	0.11824014090137536	0.0	0.08137454585121255	0.2854044650670485	0.08345563345215458	0.0	0.0	0.0	0.0	0.0	0.0	0.0	0.0	0.0	0.0
DD15-63	0.0	0.0	0.0	0.0	0.3030217582598713	0.0	0.0	5.612510972308687	0.0	5.305763895756119	5.313093663708749	5.5335083495435	0.8	2.0	0.0	0.0	0.0	0.28070790769725396	0.006713120867616578	0.012655199755199943	0.04389803300308531	0.5161359666801021
DD15-64	0.0	0.0	2.6062879336517235	2.6062879336517235	6.516135966680102	0.0	0.0	6.6555763503444245	0.0	6.13944038366432	7.091922705531049	6.6378682617005635	0.0	0.0	0.0	0.0	0.0	0.24242883196708376	0.8	3.6615163157018014	0.8	1.5576750198668423
DD15-65	0.0	0.0	4.063044706486835	4.063044706486835	0.0	8.333333333333332	13.81044987569902	0.0	3.1333333333333333	0.0	0.0	0.0	9.133333333333333	11.562412348841518	11.994849649035132	10.794849649035132	10.07181676120472	0.0	0.0	0.0	9.133333333333333	3.6615163157018014
DD15-66	0.0	0.0	0.6154043316673075	0.6154043316673075	1.0	3.6	4.75	1.0535695827792533	0.0	1.2666777736126729	1.2666777736126729	1.0336237645513742	2.0	0.0	0.0	0.0	0.0	0.0	0.0	0.0	0.0	0.1818216239753128
DD15-67	0.0	0.0	4.984764618554574	4.405493384242185	5.226184750618655	7.8	8.333333333333332	9.787368788130859	0.6	9.221349426253331	9.146208084224165	9.525546326643372	8.333333333333332	6.8	9.712943048828084	8.46324596352823	5.846276382161416	3.1333333333333333	0.4324373001936153	3.1333333333333333	5.133333333333333	2.4307076523671856
DD15-68	0.0	0.0	0.5387161276167138	0.5496054171279807	1.9242252722158468	1.3333333333333333	7.016716272527566	1.976609191350736	1.0	2.0536597261471807	2.369816414540479	2.1335674462114094	0.0	0.640010662401706	0.0	0.0	0.0	0.0	0.011706020240885469	0.017372596690167313	0.14873302328699098	0.029264847450288418
DD15-69	0.0	0.0	1.639100920414526	1.8987979151235368	3.8430388288243336	3.5666666666666664	6.1528012378425885	6.901072272019192	3.9	6.809543285706643	6.799675524510198	6.972165552788862	2.5666666666666664	0.0	0.024312269893029426	0.0	0.0	0.0	0.0	0.0	2.0	2.421809261631138
DD15-7	0.0	0.0	2.7933886507935934	2.7873095604715785	12.304795932122405	9.133333333333333	11.362730388181555	12.299674679469344	6.8	11.664515155621796	11.66829133684586	12.322791456714866	5.8	5.8	5.67081932573632	5.8	9.344313623409166	7.333333333333332	5.333333333333333	7.333333333333332	7.333333333333332	2.7129430488280835
DD15-70	0.0	0.0	0.5053717422827961	0.5053717422827961	0.14376349299026334	0.0	0.0	1.224285764697546	0.0	3.8206975404082386	3.826940803211065	1.7247205636511262	0.6	0.32432797514521144	0.5617654736163394	0.0	0.0	0.0	0.0	0.0	0.3077021658336537	0.04862453978605885
DD15-71	0.0	0.0	3.3708749234131385	3.342784526771919	6.089426041895074	3.25	7.003611184489754	5.0027258111985855	6.85	4.795412849794997	5.005657078802206	4.787383747118919	6.85	0.0	0.0	0.0	0.0	0.0	0.0	0.0	5.85	2.2661292399750708
DD15-72	0.0	0.0	1.9982703521735703	1.9982703521735703	4.815467718826801	3.333333333333333	4.316902985660558	4.8640922586128585	0.0	5.406265719759711	5.6642295583629965	4.864036794805778	2.333333333333333	11.47871368235503	6.2479050190204175	8.99827035217357	6.464945696006273	0.13943696734759065	0.4324373001936153	0.7436115649442424	1.482134385493468	0.26338667434557844
DD15-73	0.0	0.0	4.01354950700401	4.047863165410899	5.862409932937252	4.0	3.8184115832385834	6.912092230957994	7.0	8.61374788556849	8.579654281350821	6.442083933906174	7.0	2.754569020086657	7.740042358237734	4.862844760798126	8.371850637621472	6.833333333333332	1.6	6.833333333333332	6.8	3.10004502383816
DD15-74	0.0	0.0	1.9169777745712944	1.9169777745712944	1.230808663334615	4.0	3.0802779633480504	1.230808663334615	0.0	3.2793164221772986	3.2785925262946676	1.850023136449607	0.0	0.0	0.0	0.0	0.0	0.0	0.0	0.0	0.057989997759434864	0.0
DD15-75	0.0	0.0	3.0177539446737875	3.0139683066806806	3.0	6.85	6.85	3.4004530663645904	0.0	5.5869141580179855	5.652217704734228	3.3783795584058023	0.0	4.054335971946491	4.496137236776352	4.614544444457529	5.303862570903542	1.8	0.24242883196708376	1.8	6.0	2.0729323864263773
DD15-76	0.0	0.0	2.783150169640864	3.1831552168919224	1.0312699057466366	0.0	0.0	1.1885984136592167	0.0	1.6677884045990583	1.7904643253231158	1.2049561061717995	0.0	0.0	2.9345636888858038	2.274561023285377	3.5641560239686183	0.13943696734759065	0.8404639418253136	1.3221317198930416	0.0	0.8410577130589997
DD15-77	0.0	0.0	2.365214747684932	2.365214747684932	5.033559365528109	6.1	3.85	4.656379755955151	0.0	5.7620051004000326	5.767746918027385	4.696856614761943	5.25	0.75	3.0	0.6	3.0	0.0	0.0	0.0	6.85	2.74613723677635
DD15-78	0.0	0.0	0.0	0.0	0.4800079968012795	0.0	0.0	1.0	0.0	1.0	1.0	1.0243122698930294	0.0	0.0	0.0	0.0	0.0	0.0	0.0	0.0	0.1082524949238883	0.8671099718113561
DD15-79	0.0	0.0	1.230808663334615	1.230808663334615	1.98000799680128	3.0	0.6	1.98000799680128	2.1	2.4231064975009606	2.4231064975009606	1.98000799680128	0.6	0.6	1.9231064975009609	1.8871019750100768	1.6731064975009609	1.5	0.6	1.5	3.0	1.1116007891201012
DD15-8	0.0	0.0	5.135765053321969	5.216115887275019	10.212056727934076	4.183333333333334	6.05	10.900456911330117	5.75	11.288096783972021	11.251860920745797	10.939481645082948	7.85	0.9871019750100768	6.542342858004504	5.169076349907757	7.2976720989363475	7.1	4.5	7.1	7.1	2.8751712284463755
DD15-80	0.0	0.0	0.9457113901607228	1.0054415201487252	4.342762809105453	0.0	0.0	2.8973427334757456	0.0	4.381757674390522	4.288315498450491	2.991740627166984	0.0	0.0	0.0	0.0	0.0	0.0	0.0	0.0	0.0	0.003853851659377443
DD15-81	0.0	0.0	0.028763643192869205	0.029172008557678517	0.30599762007475	1.0	1.9716974245122656	0.3169294191399503	0.0	0.20296171653131728	0.3913087353389373	0.20296171653131728	0.0	0.0	0.0	0.0	0.0	0.0	0.0	0.0	0.0690379964998072	0.21621865009680769
DD15-82	0.0	0.0	2.635515456219197	2.585620171718397	5.975786149204025	6.1	5.85	5.975786149204025	6.25	5.373279231037212	5.3234046613139645	5.981543243717594	6.25	2.9210618615458817	2.9233259563077367	3.0632157740829373	2.7026175231516008	0.10457772551069296	0.75	2.421809261631138	4.5	0.9577253341271914
DD15-83	0.0	0.0	0.0	0.0	0.0	0.0	0.0	0.0	0.0	0.0	0.0	0.0	0.0	0.0	0.25806798334005104	0.25806798334005104	0.7432374393698209	0.013392395694813321	0.1081093250484038	0.26811199064883035	1.75	0.2560798681603741
DD15-84	0.0	0.0	0.0	0.0	7.689860433762393	6.85	10.560726935924377	7.676020850577244	0.0	7.919935177826461	7.928235482193725	7.944825519804809	0.0	3.8734723150073584	1.1393251475977688	0.4210618615458809	0.0	0.0	0.0	0.0	0.0	1.2192937039593603
DD15-85	0.0	0.0	2.2226872201132264	2.221225692247642	2.1817782933564325	0.0	0.0	2.794912701954525	3.8	4.361144678474182	4.871824680100231	2.533467499141393	5.0	1.5631171599026674	0.0	0.0	0.0	0.0	0.0	0.0	2.833333333333333	1.7652302205927233
DD15-86	0.0	0.0	2.9219609967815607	2.9219609967815607	6.425793071653477	2.85	4.274745980873323	6.547021688631418	3.1666666666666665	6.427852407481723	6.483556188555895	6.452579966937794	2.9166666666666665	0.0	2.615404331667308	0.8210618615458811	1.790734326008026	0.13333888680633652	0.5	0.7819887992705125	1.3666666666666665	0.5615782618881908
DD15-87	0.0	0.0	0.6944188712805032	0.8820821052799805	0.8517873748729189	0.0	0.0	0.8302059546124162	0.0	0.4940323204923751	0.4932534462012125	0.6945109144431563	0.0	0.0	2.350813994535468	5.162129054292615	2.4335250397651462	0.013889235536489795	0.0	0.0	2.333333333333333	0.4324373001936153
DD15-88	0.0	0.0	6.774458024309831	6.698860621910918	15.801426265766585	9.133333333333333	15.5536446208163	16.040585014086076	9.133333333333333	15.849459928550624	15.927572469371553	15.850059899922929	9.133333333333333	3.0	6.6615163157018005	7.1561466290818085	8.79495350086906	0.8	0.13943696734759065	0.8	9.133333333333333	3.6615163157018014
DD15-89	0.0	0.0	0.0	0.0	0.0	0.0	0.0	0.0	0.0	0.0	0.0	0.0	0.0	0.0	0.0	0.0	0.0	0.0	0.0	0.0	0.0	0.0
DD15-9	0.0	0.0	3.62152668656269	3.880463533790752	8.38515445929519	4.566666666666666	7.255113971422416	8.597869377238842	3.4	8.240592312044193	8.24780945701948	8.489838358744048	3.4	2.7820709983339738	3.2307581578509	4.497424824517567	5.276262334450988	3.5	0.9	3.5	3.9	1.5107528266500474
DD15-90	0.0	0.0	1.729589499185673	1.8097475212853644	1.5692957434434	0.0	0.0	1.533093714769305	2.0	2.0815216548843134	2.0815216548843134	1.5692957434434	1.0	1.9397323068125187	3.300795955108166	3.5465379551532106	3.487851809909385	0.012655199755199943	0.24242883196708376	0.28070790769725396	0.24242883196708376	0.13943696734759065
DD15-91	0.0	0.0	1.092158976951609	1.102821005336188	1.7316341201978516	0.0	0.0	1.7316341201978516	0.0	1.7497683369706056	1.941506100056677	1.753583136699394	0.0	1.75	1.2081638365559575	1.6469971239861292	1.0823959584852625	3.0	1.5	3.0	1.5	0.6315927923188215
DD15-92	0.0	0.0	1.3915432010853015	1.421777961290355	1.7969839307062514	1.9	1.75	1.8863591993152249	0.0	1.4395565312833525	1.4395565312833525	1.8258253520951704	0.0	0.0	0.0	0.0	0.0	0.0	0.0	0.0	0.0	0.4210618615458809
DD15-93	0.0	0.0	1.416966907046514	1.2574176358735083	2.9602267995189493	0.0	0.0	2.8210618615458816	0.0	3.5897842711136336	3.5897842711136336	2.9331945117422498	0.0	2.102890647964327	1.8896607756588728	1.9010698583471608	2.2431118287018137	0.0	2.0	0.4333487788623585	0.0	0.23627106268348225
DD15-94	0.0	0.0	1.4373821918566545	1.4373821918566545	1.5819253888636982	0.8	1.3333333333333333	1.6231628804533738	0.0	2.0681445816166777	2.0681445816166777	1.671313547341041	0.0	0.640010662401706	0.5333555472253461	0.0	0.33334201049937084	0.05043564682706135	0.4000166604190095	0.3871019750100767	1.0	0.0
DD15-95	0.0	0.0	2.599514595092783	2.5697301827755745	9.617017700813896	4.0	0.8	9.513954386870662	1.0	8.390583995213364	8.390583995213364	9.523002633157061	1.0	9.512943048828085	0.5161359666801021	0.5161359666801021	1.375479270317108	0.0	0.0	0.0	5.333333333333333	1.8708193257363208
DD15-96	0.0	0.0	1.5942065596263804	1.5895593857358628	2.256385174481176	3.0	0.6	2.25	0.0	2.25	2.25	2.25	0.0	0.0	0.0	0.0	0.0	0.0	0.0	0.0	0.9231064975009612	0.251414099466674
DD15-97	0.0	0.0	0.4875670399022962	0.4715739973254272	0.5355131302749695	0.8	1.3333333333333333	0.5161359666801021	1.3333333333333333	0.6555729340276928	0.6606077746784053	0.5647605064661609	2.0	0.0	0.03511806072265649	0.0	0.0	0.0	0.0	0.0	0.023028378054276682	0.0
DD15-98	0.0	0.0	0.0	0.0	0.0	0.0	0.0	0.0	0.0	0.0	0.0	0.0	0.0	0.0	0.0	0.0	0.0	0.0	0.0	0.0	0.011328543672192316	0.0
DD15-99	0.0	0.0	4.172923142413507	4.010719137038208	5.956314115760704	6.85	9.746194513105996	5.764504048760759	6.85	8.587479827580388	8.587479827580388	6.098085972147608	6.85	4.229027264964993	7.7661292399750685	5.996137236776353	7.755669690203046	0.005382086001654914	0.32432797514521144	0.4800079968012795	6.85	0.9577253341271914
