topic	FifthIterBaseline	FirstIterBaseline	LDA_Indri73	SecondIterationBaseline	TenthIterBaseline	UL_BM25	UL_Kmeans	UL_LDA_200	UL_LDA_NE	UL_LDA_Psum	UPD_IA_BiQBDiJ	UPD_IA_BiQBFi	rmit_lm_nqe	rmit_lm_psg.max	rmit_lm_rocchio.Rp.NRd.10	rmit_oracle.lm.1000	ufmgHM2	ufmgHM3	ufmgHS2	ufmgXM2	ufmgXS2
DD16-1	1.7797387039927697	0.8993713895566854	5.023695135514244	1.7797387039927697	1.7797387039927697	0.0	0.0	2.9104366149809837	3.3493746642106323	0.3590747395944107	0.0	0.0	2.055135319471576	0.3595513722660109	2.6051611571455617	9.355507946603264	3.897882456969065	3.8979000612644072	3.8511143747050585	5.738155047827141	4.476065132134424
DD16-10	2.510514465345421	1.882361506545985	1.6730223181897776	2.510514465345421	2.510514465345421	1.5469778198152375	2.305945262162896	2.304484846870188	1.5308339182370951	3.666714850259384	2.984494570022528	2.984494570022528	2.9935043579116387	1.3863878218523125	2.986027794411686	6.589919525532055	4.682425377724495	4.684964417433418	4.5198942985379205	3.9687270367512943	5.046876478790058
DD16-11	4.21066332985246	3.5473018572661847	2.5834907947926875	4.21066332985246	4.21066332985246	0.17006433014060726	0.0	3.4781399273184643	0.6538884329296771	1.0212970849228793	3.1476532816707268	3.1476532816707268	3.313644114713372	1.8375659207642097	3.4687217336451983	10.782782249936405	8.49919065023884	8.49919065023884	8.518161584252018	8.570712330893246	8.600383097781362
DD16-12	0.0	0.0	0.15214336649593224	0.0	0.0	0.0	0.0	0.0	0.0	3.211598654390706	2.0	2.0	0.001913142315251929	2.0004595351854872	0.0	6.591699122790612	0.0	0.0707021852425648	0.3316807362931376	0.1796952721654774	0.3316807362931376
DD16-13	7.56122740965472	7.56122740965472	4.0	7.56122740965472	7.56122740965472	5.349057084335029	4.622285038932349	1.5891829318421606	3.594793952732074	0.0	4.301447780794272	4.301447780794272	8.46635766552989	7.675897185623378	8.279660115349339	10.58722462999972	6.434475496403638	6.434475496403638	6.434475496403638	6.583105737552836	6.437537070813142
DD16-14	7.172599344154005	7.172599344154005	7.333075737103642	7.172599344154005	7.172599344154005	5.263229425265013	2.5753276690799094	3.1604763929496382	5.008132930054104	0.7163131501769178	1.0922112405751976	1.0922112405751976	7.439251039652783	4.559943053521113	7.207006220113901	10.947790191042145	8.701733182114376	8.704196357958585	8.701733182114376	8.850944156322301	8.72019727041142
DD16-15	2.1388714393945847	1.7987427791133708	1.7987427791133708	2.1388714393945847	2.1388714393945847	1.6153806571932814	4.360346821929944	0.0	1.402258576493405	10.477717161151919	3.817196682897748	3.817196682897748	4.2815079932765325	1.5239175537917309	4.549128576789082	13.125322095429285	4.210806498717063	4.2108862051707225	3.938041939413528	3.844787893541792	4.428327780141826
DD16-16	2.028703080931304	1.402258576493405	3.1812322182992823	1.951198850709312	2.028703080931304	0.4298973451798172	2.2656101925989613	1.3512965484398898	0.0	0.2508725332168724	0.0	0.0	3.5688802526729484	0.7049722397131529	2.720343100912975	9.656687398676914	8.196718551765663	8.197484277335269	8.341859650969143	7.668480879101026	8.54596165138129
DD16-17	5.668919244819517	4.932324720398562	4.355991815022223	5.619457663386804	5.668919244819517	2.0	0.0	1.2475394695812143	3.476968170564305	3.0	4.49597685441218	4.49597685441218	2.262740875258789	8.388043768087938	2.7785577213029566	8.213590634005348	2.7452520263512206	2.7453334343215405	2.7277441925062327	1.8341966760477069	3.0416425906607523
DD16-18	7.7240801343358525	7.201001355606778	3.346044636379556	7.7240801343358525	7.7240801343358525	7.9316256523682025	8.522487781126818	1.7923277808804678	10.03727712829273	3.1626825144594664	2.0631444882461665	2.0631444882461665	11.004583664250116	7.575532611228603	11.026263220698645	10.971553756508328	12.650972557214867	12.650972557214867	12.307143846201837	12.50387880311146	12.456700177946589
DD16-19	0.0	0.0	0.0	0.0	0.0	4.275525805206336	4.742480015781067	0.8274156368454417	3.6811042856593565	0.7431945956439302	2.1821786242954	2.1821786242954	0.07761761917084092	2.0172404445853083	0.0	10.092217951159297	0.0	0.0	0.0	0.0	0.0
DD16-2	5.530448712082663	4.898597324151833	1.9127611387195893	5.530448712082663	5.530448712082663	5.974832645836374	5.247754669730614	11.402490377121143	8.748303212872964	0.7341840781716817	7.518495592814907	7.518495592814907	6.777184821817906	5.268257882073064	6.232902228026835	13.000301681266905	5.966070053350817	5.9661181915056085	6.032515148381788	7.268520296767608	5.744932163989402
DD16-20	9.63598743259173	9.63598743259173	11.005647821866301	9.63598743259173	9.63598743259173	4.564941090952871	7.68612236614223	12.43442557901519	12.726148306664806	0.0	4.439885861197798	4.439885861197798	12.28531679872717	5.927767109827956	11.97845600027576	13.179835100382087	9.460379664987359	9.460379664987359	8.947209617619482	8.524587812330045	9.39757102415144
DD16-21	1.9548831469323749	1.9548831469323749	3.6005006778033883	1.9548831469323749	1.9548831469323749	2.476009592303503	1.6730223181897776	2.7817328961026697	5.291418494378571	1.5813412572297332	2.0827922727780157	2.0827922727780157	6.035215199242924	3.8917189479605483	6.36829475435206	6.589919525532055	2.795146812179246	2.798913405391735	2.9493340125143654	3.6174994655403565	2.7257017895900297
DD16-22	5.63971334156966	5.3417086112489205	6.4059551683884886	5.63971334156966	5.63971334156966	4.495285719910865	3.2314185908810127	0.3159256939654148	3.1404996730831183	0.7176679476250777	3.5532441041438823	3.5532441041438823	7.42465512062467	9.017278764615854	6.372349005252311	8.452039228816759	7.416053907885692	7.416053907885692	7.3940084210315025	7.29708679074805	7.438279992891685
DD16-23	0.0	0.0	0.7487391596316266	0.0	0.0	3.4543236626173366	2.2121703253196925	1.699445223762117	6.984018652768617	2.5302893026343103	2.6823132176628475	2.6823132176628475	9.400831207720259	6.2826716827263525	9.762396576286148	9.806005717938838	4.92357301259068	4.93480377506461	4.920616241050131	5.704295537602644	5.424321098719928
DD16-24	8.333075737103643	8.333075737103643	8.333075737103643	8.333075737103643	8.333075737103643	7.902301188478909	9.051872936806564	8.14381830414717	5.327043809025286	6.718959996448428	9.29249969233326	9.29249969233326	9.056477633370736	7.947165692962757	8.956307793116332	9.015708060271571	8.096244716077155	8.096244716077155	8.105804344631624	8.086254423860545	8.312113492700009
DD16-25	1.474780216879795	1.474780216879795	1.882361506545985	1.474780216879795	1.474780216879795	1.0789087593538906	0.7736509286330924	0.7736509286330924	1.0789087593538906	0.0	0.25349620886734997	0.25349620886734997	4.047804555087257	0.3410447767379465	3.993418993678528		3.3948077880074763	3.3948077880074763	3.3843670150267675	3.1150944444137267	3.5335454282994223
DD16-26	0.0	0.0	0.002746852086714691	0.0	0.0	1.3067904275809648	1.7718483274489236	1.349057084335028	3.4683408972510312	2.773650928633092	0.0	0.0	0.012303851675840078	0.0013413472544611196	0.0	9.77232752617189	0.0	0.0	0.0	0.0	0.0
DD16-27	6.137345541126036	5.400751016705081	7.237514861635965	6.0878839596933245	6.137345541126036	5.268015474133403	4.540568629088289	2.603487926288404	1.858742682610929	0.15214336649593224	2.944628872225766	2.944628872225766	3.0535154335399644	3.711362302231195	3.935071665351016	8.946123347232534	7.989045353851296	7.989045353851296	7.854947937364589	7.838511757090282	7.883796981230664
DD16-28	1.1521433664959322	1.0	4.263638427339419	1.1521433664959322	1.1521433664959322	0.0	0.0	0.5906161091496412	1.349057084335028	0.0	1.930104504049268	1.930104504049268	3.8876737412836055	2.0585988746001345	4.042838486058311	6.5359816845918095	1.4484398714233562	1.4503243375508297	1.607597349924569	3.0484533241728773	1.5867756405787523
DD16-29	1.349057084335028	1.349057084335028	3.0	1.349057084335028	1.349057084335028	0.0	0.0	0.0	0.0	0.0	0.5546149190268751	0.5546149190268751	3.0000876924845823	0.05530241535284245	3.0	9.884337106515186	1.7718483274489236	1.7718483274489236	1.7718483274489236	1.7718483274489236	1.7718483274489236
DD16-3	0.0	0.0	0.35056464412335125	0.0	0.0	0.0	0.0	0.0	0.0	0.0	0.0	0.0	0.0	0.0	0.0	4.212866627016059	0.0	0.0	0.10820282334955016	0.12143597394379445	0.1261724937720935
DD16-30	0.0	0.0	4.374151606436482	0.0	0.0	0.4196632173043379	0.0	0.8993713895566854	0.2187920457372113	0.0	0.7736509286330924	0.7736509286330924	3.3288902762533565	3.773650928633092	3.2508725332168726	7.10337115322872	0.2282150497438984	0.2282150497438984	0.0	0.0	0.0
DD16-31	3.1361153652316576	3.1361153652316576	4.934858144345029	3.1361153652316576	3.1361153652316576	0.0	0.0	2.362464436598565	0.7011292882467025	0.0	0.0	0.008300334509298903	6.36068239599151	0.2394481239207338	6.5922233247363495	8.827697497749293	5.340171450076277	5.340171450076277	5.337138315459076	5.294982504486918	5.0866905059180745
DD16-32	0.0	0.0	1.102267006528949	0.0	0.0	0.0	0.8806666580439079	0.0	1.882361506545985	0.17953736979720536	0.0	0.0	0.26424141941201296	1.0572688076358645	0.0	7.763297470955187	4.254230079765922	4.257133117497939	4.254230079765922	4.229678094844073	4.389719810901611
DD16-33	0.0	0.0	0.04946158143271417	0.0	0.0	1.7718483274489236	0.4072398617068431	0.0	0.8993713895566854	0.0	4.058176814550747	4.058176814550747	0.30959952002115376	0.2881404472697886	0.01225174199747087	9.349371078401843	0.0	0.04946158143271417	0.0	0.0	0.0
DD16-34	1.7224263731695817	1.402258576493405	0.015407273304497187	1.7224263731695817	1.7224263731695817	2.362464436598565	2.362464436598565	4.0	0.6118905243257918	0.0	2.1578175187077813	2.1578175187077813	0.2926229554733426	0.3590747395944107	0.0	8.161207215711935	0.0	0.0	0.0	0.0	0.0
DD16-35	2.362464436598565	2.362464436598565	8.162102198569007	2.362464436598565	2.362464436598565	4.4654939487038	2.94956043375959	0.6318513879308296	0.6602964569573913	0.32016779667617673	0.0	0.0	4.1699670854067215	6.674454806242678	4.331271545852543	9.577982377604084	8.510808915649747	8.510808915649747	8.161207215711935	8.161207215711935	8.161207215711935
DD16-36	1.9548831469323749	1.9548831469323749	4.150814983025045	1.9548831469323749	1.9548831469323749	1.6309179130776252	1.5680576826158288	1.1729869176335523	0.7373901084398975	0.0	2.714863431788192	2.714863431788192	0.06282143348710771	0.007813956314094329	0.4865539716802377	6.0989440063988924	3.8696860585989854	3.8696860585989854	3.851765094954312	3.671124935411078	3.8696860585989854
DD16-37	0.0	0.0	0.0	0.0	0.0	0.0	0.0	0.0	0.0	0.0	0.0	0.0	4.001821492982816e-05	0.002826699191210342	0.0	8.719901201420187	0.26930605469580804	0.26930605469580804	0.0	0.0	0.0
DD16-38	1.0516939323700538	1.0516939323700538	0.0	1.0516939323700538	1.0516939323700538	0.0	0.0	0.0	0.26930605469580804	0.0	2.2121703253196925	2.2121703253196925	2.5095334772846662	0.0056119157764030975	2.5095334772846662	4.771848327448923	2.2121703253196925	2.2121703253196925	2.2121703253196925	2.2121703253196925	2.2121703253196925
DD16-39	1.0426022153450292	0.7011292882467025	0.5244025499067189	0.9293443379906008	1.0426022153450292	0.0	0.0	0.0	0.0	0.0	2.23170361304436	2.23170361304436	0.3882989480819867	0.29734187972486165	0.0	8.676772410904379	0.5323705323758943	0.5323705323758943	1.0397068050637064	2.08833238792975	1.2178471813307228
DD16-4	4.509533477284666	4.509533477284666	6.136162019264548	4.509533477284666	4.509533477284666	1.139497237063818	2.0	2.2748513794640526	3.608362480624769	2.899371389556685	3.581983235004364	3.581983235004364	5.636261210465395	4.656195328191834	5.675306144120093	8.644105715498487	5.581894611060354	5.582029059973904	5.569843464866133	5.534211868333787	5.333120898787912
DD16-40	0.0	0.0	8.336509877435816	0.0	0.0	0.26930605469580804	0.0	0.0	1.0516939323700538	0.0	0.49870837445142896	0.49870837445142896	0.0013583601060686385	1.0526893318253925	0.5444953256751791	10.614241644550066	1.906376596860596	1.906376596860596	1.906376596860596	1.6149696739475243	1.906376596860596
DD16-41	0.2917227276496151	0.0	2.370465613209317	0.2917227276496151	0.2917227276496151	1.6185650216084666	1.5091409826731164	0.0	0.0	0.0	1.349057084335028	1.349057084335028	5.7718483274489225	5.7718483274489225	5.813123049580032	9.361147983737556	4.179072348560558	4.179072348560558	4.179072348560558	4.083490649220494	4.215011689405643
DD16-42	1.503439914935822	1.1812322182992825	0.17006433014060726	1.503439914935822	1.503439914935822	0.0	0.0	0.0	0.0	0.0	0.0	0.0	0.0	0.0	0.0	2.0	0.2871722148397477	0.2871722148397477	0.2861788958848569	0.21436459709276606	0.252344987544187
DD16-43	0.0	0.0	6.3624644365985645	0.0	0.0	0.0	0.0	1.7987427791133708	3.666212433055732	0.0	0.0	0.0	4.177215976272944	0.29177490909027565	4.1612072157119355	11.059337473041873	6.3624644365985645	6.3624644365985645	6.3624644365985645	2.94956043375959	6.3624644365985645
DD16-44	3.8189055413743818	3.3505646441233514	1.0008949828570728	3.8189055413743818	3.8189055413743818	1.7718483274489236	1.0516939323700538	0.15214336649593224	3.0	0.0	2.7071533134813985	2.7071533134813985	0.0	0.4552177634502501	0.22826876759225115	4.974972659559258	3.0359393408450868	3.0359393408450868	3.3410956638595555	3.0348272272955605	3.5424062898247497
DD16-45	0.0	0.0	0.3059452621628959	0.0	0.0	2.229723742378936	0.0	1.0516939323700538	3.0	0.3301482284786956	2.1366091816516284	2.1366091816516284	0.17006433014060726	1.2326307242251946	1.1604763929496384	7.4728731121467025	0.0	0.033833908340669835	0.0	0.0	0.0
DD16-46	4.771848327448923	4.771848327448923	1.3993630361733702	4.771848327448923	4.771848327448923	0.0	0.0	0.0	0.0	0.0	0.5880755417403658	0.5880755417403658	1.7863068201593153	1.4833600093476609	1.7718483274489236	9.325819184261393	0.2835174650967408	0.2835174650967408	0.3984199663143209	0.3448898442926892	0.3461791253709798
DD16-47	1.5796089584527653	1.3505646441233512	3.2741837856700218	1.5796089584527653	1.5796089584527653	1.658920699975455	1.4271272682445302	1.6158697786459602	1.9699170788822475	0.4038451642983204	2.872844383007322	2.872844383007322	0.6691549664616702	2.8294730597886737	2.066275299059771	3.4550570005090933	3.297024138197032	3.297024138197032	3.2974589760901276	3.2282394078933767	3.294361364006192
DD16-48	0.8993713895566854	0.8993713895566854	0.0	0.8993713895566854	0.8993713895566854	0.0	0.0	1.0429569833289003	0.17006433014060726	0.0	0.0	0.0	2.773650928633092	0.03310850212846825	2.773650928633092	6.706198807760807	0.7011292882467025	0.7011292882467025	0.7011292882467025	0.7011292882467025	0.7011292882467025
DD16-49	3.0	3.0	1.349057084335028	3.0	3.0	1.7718483274489236	0.2550964952109109	0.0	0.0	0.2187920457372113	1.7718483274489236	1.7718483274489236	3.000162717068964	3.3215468956391487	3.0	6.39021146647976	4.160476392949638	4.160476392949638	4.160476392949638	4.160476392949638	4.160476392949638
DD16-5	4.2140530268566145	3.9097662938647497	4.130182294545375	4.2140530268566145	4.2140530268566145	4.660296456957392	0.0	0.0	0.32016779667617673	0.0	5.402258576493405	5.402258576493405	4.840449751982523	6.101461976369031	4.1612072157119355	9.708509072978119	6.682632233274743	6.682632233274743	6.702593096879778	6.654187164248179	6.702593096879778
DD16-50	3.773650928633092	3.773650928633092	4.181232218299281	3.773650928633092	3.773650928633092	1.7718483274489236	1.1604763929496384	1.8616170123475264	2.5302893026343103	2.6855013978206204	3.395014080439497	3.395014080439497	3.7719024005042487	1.3537881693269591	3.8180233612913215	6.524837134643162	5.114437516196636	5.114437516196636	5.080603607855966	4.954883146932374	5.080603607855966
DD16-51	4.051693932370053	4.051693932370053	4.349057084335029	4.051693932370053	4.051693932370053	1.1604763929496384	0.26930605469580804	2.5095334772846662	1.7718483274489236	0.0	4.771848327448923	4.771848327448923	0.013125672631743971	0.4476670064133201	0.2187920457372113	9.097604134517496	3.0	3.0	3.0	3.0	3.0
DD16-52	1.939666789218949	1.5473018572661847	1.4050852756846153	1.8390245849158	1.939666789218949	2.4979461789889963	3.7011292882467024	0.0	3.0	0.4151803935489993	1.6326458839349016	1.6326458839349016	2.191678165205529	3.5375791360175115	1.349057084335028	11.38302681653459	1.263939414518516	1.263939414518516	0.9370744925909428	0.9332819372658908	0.8265452393455675
DD16-53	7.564836682116767	7.346044636379558	8.721408761208513	7.564836682116767	7.564836682116767	4.5522979040466645	1.657355071704316	4.349601699937812	7.47486484285917	0.0	5.905353388280304	5.905353388280304	8.724744056147271	8.227246487501235	8.816237769144587	10.2104333157293	9.46179078713314	9.46179078713314	9.46179078713314	9.10246235146577	9.44756825261986
DD16-6	2.046164211512548	1.0516939323700538	1.4147332746608547	1.9939233705692068	2.046164211512548	0.0	0.0	0.0	0.0	0.0	0.0	0.0	0.0	0.0009527651713230207	0.0	7.993593007990537	4.166646216485511	4.175934969659849	4.166646216485511	3.9803705829091545	4.372987760458774
DD16-7	0.8711936183873098	0.7011292882467025	0.7736509286330924	0.8711936183873098	0.8711936183873098	2.2560476399040965	1.882361506545985	2.899371389556685	2.0	0.6555469621007085	0.0	0.0	2.475609162270371	2.2621842069716944	1.6730223181897776		3.214206605921092	3.214206605921092	3.1812322182992823	2.0806036078559678	3.214206605921092
DD16-8	1.7463620416281955	1.6005006778033883	1.0328100245398402	1.7463620416281955	1.7463620416281955	2.7182296063120006	2.207760240167998	3.078908759353891	4.012643586325072	0.8076903285966407	2.3878957641519327	2.3878957641519327	3.5311355413417584	2.726024389611573	4.038519081764701	6.590861702470633	2.4590074115667355	2.459115889612712	2.45915348927702	1.7287096963056514	2.4585324422889365
DD16-9	5.002956243570927	4.391894983830651	4.9170474375974775	5.002956243570927	5.002956243570927	8.323323762932842	4.646764134511123	3.2902755032418214	5.634158091567122	0.7186878976052591	5.896182257899941	5.896182257899941	8.126406167279411	8.426477118555226	7.213822288392513	8.280708210799844	8.190841727164571	8.190841727164571	8.201647259039568	7.988122187641678	8.176080960605212
