topic	FifthIterBaseline	FirstIterBaseline	LDA_Indri73	SecondIterationBaseline	TenthIterBaseline	UL_BM25	UL_Kmeans	UL_LDA_200	UL_LDA_NE	UL_LDA_Psum	UPD_IA_BiQBDiJ	UPD_IA_BiQBFi	rmit_lm_nqe	rmit_lm_psg.max	rmit_lm_rocchio.Rp.NRd.10	rmit_oracle.lm.1000	ufmgHM2	ufmgHM3	ufmgHS2	ufmgXM2	ufmgXS2
DD16-1	1.573272133285719	0.5454545454545455	3.4850746227093805	1.573272133285719	1.573272133285719	0.0	0.0	1.9548259013175304	2.772510386123005	0.6427289048473968	0.0	0.0	1.1183418655777952	0.6480535275708362	1.7187759081555916	8.196338949796827	4.589177686145809	4.5903222580134	4.338132473727123	5.011344801515415	5.116940222326715
DD16-10	1.9165383876856048	1.2660098522167489	0.9054545454545456	1.9165383876856048	1.9165383876856048	1.3442892026993405	2.2768977909317987	1.9245709741628287	1.5645709741628289	3.598262243355497	2.7354437329460617	2.7354437329460617	2.3279128514997303	1.2495036798645611	2.2372137182868923	5.695616306694862	3.7025778912243714	3.732232866695537	3.438881237469312	2.66320713051129	3.935760560611232
DD16-11	3.623577350443252	2.72	1.5320197044334978	3.623577350443252	3.623577350443252	0.2432065217391305	0.0	3.276304862065891	0.8254194197586838	0.6121265135122693	2.111505673472028	2.111505673472028	1.7582022262775656	1.163660431107043	1.923932434643825	9.532490318507543	7.534677964152764	7.534677964152764	7.7498796154665985	7.7928742171968866	7.831387951985983
DD16-12	0.0	0.0	0.13042422279792748	0.0	0.0	0.0	0.0	0.0	0.0	2.8489370989002327	2.0	2.0	0.01196524064171123	2.005407201546641	0.0	5.702209989229485	0.0	0.14685179691228575	0.4517886752216258	0.15496933206263436	0.4517886752216258
DD16-13	5.757196596506943	5.757196596506943	4.0	5.757196596506943	5.757196596506943	4.818181818181818	2.989923869234214	1.0777693141534586	2.8387507912165715	0.0	4.503871153984116	4.503871153984116	7.287859674771367	6.3621704271296	6.942717021752312	8.905388337402476	5.277276763835791	5.277276763835791	5.277276763835791	5.225198191549109	5.325804187764789
DD16-14	5.717196596506943	5.717196596506943	5.257196596506941	5.717196596506943	5.717196596506943	4.856854260163956	2.4065627781011067	2.54	4.49204447755526	0.8334422032584965	1.4170340180825418	1.4170340180825418	6.728160623401967	3.070544145290696	6.547659250590731	9.605553682188381	7.585260924451215	7.618543065869979	7.585260924451215	7.627910593797232	7.671141369034232
DD16-15	1.5773221343873518	1.0909090909090908	1.0909090909090908	1.5773221343873518	1.5773221343873518	1.94378597578511	3.345764509268757	0.0	0.5320197044334977	9.300704918910947	3.1076394640068687	3.1076394640068687	3.3470948312568902	1.9202256518805367	3.7438504739076746	11.240105928718018	3.0625433175137724	3.068059168104475	2.9396610632062004	2.6542643644489594	3.3307863819172203
DD16-16	1.2162767970432156	0.5320197044334977	3.0	1.104043747246446	1.2162767970432156	0.64709526969011	1.357438256232971	1.2432065217391304	0.0	0.3474975984803782	0.0	0.0	3.2225665505907677	1.2211945511674107	2.147558227884236	8.227023561768295	7.108552889210805	7.123375170947805	7.1145712410521424	6.306693709867451	7.545062948791188
DD16-17	4.714856392812601	4.04	4.356183323396212	4.650983020594589	4.714856392812601	2.0	0.0	0.8805689730347533	2.7409482037835757	3.0	5.072177333699832	5.072177333699832	2.254749882271011	6.390422423419343	3.0591113718603364	6.806350554667348	2.357144377981065	2.3597970992348882	2.2931397369691884	1.5801666169717241	2.471354176882016
DD16-18	6.039536431364501	5.622928795342588	1.8109090909090912	6.039536431364501	6.039536431364501	6.457420765389116	6.748573006595574	1.234091964046338	8.146718889210089	2.6637859757851103	2.9709044749966296	2.9709044749966296	9.8270056580427	6.965738941878481	9.701423774020883	9.709305975776283	10.937187921995985	10.937187921995985	10.592217781748417	10.716998701519417	10.692478006643237
DD16-19	0.0	0.0	0.0	0.0	0.0	3.6173933650332457	3.4315712067500663	1.0979527350159284	2.3569189431258395	1.0026156516703009	2.4424086901832416	2.4424086901832416	0.19788315807662848	2.0768416860272882	0.0	8.560424347187478	0.0	0.0	0.0	0.0	0.0
DD16-2	4.098005981063803	3.4039140170174647	1.1191227708354567	4.098005981063803	4.098005981063803	4.936513248512384	3.9938466210983465	8.550607715910665	6.342928795342589	0.907943715285965	5.762236546770453	5.762236546770453	5.541793919735373	4.641674233629776	4.643890878811244	11.069868160966024	5.3821242088764105	5.385691378670285	5.548298610434152	5.438445423658523	5.39230302446352
DD16-20	7.71691894312584	7.71691894312584	8.54544630928977	7.71691894312584	7.71691894312584	3.195805680218608	7.736107055217032	10.079035850559624	10.286714771127695	0.0	3.411234706055779	3.411234706055779	10.025889633789593	5.412779395658535	9.734577356918725	11.390974973339064	9.329766146387046	9.329766146387046	9.02418126237805	8.017295386283735	9.290549237289133
DD16-21	1.36	1.36	2.811464397671294	1.36	1.36	2.520104312670929	0.9054545454545456	1.8114643976712943	4.5490937024818825	1.3318929878925552	1.3581534728561124	1.3581534728561124	4.984449138652512	2.6372105784418234	5.437298217029508	5.695616306694862	2.5552500877755238	2.5763113119083942	2.695190712784597	3.5058774428148265	2.5523829388525265
DD16-22	4.774263683081967	4.54	5.22672280418547	4.774263683081967	4.774263683081967	4.320033612777227	2.084191670398567	0.3470459820231689	2.9912630525914268	0.8152156314773047	2.9978394818388323	2.9978394818388323	6.6417076626742695	7.2696798813593375	5.311464397671295	7.549805075315584	6.7014846892381925	6.7014846892381925	6.689231943212073	6.598075506388747	6.733046624790624
DD16-23	0.0	0.0	0.7834555960489318	0.0	0.0	2.5015130873341898	0.9390147783251236	0.8504242227979277	5.439014778325124	1.8181818181818183	2.7206939392330405	2.7206939392330405	7.638731474374904	5.9692530667464245	8.238430269513007	8.40722501711605	3.993072827363098	4.082373855732587	4.008104804257243	3.93929498716567	4.544580090937909
DD16-24	6.257196596506943	6.257196596506943	6.257196596506943	6.257196596506943	6.257196596506943	6.816021300020652	7.282957419053124	6.909716213421338	3.7754485823741337	5.556172033952106	7.9014478439615585	7.9014478439615585	8.111845246389956	6.552718553617443	8.017668836304445	7.974538801252067	7.157074056368396	7.157074056368396	7.198619378977503	7.121413427177436	7.3017163884845875
DD16-25	0.6260098522167491	0.6260098522167491	1.2660098522167489	0.6260098522167491	0.6260098522167491	0.8668189978782439	0.3600000000000001	0.3600000000000001	0.8668189978782439	0.0	0.3432728077046772	0.3432728077046772	3.4521547069806737	0.3648623123610715	3.239125654446035		2.676948340309285	2.676948340309285	2.6435416555509907	2.3686879996900108	2.736207013388336
DD16-26	0.0	0.0	0.011744112958618994	0.0	0.0	0.7638245609338189	1.5	0.8181818181818182	3.4552238301685314	2.3600000000000003	0.0	0.0	0.0474088600086388	0.011943445482097527	0.0	8.391953129029977	0.0	0.0	0.0	0.0	0.0
DD16-27	4.892052989319544	4.217196596506942	5.782287586029803	4.828179617101531	4.892052989319544	4.671516908879079	3.899133766577157	2.615264919144246	1.5558111229924072	0.13042422279792748	3.144031174783595	3.144031174783595	2.3505125336621404	2.4069457218883032	3.5364184987068383	7.9879702181580905	6.645457902966799	6.645457902966799	6.475208636645457	6.479836419256044	6.533895380901942
DD16-28	1.1304242227979275	1.0	3.4054545454545453	1.1304242227979275	1.1304242227979275	0.0	0.0	0.5	0.8181818181818182	0.0	1.503851143829797	1.503851143829797	3.2905235686586485	2.097926298990455	3.4574718986720057	5.647967904701033	1.4222104754619291	1.4325294608577783	1.5848747755918482	2.156165437070612	1.4692671560651105
DD16-29	0.8181818181818182	0.8181818181818182	3.0	0.8181818181818182	0.8181818181818182	0.0	0.0	0.0	0.0	0.0	0.9260980648346973	0.9260980648346973	3.002858300013678	0.14358288770053476	3.0	8.535839554985351	1.5	1.5	1.5	1.5	1.5
DD16-3	0.0	0.0	0.13300492610837442	0.0	0.0	0.0	0.0	0.0	0.0	0.0	0.0	0.0	0.0	0.0	0.0	3.6533471118618923	0.0	0.0	0.2085431887786941	0.20963477998937244	0.2487137453316564
DD16-30	0.0	0.0	3.1714643976712944	0.0	0.0	0.5809519483953387	0.0	0.5454545454545455	0.15575919042605765	0.0	0.3600000000000001	0.3600000000000001	3.591039191794665	3.3600000000000003	3.3474975984803783	5.946295193502191	0.1956363341968912	0.1956363341968912	0.0	0.0	0.0
DD16-31	2.3600000000000003	2.3600000000000003	3.450909090909091	2.3600000000000003	2.3600000000000003	0.0	0.0	2.0	0.26600985221674883	0.0	0.0	0.03408225437928408	5.6684663563823285	0.5001055991087799	6.043682964759578	7.93094613889754	5.2767360153458585	5.2767360153458585	5.058767726814116	4.953539009280094	4.8410888419664335
DD16-32	0.0	0.0	0.6767802043118017	0.0	0.0	0.0	0.5873743046404472	0.0	1.2660098522167489	0.3213644524236984	0.0	0.0	0.3119617474762046	0.4263691042184925	0.0	6.78032147444764	3.962801448512865	3.9826491717535513	3.962801448512865	3.8419945362163928	4.147548858571654
DD16-33	0.0	0.0	0.06387337221801266	0.0	0.0	1.5	0.4952340054066231	0.0	0.5454545454545455	0.0	2.709635451716898	2.709635451716898	0.3805014129765135	0.4060603585878428	0.04498994638069705	8.118671325546027	0.0	0.06387337221801266	0.0	0.0	0.0
DD16-34	0.8781363657290181	0.5320197044334977	0.03609140467478157	0.8781363657290181	0.8781363657290181	2.0	2.0	4.0	0.5537955818635973	0.0	1.7336379957564878	1.7336379957564878	0.21646606548233266	0.6427289048473968	0.0	7.090909090909091	0.0	0.0	0.0	0.0	0.0
DD16-35	2.0	2.0	7.099181226540332	2.0	2.0	3.3517575365049463	1.2520197044334982	0.6940919640463378	0.8325297047737813	0.34611666129552043	0.0	0.0	3.130398546835016	6.2788941479332445	3.334115612648221	8.36088237770351	7.65548006507192	7.65548006507192	7.090909090909091	7.090909090909091	7.090909090909091
DD16-36	1.36	1.36	3.5387371249440216	1.36	1.36	1.2727272727272727	1.1800000000000002	0.5676131130863141	0.3130049261083745	0.0	2.326521239121401	2.326521239121401	0.183921372651956	0.02033166474033316	0.3684491978609626	5.0808704334224135	3.194393266029324	3.194393266029324	3.08161096708812	2.8460632567561346	3.194393266029324
DD16-37	0.0	0.0	0.0	0.0	0.0	0.0	0.0	0.0	0.0	0.0	0.0	0.0	0.0014850663716814158	0.015478478093774018	0.0	6.437196596506943	0.4820466786355476	0.4820466786355476	0.0	0.0	0.0
DD16-38	0.3990147783251233	0.3990147783251233	0.0	0.3990147783251233	0.3990147783251233	0.0	0.0	0.0	0.4820466786355476	0.0	0.9390147783251236	0.9390147783251236	1.3581818181818184	0.028868960406035742	1.3581818181818184	4.5	0.9390147783251236	0.9390147783251236	0.9390147783251236	0.9390147783251236	0.9390147783251236
DD16-39	0.6476435759092753	0.26600985221674883	0.8468564612442432	0.4616461864136401	0.6476435759092753	0.0	0.0	0.0	0.0	0.0	2.069909085006905	2.069909085006905	0.3686946648446514	0.5634535905153387	0.0	7.064351741820746	0.6148089536208947	0.6148089536208947	1.5077317816441589	1.8931238005143485	1.8453386938778549
DD16-4	3.3581818181818184	3.3581818181818184	4.569439001123051	3.3581818181818184	3.3581818181818184	0.8050420414261859	2.0	1.3086060409797458	2.4908012608961263	2.5454545454545454	2.2171965965069416	2.2171965965069416	5.058776182483831	3.114592781577812	5.306358594786577	7.1383400781300725	5.018371744938847	5.0238536840819545	4.985117344441538	4.852381120610918	4.428178733752513
DD16-40	0.0	0.0	7.4326021818869235	0.0	0.0	0.4820466786355476	0.0	0.0	0.3990147783251233	0.0	0.9445481125473218	0.9445481125473218	0.014055327546901808	0.4060483773848798	0.5234222763165997	9.465402718877826	1.362728904847397	1.362728904847397	1.362728904847397	0.8222597435571921	1.362728904847397
DD16-41	0.20767892056807688	0.0	2.0249953453733007	0.20767892056807688	0.20767892056807688	0.9473220137297262	0.9912401488295784	0.0	0.0	0.0	0.8181818181818182	0.8181818181818182	5.5	5.5	5.576664502524626	8.201480913698207	3.2020466786355484	3.2020466786355484	3.2020466786355484	3.0779397552870584	3.2823877917414723
DD16-42	1.373630744537058	1.0	0.2432065217391305	1.373630744537058	1.373630744537058	0.0	0.0	0.0	0.0	0.0	0.0	0.0	0.0	0.0	0.0	2.0	0.5607977998443372	0.5607977998443372	0.5485573624419087	0.3847347616047227	0.4974274906633128
DD16-43	0.0	0.0	6.0	0.0	0.0	0.0	0.0	1.0909090909090908	2.1570257522046115	0.0	0.0	0.0	3.141279757427815	0.2092154774597873	3.0909090909090917	9.238533325970867	6.0	6.0	6.0	1.2520197044334982	6.0
DD16-44	3.588228756276906	3.1330049261083746	1.008272135631242	3.588228756276906	3.588228756276906	1.5	0.3990147783251233	0.13042422279792748	3.0	0.0	2.4304022519794	2.4304022519794	0.0	0.2978618679981535	0.1964936284888332	3.8598239239866174	3.0803411131059244	3.0803411131059244	3.6469206904087534	3.0633703091810243	3.7842164227525297
DD16-45	0.0	0.0	0.2768977909317987	0.0	0.0	1.4055561228222655	0.0	0.3990147783251233	3.0	0.41626485238689065	1.4940633798252656	1.4940633798252656	0.2432065217391305	1.0772774798062592	0.5400000000000001	6.29099904083956	0.0	0.05112987177859591	0.0	0.0	0.0
DD16-46	4.5	4.5	0.8972406257688349	4.5	4.5	0.0	0.0	0.0	0.0	0.0	0.7679023767241343	0.7679023767241343	1.546916276746772	1.1142199643972155	1.5	7.559276887919718	0.33921922189742604	0.33921922189742604	0.5749206551116055	0.4670437558901878	0.47986519134006894
DD16-47	1.336665932973237	1.1330049261083743	2.791335509453201	1.336665932973237	1.336665932973237	1.2470316899126328	0.9527272727272728	1.3836610068648632	1.2369169205923665	0.4859464939462776	2.5859032823042765	2.5859032823042765	0.8885149250106338	2.5692611859720564	2.18932736284181	3.021361506119084	2.848964779632276	2.848964779632276	2.844442948751849	2.8134408904040407	2.845490084385337
DD16-48	0.5454545454545455	0.5454545454545455	0.0	0.5454545454545455	0.5454545454545455	0.0	0.0	0.8420466786355476	0.2432065217391305	0.0	0.0	0.0	2.3600000000000003	0.04528688097701331	2.3600000000000003	4.710201522615317	0.26600985221674883	0.26600985221674883	0.26600985221674883	0.26600985221674883	0.26600985221674883
DD16-49	3.0	3.0	0.8181818181818182	3.0	3.0	1.5	0.3648097826086956	0.0	0.0	0.15575919042605765	1.5	1.5	3.002869243702268	3.5771021424070844	3.0	5.800228496817366	3.54	3.54	3.54	3.54	3.54
DD16-5	2.980848445595856	2.72	2.9311424752689543	2.980848445595856	2.980848445595856	4.832529704773783	0.0	0.0	0.34611666129552043	0.0	4.532019704433497	4.532019704433497	4.079754657052009	5.661161652759155	3.0909090909090917	7.8109090909090915	6.34611666129552	6.34611666129552	6.4864130434782625	6.2076789205680765	6.4864130434782625
DD16-50	3.3600000000000003	3.3600000000000003	4.0	3.3600000000000003	3.3600000000000003	1.5	0.5400000000000001	1.6606822262118492	1.8181818181818183	2.38165541720503	3.723070017953322	3.723070017953322	3.501835082506919	1.0966390443342844	3.6276551829789994	5.560124513847119	4.596584417233141	4.596584417233141	4.545454545454546	4.36	4.545454545454546
DD16-51	3.399014778325123	3.399014778325123	3.8181818181818175	3.399014778325123	3.399014778325123	0.5400000000000001	0.4820466786355476	1.3581818181818184	1.5	0.0	4.5	4.5	0.057713740254617965	0.3565816217763363	0.15575919042605765	7.363640553722826	3.0	3.0	3.0	3.0	3.0
DD16-52	1.0725209122706107	0.7200000000000002	0.5474981825272717	0.9276789205680772	1.0725209122706107	2.220051039234749	3.2660098522167487	0.0	3.0	0.5378681132564558	0.8887901067729905	0.8887901067729905	1.8565270552565631	2.4488885639730738	0.8181818181818182	9.644074819301077	1.804935279487451	1.804935279487451	1.5687757412255947	1.5217616102473517	1.2879941191535278
DD16-53	5.966668281335148	5.810909090909092	6.752019704433497	5.966668281335148	5.966668281335148	2.866135317081719	0.8968294870421933	4.564570974162828	5.642400169468608	0.0	6.171200245863719	6.171200245863719	7.208524797173709	7.220988155992225	7.2078984726859705	8.229040297942499	8.255230474148279	8.255230474148279	8.255230474148279	7.61650643909748	8.186011603784557
DD16-6	1.4698630452999446	0.3990147783251233	0.9702306041489116	1.3748075815284082	1.4698630452999446	0.0	0.0	0.0	0.0	0.0	0.0	0.0	0.0	0.009672621474220044	0.0	6.255366360952477	4.712353694112659	4.773738558729646	4.712353694112659	3.4856631791133097	4.81698950296979
DD16-7	0.5092163739558793	0.26600985221674883	0.3600000000000001	0.5092163739558793	0.5092163739558793	1.6529331627659218	1.2660098522167489	2.5454545454545454	2.0	0.8414687650946275	0.0	0.0	1.9308915717311848	1.7458131596673274	0.9054545454545456		3.042582248145342	3.042582248145342	3.0	1.5454545454545454	3.042582248145342
DD16-8	0.9153038579553328	0.8114643976712943	0.7177985274383747	0.9153038579553328	0.9153038579553328	2.2741410116079703	1.6912137649244858	2.866818997878244	3.3998773285260038	0.9718929878925552	1.8647963374032368	1.8647963374032368	3.5149673452942705	2.380883173444297	3.910187626150029	5.700922101890511	2.0088562537343644	2.01076908286921	2.0122564606743003	1.6612278091063637	1.9843954634989875
DD16-9	3.1699625795941926	2.624191670398567	3.4198375256709537	3.1699625795941926	3.1699625795941926	6.46462860780262	3.2282558685249425	1.852077374336894	3.8091163266489607	0.8289726730980733	4.777786235701592	4.777786235701592	6.82766353849542	7.0860356276686325	5.689479256813719	7.069328976948127	6.9827479661394	6.9827479661394	7.017536005616171	6.5514989443083085	6.976586139090105
