topic	FifthIterBaseline	FirstIterBaseline	LDA_Indri73	SecondIterationBaseline	TenthIterBaseline	UL_BM25	UL_Kmeans	UL_LDA_200	UL_LDA_NE	UL_LDA_Psum	UPD_IA_BiQBDiJ	UPD_IA_BiQBFi	rmit_lm_nqe	rmit_lm_psg.max	rmit_lm_rocchio.Rp.NRd.10	rmit_oracle.lm.1000	ufmgHM2	ufmgHM3	ufmgHS2	ufmgXM2	ufmgXS2
DD16-1	1.2450565814564445	0.6086956521739131	3.3617780713161123	1.2450565814564445	1.2450565814564445	0.0	0.0	1.8222082720225887	2.465232338035152	0.3107453711030226	0.0	0.0	1.2652093242796614	0.31318691964647	1.6485752753668128	7.483465184370372	3.844023273790525	3.8445192104105317	3.7376522369173015	4.472854780073666	4.230060096961183
DD16-10	1.7729586129094248	1.3364394310936734	1.042323970757984	1.7729586129094248	1.7729586129094248	1.0859329712960446	2.2025222649281604	1.7234794174601493	1.2898510988760783	3.357894950479672	2.3156836597545563	2.3156836597545563	2.1158261543986536	1.0289648277327228	2.0878330800060216	5.255719188873762	3.6734842860577688	3.6868691001838165	3.5285995864960986	2.6936578981432686	3.868631940068628
DD16-11	3.3770390153972123	2.8672566371681416	1.6728788621873467	3.3770390153972123	3.3770390153972123	0.13447841332456714	0.0	2.799101952692752	0.4888881060021264	0.5657485275839357	1.8564833586664664	1.8564833586664664	1.830264112543088	1.0724009008586413	1.9676689955540447	9.018404980370619	7.249458141486777	7.249458141486777	7.340303771234495	7.3614040033284525	7.380847669486656
DD16-12	0.0	0.0	0.09951850356302397	0.0	0.0	0.0	0.0	0.0	0.0	2.8228687039820684	2.0	2.0	0.005264365745268612	2.0022178308358454	0.0	5.2584010935708205	0.0	0.07440523847909675	0.2548911891145353	0.12015802919997698	0.2548911891145353
DD16-13	6.0681451027774855	6.0681451027774855	4.0	6.0681451027774855	6.0681451027774855	4.913043478260869	3.2220504509883363	1.0850253006285664	2.746562673272264	0.0	4.28264131264938	4.28264131264938	7.191565804931559	6.355764960800718	7.033224659288027	8.53123830617221	5.342553660225878	5.342553660225878	5.342553660225878	5.386421703104184	5.352752426784408
DD16-14	5.91770262490138	5.91770262490138	5.5681451027774855	5.91770262490138	5.91770262490138	4.392496947691404	2.0803044718216492	2.6504424778761058	4.190779327704553	0.5141383586963466	0.888876163517826	0.888876163517826	6.500386748921876	3.0826908855278847	6.357079811392665	8.921926729592126	7.076201031653942	7.090635663834576	7.076201031653942	7.354313835917763	7.1084847303791925
DD16-15	1.4863481309969604	1.2173913043478262	1.2173913043478262	1.4863481309969604	1.4863481309969604	1.1837837347345257	3.0938852030347848	0.0	0.6728788621873468	8.737614470176025	2.5979708811885	2.5979708811885	2.7075778543176603	1.2128244320820991	2.9100934790471857	10.438912190427944	2.60776507691336	2.610182574197622	2.4700784335925268	2.3393344689703954	2.7899279726185298
DD16-16	1.1301291002810383	0.6728788621873468	3.0	1.0538133987815888	1.1301291002810383	0.34664316942489	1.4915327377624272	1.1344784133245671	0.0	0.19468480121955128	0.0	0.0	2.5688351329047228	0.6195827681801178	1.9298232238625148	7.408851673792955	6.864928564548046	6.8716273907229635	6.920690785568158	6.249356500523553	7.102999739527477
DD16-17	4.6481016724935165	4.150442477876108	3.9955468460074712	4.603503630612883	4.6481016724935165	2.0	0.0	0.7671475135954653	2.493551027203416	3.0	4.2099719253697625	4.2099719253697625	2.185239924708376	6.632223453079624	2.6317963267238107	6.34411858868701	1.7936089499155123	1.794856392334395	1.7646712545687335	1.2110364130424116	1.9565566293543275
DD16-18	6.221108748685764	5.890270166535172	2.084647941515968	6.221108748685764	6.221108748685764	6.027933010288862	6.696804021928479	1.0951347378912992	7.781356776557993	2.051040371902668	1.7184824828644083	1.7184824828644083	9.155528499803582	6.339688890001306	9.109784877537116	9.113231679403293	10.106136016502916	10.106136016502916	9.86882301198492	9.991589652246637	9.959308454219196
DD16-19	0.0	0.0	0.0	0.0	0.0	3.404099062887649	3.488447226540281	0.6320049488152553	2.5538307354414997	0.5665782233386614	1.8088233608090256	1.8088233608090256	0.10904333643515587	2.0351778327290715	0.0	7.768673602870328	0.0	0.0	0.0	0.0	0.0
DD16-2	4.047117439201891	3.602425179186698	1.1272219224584978	4.047117439201891	4.047117439201891	4.355388197989623	3.5693946691244447	8.933262237069373	6.757526803703315	0.5456801765509379	5.1770775371351645	5.1770775371351645	4.960008577512792	3.6307939383883636	4.480334578412009	10.356065692196012	4.5350720575777625	4.536560331821326	4.6087483814029255	5.213277397379863	4.4449347903470064
DD16-20	7.98745905402557	7.98745905402557	8.795859813101748	7.98745905402557	7.98745905402557	2.723919234090014	7.008048301368468	9.765575105071779	9.94131053843784	0.0	3.066811498045793	3.066811498045793	9.737160028716362	5.401376476105846	9.536484649874259	10.511320236785904	8.292998842484037	8.292998842484037	8.010630345745836	7.533911536237063	8.255492322577046
DD16-21	1.4336283185840708	1.4336283185840708	2.9451350832675867	1.4336283185840708	1.4336283185840708	2.3370006782527275	1.042323970757984	1.9451350832675864	4.3496407303887965	1.0255201859513337	1.2937865484003086	1.2937865484003086	4.8234265890112535	2.651784632052685	5.08119026384941	5.255719188873762	2.179543564653456	2.1895537890062298	2.282035643408841	3.130174513354727	2.1771080816276114
DD16-22	4.83782869812216	4.650442477876107	5.306053313793419	4.83782869812216	4.83782869812216	4.022977197699083	2.249482909354543	0.2223461300075963	2.7039768727455087	0.5147407281652611	2.538280278927	2.538280278927	6.2622642336035845	7.13809421254634	5.445135083267586	6.969553478621515	6.230688472334405	6.230688472334405	6.21701884349176	6.161807906802608	6.25416409824936
DD16-23	0.0	0.0	0.5382904292942087	0.0	0.0	2.1943673609484757	1.1551016245166164	0.9667751407311655	5.655101624516616	1.9130434782608696	2.014040360122376	2.014040360122376	7.424233144221617	5.5880031006258255	7.735632191994126	7.812806719163497	3.6397019893730165	3.6792196137277298	3.6388988928504498	3.9122651972621	4.0095676509640334
DD16-24	6.5681451027774855	6.5681451027774855	6.5681451027774855	6.5681451027774855	6.5681451027774855	6.451323757187869	7.206344222818098	6.632957322286968	3.567186922168648	5.2484389234997195	7.4448485586715485	7.4448485586715485	7.4245601980482725	6.0938748391810975	7.357548419157043	7.374998484714862	6.6346598165070425	6.6346598165070425	6.65305708690664	6.617976648474491	6.7625058447335125
DD16-25	0.7700677496777443	0.7700677496777443	1.3364394310936734	0.7700677496777443	0.7700677496777443	0.7640683377254244	0.4336283185840709	0.4336283185840709	0.7640683377254244	0.0	0.20414156228951869	0.20414156228951869	3.346996227893634	0.24854004033508376	3.270230189117298		2.3616262993616166	2.3616262993616166	2.3433992108320094	2.169206848182589	2.4338065709275782
DD16-26	0.0	0.0	0.006771603714100892	0.0	0.0	0.7063767666273608	1.5	0.9130434782608696	3.3212595777122327	2.433628318584071	0.0	0.0	0.02146099892988385	0.006232223004638285	0.0	7.78982334980355	0.0	0.0	0.0	0.0	0.0
DD16-27	4.915361819518791	4.41770262490138	5.859243186806135	4.870763777638157	4.915361819518791	4.502915867708329	3.7403979861800782	2.139037767582555	1.3175491253820792	0.09951850356302397	2.3873025136061106	2.3873025136061106	2.255366318339377	2.555442246302736	2.9414144987895035	7.321335064904858	5.953125326701901	5.953125326701901	5.8458376453305645	5.839071393582644	5.879267914853743
DD16-28	1.0995185035630242	1.0	3.542323970757984	1.0995185035630242	1.0995185035630242	0.0	0.0	0.5	0.9130434782608696	0.0	1.2416069921598496	1.2416069921598496	3.3491343230750474	2.0604712519271784	3.456352738832764	5.176135895612694	1.2382408643382292	1.2432348186350384	1.3501035524153402	2.010553932376259	1.310300051104508
DD16-29	0.9130434782608696	0.9130434782608696	3.0	0.9130434782608696	0.9130434782608696	0.0	0.0	0.0	0.0	0.0	0.5328256361219561	0.5328256361219561	3.001345442252413	0.06317238894322334	3.0	7.880047322571541	1.5	1.5	1.5	1.5	1.5
DD16-3	0.0	0.0	0.1682197155468367	0.0	0.0	0.0	0.0	0.0	0.0	0.0	0.0	0.0	0.0	0.0	0.0	3.3233884942552403	0.0	0.0	0.09874380575683007	0.10771825533729694	0.118165391450769
DD16-30	0.0	0.0	3.378763401851657	0.0	0.0	0.32735450791920795	0.0	0.6086956521739131	0.1318015750245437	0.0	0.4336283185840709	0.4336283185840709	3.3096133811716144	3.4336283185840712	3.1946848012195512	5.8122963126799965	0.14927775534453594	0.14927775534453594	0.0	0.0	0.0
DD16-31	2.433628318584071	2.433628318584071	3.651019622931897	2.433628318584071	2.433628318584071	0.0	0.0	2.0	0.3364394310936734	0.0	0.0	0.014443842903715556	5.630368775912395	0.24462415616868405	5.81638744057038	7.405387030393145	4.907064582193341	4.907064582193341	4.862606440494856	4.813977520700585	4.705793878991122
DD16-32	0.0	0.0	0.6243713439646997	0.0	0.0	0.0	0.4918121166451847	0.0	1.3364394310936734	0.1553726855515113	0.0	0.0	0.20706379894739246	0.5190251716703077	0.0	6.316445490527436	3.5938403166459896	3.6020840494610504	3.5938403166459896	3.548869203969647	3.7143684456515764
DD16-33	0.0	0.0	0.044598041880633967	0.0	0.0	1.5	0.3012361235498747	0.0	0.6086956521739131	0.0	2.7886814065482386	2.7886814065482386	0.2483322622652314	0.2365396747886709	0.02048238684409631	7.5054769187205155	0.0	0.044598041880633967	0.0	0.0	0.0
DD16-34	0.9021879586776088	0.6728788621873468	0.02246886087813918	0.9021879586776088	0.9021879586776088	2.0	2.0	4.0	0.4050445298563205	0.0	1.5281366754508487	1.5281366754508487	0.1798383135370747	0.3107453711030226	0.0	7.217391304347826	0.0	0.0	0.0	0.0	0.0
DD16-35	2.0	2.0	7.2214085900870275	2.0	2.0	3.416428311473873	1.5401354993554883	0.4446922600151926	0.4982659231393966	0.22930909649026224	0.0	0.0	3.2340529780873872	6.210271437565117	3.3518697176723933	8.038160238087402	7.5072424032239065	7.5072424032239065	7.217391304347826	7.217391304347826	7.217391304347826
DD16-36	1.4336283185840708	1.4336283185840708	3.64078725718063	1.4336283185840708	1.4336283185840708	1.3043478260869563	1.2168141592920354	0.6204927970479924	0.38503387483887214	0.0	2.3649524979106857	2.3649524979106857	0.08326790239380334	0.012164024439978542	0.3464627520491054	4.682228823590057	3.2157416071322733	3.2157416071322733	3.18078169737073	2.9333167416680737	3.2157416071322733
DD16-37	0.0	0.0	0.0	0.0	0.0	0.0	0.0	0.0	0.0	0.0	0.0	0.0	0.0006001465095899558	0.00749093144521372	0.0	6.7849592620695205	0.2330590283272669	0.2330590283272669	0.0	0.0	0.0
DD16-38	0.5046591466405101	0.5046591466405101	0.0	0.5046591466405101	0.5046591466405101	0.0	0.0	0.0	0.2330590283272669	0.0	1.1551016245166164	1.1551016245166164	1.5634859561369758	0.014604846276543603	1.5634859561369758	4.5	1.1551016245166164	1.1551016245166164	1.1551016245166164	1.1551016245166164	1.1551016245166164
DD16-39	0.6001404963621421	0.3364394310936734	0.4347766483141177	0.4857171864382094	0.6001404963621421	0.0	0.0	0.0	0.0	0.0	1.4715596001607525	1.4715596001607525	0.2639323035896671	0.28025249417140696	0.0	6.621501866890973	0.4017269521309045	0.4017269521309045	0.8457471823948983	1.3452503276190588	1.0354527033792662
DD16-4	3.563485956136976	3.563485956136976	4.7546201280796385	3.563485956136976	3.563485956136976	0.7806774745416097	2.0	1.4461903004079644	2.402104133572017	2.608695652173913	2.4177026249013798	2.4177026249013798	4.676112738898238	3.2189017598076832	4.748255863131346	6.665425745778734	4.425363017562291	4.427727271493417	4.4163847867981785	4.345549597857829	4.173820098332721
DD16-40	0.0	0.0	7.398245774988212	0.0	0.0	0.2330590283272669	0.0	0.0	0.5046591466405101	0.0	0.4919081062686614	0.4919081062686614	0.0062899013183661924	0.5078240293829195	0.3722748133438231	8.772447631025036	1.1780020082711644	1.1780020082711644	1.1780020082711644	0.9318372622020374	1.1780020082711644
DD16-41	0.17573543336605826	0.0	2.0127589248982267	0.17573543336605826	0.17573543336605826	0.9524832463672904	1.0276980265060007	0.0	0.0	0.0	0.9130434782608696	0.9130434782608696	5.5	5.5	5.544175870824138	7.807539861849425	3.1003156654954087	3.1003156654954087	3.1003156654954087	2.950535932395248	3.1391588368832863
DD16-42	1.2339969168875908	1.0	0.13447841332456714	1.2339969168875908	1.2339969168875908	0.0	0.0	0.0	0.0	0.0	0.0	0.0	0.0	0.0	0.0	2.0	0.2716465311580009	0.2716465311580009	0.26862109541848583	0.19068843380797407	0.236330782901538
DD16-43	0.0	0.0	6.0	0.0	0.0	0.0	0.0	1.2173913043478262	2.31395703800623	0.0	0.0	0.0	3.243076177783897	0.17646788026713686	3.217391304347826	8.969042269721324	6.0	6.0	6.0	1.5401354993554883	6.0
DD16-44	3.489479293259069	3.168219715546837	1.0040172857392011	3.489479293259069	3.489479293259069	1.5	0.5046591466405101	0.09951850356302397	3.0	0.0	2.111198177246677	2.111198177246677	0.0	0.3182333446323873	0.14969745423906755	3.865916371856332	3.0388431713878776	3.0388431713878776	3.311097431230702	3.0353157482564628	3.4347728786153864
DD16-45	0.0	0.0	0.20252226492816025	0.0	0.0	1.4048555949060542	0.0	0.5046591466405101	3.0	0.2491329615696983	1.2740919003619775	1.2740919003619775	0.13447841332456714	1.0501686804332977	0.6504424778761063	6.056704053522582	0.0	0.03229031251694785	0.0	0.0	0.0
DD16-46	4.5	4.5	0.7927869803361245	4.5	4.5	0.0	0.0	0.0	0.0	0.0	0.458765806155244	0.458765806155244	1.5250953784736652	0.9394279064240088	1.5	7.324181328803836	0.21245014428775927	0.21245014428775927	0.33656330247103605	0.27975225319155395	0.2835896800863418
DD16-47	1.319240099792429	1.1682197155468368	2.6016448205713734	1.319240099792429	1.319240099792429	1.1370459501809889	1.0211619853789922	1.3678345435376276	1.290789954338215	0.29594593368363137	2.3554230238751988	2.3554230238751988	0.5363490835897582	2.365362911569025	1.8927802887815497	2.7427141915185422	2.628816499695359	2.628816499695359	2.6287578946364665	2.5918855149804068	2.626546647744854
DD16-48	0.6086956521739131	0.6086956521739131	0.0	0.6086956521739131	0.6086956521739131	0.0	0.0	0.6666873469113378	0.13447841332456714	0.0	0.0	0.0	2.433628318584071	0.030971523382545805	2.433628318584071	5.019550659032288	0.3364394310936734	0.3364394310936734	0.3364394310936734	0.3364394310936734	0.3364394310936734
DD16-49	3.0	3.0	0.9130434782608696	3.0	3.0	1.5	0.20171761998685075	0.0	0.0	0.1318015750245437	1.5	1.5	3.0013056179121818	3.2860326507119613	3.0	5.646102506588137	3.650442477876106	3.650442477876106	3.650442477876106	3.650442477876106	3.650442477876106
DD16-5	3.066293644294189	2.8672566371681416	2.9328441474777027	3.066293644294189	3.066293644294189	4.498265923139396	0.0	0.0	0.22930909649026224	0.0	4.672878862187347	4.672878862187347	3.757445771941111	5.252581059939503	3.217391304347826	8.084647941515968	6.229309096490263	6.229309096490263	6.268956826649134	6.175735433366058	6.268956826649134
DD16-50	3.4336283185840712	3.4336283185840712	4.0	3.4336283185840712	3.4336283185840712	1.5	0.6504424778761063	1.5776863427757557	1.9130434782608696	2.235739545788648	3.3495885424909004	3.3495885424909004	3.500825412844987	0.8737566130780784	3.5587828361683007	5.2913187686213154	4.640985964690861	4.640985964690861	4.608695652173913	4.433628318584072	4.608695652173913
DD16-51	3.50465914664051	3.50465914664051	3.9130434782608696	3.50465914664051	3.50465914664051	0.6504424778761063	0.2330590283272669	1.5634859561369758	1.5	0.0	4.5	4.5	0.02474292448383565	0.2839094938485268	0.1318015750245437	7.1749035734593	3.0	3.0	3.0	3.0	3.0
DD16-52	1.1373047234885183	0.8672566371681417	0.6803697936325606	1.0429920705342	1.1373047234885183	1.7970935020999832	3.3364394310936736	0.0	3.0	0.31637216823198183	0.961787955550933	0.961787955550933	1.5638171171382156	2.309870700195151	0.9130434782608696	8.964414015389739	1.0343367124043792	1.0343367124043792	0.8336111673594185	0.8226685108887635	0.6950904542195423
DD16-53	6.216449516540513	6.084647941515968	7.040135499355488	6.216449516540513	6.216449516540513	3.02474857985974	0.8745964821741976	4.2898510988760785	5.707509860013509	0.0	5.622514273473011	5.622514273473011	7.349862391591126	7.290990853876389	7.381093017924284	8.270462534858643	8.036022725338464	8.036022725338464	8.036022725338464	7.7258125578091965	8.009235893776362
DD16-6	1.2124115417488317	0.5046591466405101	0.9892331017450856	1.1594379193641369	1.2124115417488317	0.0	0.0	0.0	0.0	0.0	0.0	0.0	0.0	0.004524879955563304	0.0	5.634564821831572	3.9521127587916585	3.979070717923604	3.9521127587916585	2.9696510928456794	4.062248569460628
DD16-7	0.4709178444182406	0.3364394310936734	0.4336283185840709	0.4709178444182406	0.4709178444182406	1.4375084470718251	1.3364394310936734	2.608695652173913	2.0	0.4923733638042387	0.0	0.0	1.6706124082123035	1.4099785842989545	1.042323970757984		3.0297320279204225	3.0297320279204225	3.0	1.608695652173913	3.0297320279204225
DD16-8	1.0330027999506155	0.9451350832675864	0.5913306202082087	1.0330027999506155	1.0330027999506155	2.0661091062166093	1.5796798333282138	2.7640683377254245	3.312351204554626	0.5918918673672627	1.5655565383374348	1.5655565383374348	3.040486032878201	2.054474065863736	3.3360621264152277	5.258281300149715	1.571896971746933	1.5727673836883882	1.5726915222435245	1.2040444021747931	1.5685893979980745
DD16-9	3.303227288185913	2.8999253872306494	3.4227768202823894	3.303227288185913	3.303227288185913	6.358782544673677	3.2002773263237376	1.9470330119630224	4.112078961119	0.5170846383639256	4.112567639760837	4.112567639760837	6.388149273255897	6.668947849202698	5.6647381584516285	6.524077189790193	6.4299208580692815	6.4299208580692815	6.445855865172961	6.228765388400464	6.416047934942242
