topic	FifthIterBaseline	FirstIterBaseline	LDA_Indri73	SecondIterationBaseline	TenthIterBaseline	UL_BM25	UL_Kmeans	UL_LDA_200	UL_LDA_NE	UL_LDA_Psum	UPD_IA_BiQBDiJ	UPD_IA_BiQBFi	rmit_lm_nqe	rmit_lm_psg.max	rmit_lm_rocchio.Rp.NRd.10	rmit_oracle.lm.1000	ufmgHM2	ufmgHM3	ufmgHS2	ufmgXM2	ufmgXS2
DD16-1	1.9040891639499355	0.9530107160810086	5.327117773173448	1.9040891639499355	1.9040891639499355	0.0	0.0	3.1279508404700413	3.485490680652137	0.39054397381300376	0.0	0.0	2.2012324473210705	0.3910505221929721	2.796364796344837	9.744372061325212	3.9647192947242273	3.9647379461886447	3.918756738101336	6.020091682646254	4.589408050053033
DD16-10	2.6228617925057356	1.9476808049737928	1.791130284473819	2.6228617925057356	2.6228617925057356	1.6517145365030257	2.329460450782129	2.3963645190124283	1.5582449506196183	3.705964655987913	3.107565349236472	3.107565349236472	3.1505212212145177	1.4761540524778347	3.1390663533817005	6.852446595619714	4.887339032849433	4.890040176952218	4.713711182200383	4.184213613961416	5.280779134233423
DD16-11	4.394742693270586	3.676239136785621	2.7141293916483025	4.394742693270586	4.394742693270586	0.1817407454138334	0.0	3.5646000905360973	0.7049723149922966	1.1099468947073658	3.414603825172828	3.414603825172828	3.59962124120516	1.9934700262500773	3.76834868990063	11.100488565397713	8.690991968147014	8.690991968147014	8.7104820138992	8.766271425223099	8.799197772919795
DD16-12	0.0	0.0	0.1639797913359807	0.0	0.0	0.0	0.0	0.0	0.0	3.288739661433417	2.0	2.0	0.0020366902796351864	2.0004899934528946	0.0	6.854346274418365	0.0	0.0760659428945197	0.35925177824248256	0.19400294206335136	0.35925177824248256
DD16-13	7.836368306722492	7.836368306722492	4.0	7.836368306722492	7.836368306722492	5.429516074121512	4.827542639622706	1.6871398051461548	3.710542464839738	0.0	4.323054861806643	4.323054861806643	8.670116803366183	7.893882680374228	8.4655435480377	10.960201404488645	6.644504133130533	6.644504133130533	6.644504133130533	6.807398969085512	6.6482544244101165
DD16-14	7.351037281582202	7.351037281582202	7.608216634171415	7.351037281582202	7.351037281582202	5.455352341669433	2.6339274406065005	3.2571793525892154	5.182741223548684	0.7754446125122754	1.1751414420446091	1.1751414420446091	7.580914519032666	4.799185883899302	7.331627109913115	11.345901053917439	8.984331204153705	8.986950951039232	8.984331204153705	9.113717064720989	9.002332954610342
DD16-15	2.269502922989684	1.9060214321620168	1.9060214321620168	2.269502922989684	2.269502922989684	1.7409059488768897	4.587744518981669	0.0	1.53289717334902	10.775840404311984	4.097573646062468	4.097573646062468	4.644712258060999	1.6371369087240142	4.930361321450982	13.646600088334718	4.563979847526499	4.5640642600797126	4.268646509700953	4.173956592934742	4.7980199462733095
DD16-16	2.2061923449907597	1.53289717334902	3.1812322182992823	2.122954017927833	2.2061923449907597	0.4611174842809177	2.4109557933666363	1.3629729637131158	0.0	0.270496261828158	0.0	0.0	3.773350676850583	0.7588577788713124	2.8538294347427025	10.105224471967846	8.446433346878202	8.447246979381166	8.60407761618061	7.953621317057295	8.82874136819819
DD16-17	5.822341188311683	5.029027680038139	4.399624196594028	5.769188043215302	5.822341188311683	2.0	0.0	1.347297631662112	3.6259712576364933	3.0	4.6107417377000335	4.6107417377000335	2.282996744468875	8.66696966514385	2.8348461496783464	8.562986548970024	2.9745313658618038	2.974617684461232	2.9560108107382326	1.9817849986803724	3.294813379608828
DD16-18	8.00344513333155	7.438918605511037	3.582260568947638	8.00344513333155	8.00344513333155	8.326281894130432	8.879430339598086	1.9360834369482842	10.446491279143027	3.4171450856625105	2.2209676866446757	2.2209676866446757	11.355025910115282	7.871427825998214	11.378972819755127	11.320245292408858	13.143591743023038	13.143591743023038	12.772690880843673	12.983765400975132	12.934737447867663
DD16-19	0.0	0.0	0.0	0.0	0.0	4.463337793318567	4.916152813301644	0.8941373918416166	3.8537022371358094	0.8020860436290543	2.259098282257144	2.259098282257144	0.08311264988238483	2.01838662892656	0.0	10.540101920881431	0.0	0.0	0.0	0.0	0.0
DD16-2	5.7496740306533125	5.070769946294242	2.071210325510761	5.7496740306533125	5.7496740306533125	6.256114880301579	5.5858230443022086	11.793044772426624	9.115157742296658	0.7890770669528789	7.941143939439637	7.941143939439637	7.111062889771342	5.664260931527365	6.519674329756192	13.509621204332928	6.245796738645322	6.245847716208696	6.316469187512076	7.629690590283077	6.0052290722833135
DD16-20	9.873054023827905	9.873054023827905	11.354555768424074	9.873054023827905	9.873054023827905	4.95004225901153	7.787947791944053	12.90310553424071	13.218528127772114	0.0	4.668638717354498	4.668638717354498	12.738638058268414	6.044253063509272	12.406422096871912	13.704889005310905	9.71278872043931	9.71278872043931	9.158384040082913	8.702146626839298	9.644735309751946
DD16-21	2.0193517866920927	2.0193517866920927	3.71945930275552	2.0193517866920927	2.0193517866920927	2.5112011961959624	1.791130284473819	2.9006915210548008	5.449453407391563	1.7085725428312553	2.2369289935217607	2.2369289935217607	6.2575349266790665	4.098887207324848	6.613970078908722	6.852446595619714	2.903684347807673	2.90770775512482	3.0703357033560263	3.744543344718597	2.8298134272317825
DD16-22	5.76010265899018	5.438411570888498	6.5791281908531625	5.76010265899018	5.76010265899018	4.5480528635982855	3.377196879095305	0.3394520421795344	3.241097312448096	0.7745868060328254	3.744091032546165	3.744091032546165	7.626108336641433	9.348456617199698	6.491307630204442	8.734426679879912	7.646720041881165	7.646720041881165	7.622979383169968	7.5173527995525244	7.67057434755668
DD16-23	0.0	0.0	0.8061597557347345	0.0	0.0	3.7151423947011777	2.4068522326009805	1.8402189281216013	7.1787005600499025	2.6107482924207948	2.8657375323330783	2.8657375323330783	9.75609795315222	6.402365648360343	10.146041204635203	10.194484352720027	5.150557970605275	5.162526517180275	5.147429180922146	6.010262335550487	5.6888857304053975
DD16-24	8.608216634171416	8.608216634171416	8.608216634171416	8.608216634171416	8.608216634171416	8.173607106667678	9.34943830424211	8.39873233191183	5.6465964714583965	6.9676842440579145	9.641021604514982	9.641021604514982	9.378216598447409	8.31502949361294	9.270438774267769	9.333654323706368	8.375413901621577	8.375413901621577	8.384961887492429	8.365911171736343	8.608133327691627
DD16-25	1.6045681550673203	1.6045681550673203	1.9476808049737928	1.6045681550673203	1.6045681550673203	1.1482827029875105	0.8381195683928103	0.8381195683928103	1.1482827029875105	0.0	0.2731777552215409	0.2731777552215409	4.196482356501512	0.3676776012812005	4.135573981036728		3.5823537580977547	3.5823537580977547	3.5704659115144275	3.2801994724872263	3.7314630754661686
DD16-26	0.0	0.0	0.002931153378013089	0.0	0.0	1.422283998132515	1.7718483274489236	1.4295160741215132	3.503593418028613	2.8381195683928104	0.0	0.0	0.013124932389570859	0.0014274104626640235	0.0	10.157231745480528	0.0	0.0	0.0	0.0	0.0
DD16-27	6.3725024624068185	5.5791889541332775	7.451878315271445	6.319349317310443	6.3725024624068185	5.426320044927657	4.65426011950158	2.668100575583132	1.978277960458276	0.1639797913359807	3.072501478253024	3.072501478253024	3.1688019652716983	3.9362858039284574	4.119388785262853	9.262721935225727	8.391010843610081	8.391010843610081	8.246656080610004	8.228831081354064	8.277518153775398
DD16-28	1.1639797913359806	1.0	4.38174639362346	1.1639797913359806	1.1639797913359806	0.0	0.0	0.5906161091496412	1.4295160741215132	0.0	2.0795691607454216	2.0795691607454216	3.9533559840322314	2.0628260706666985	4.120084479672647	6.798268545711317	1.4684303634298983	1.4704372268746118	1.6392601807732126	3.2398710564447724	1.6169577022231278
DD16-29	1.4295160741215132	1.4295160741215132	3.0	1.4295160741215132	1.4295160741215132	0.0	0.0	0.0	0.0	0.0	0.5966132484743913	0.5966132484743913	3.0000930154154632	0.05966144639530404	3.0	10.278093903902622	1.7718483274489236	1.7718483274489236	1.7718483274489236	1.7718483274489236	1.7718483274489236
DD16-3	0.0	0.0	0.383224293337255	0.0	0.0	0.0	0.0	0.0	0.0	0.0	0.0	0.0	0.0	0.0	0.0	4.370248925908761	0.0	0.0	0.1175231422516856	0.12996655022959713	0.13673217097593138
DD16-30	0.0	0.0	4.557578871148329	0.0	0.0	0.4528957179311437	0.0	0.9530107160810086	0.2365669451485515	0.0	0.8381195683928103	0.8381195683928103	3.3552798702405986	3.8381195683928095	3.2704962618281583	7.3299787763670095	0.24596968700397104	0.24596968700397104	0.0	0.0	0.0
DD16-31	3.2005840049913754	3.2005840049913754	5.106605437153392	3.2005840049913754	3.2005840049913754	0.0	0.0	2.362464436598565	0.76644858667451	0.0	0.0	0.008907444152957586	6.469504717755427	0.2593729544033701	6.721685696584747	9.100249569160656	5.4523047799371	5.4523047799371	5.443772988171558	5.39899061958667	5.174727070393544
DD16-32	0.0	0.0	1.1992689510625298	0.0	0.0	0.0	0.961720573581012	0.0	1.9476808049737928	0.19527198690650188	0.0	0.0	0.2844995890760829	1.1556157836704832	0.0	8.040945289073907	4.404200587496312	4.407304545094017	4.404200587496312	4.378824696942808	4.54993465346288
DD16-33	0.0	0.0	0.05315314509637768	0.0	0.0	1.7718483274489236	0.4365909094567307	0.0	0.9530107160810086	0.0	4.257956562649132	4.257956562649132	0.3321686057688275	0.30933618622855896	0.013069612246772298	9.708739071689624	0.0	0.05315314509637768	0.0	0.0	0.0
DD16-34	1.876395481381876	1.53289717334902	0.01648995591256471	1.876395481381876	1.876395481381876	2.362464436598565	2.362464436598565	4.0	0.6589209015642578	0.0	2.2965654059750213	2.2965654059750213	0.316379487218974	0.39054397381300376	0.0	8.268485868760582	0.0	0.0	0.0	0.0	0.0
DD16-35	2.362464436598565	2.362464436598565	8.26943756452576	2.362464436598565	2.362464436598565	4.596445451432543	3.2091363101346406	0.6789040843590688	0.7069797988605225	0.3434983080328557	0.0	0.0	4.277883306366434	6.698668997226808	4.450226614174415	9.82805697232614	8.645498601080918	8.645498601080918	8.268485868760582	8.268485868760582	8.268485868760582
DD16-36	2.0193517866920927	2.0193517866920927	4.242953944715016	2.0193517866920927	2.0193517866920927	1.6577375763397868	1.6002920024956877	1.2763787435778318	0.8022840775336602	0.0	2.7811016955938586	2.7811016955938586	0.06767391947098778	0.008362356248791942	0.5162796556373737	6.355195940666452	3.9944811128726014	3.9944811128726014	3.9767201587947487	3.8121527999428975	3.9944811128726014
DD16-37	0.0	0.0	0.0	0.0	0.0	0.0	0.0	0.0	0.0	0.0	0.0	0.0	4.2503938674083465e-05	0.0030102951670704817	0.0	9.027276418367824	0.2929079803597528	0.2929079803597528	0.0	0.0	0.0
DD16-38	1.1496728800117648	1.1496728800117648	0.0	1.1496728800117648	1.1496728800117648	0.0	0.0	0.0	0.2929079803597528	0.0	2.4068522326009805	2.4068522326009805	2.6866954267107284	0.0059794535567680215	2.6866954267107284	4.771848327448923	2.4068522326009805	2.4068522326009805	2.4068522326009805	2.4068522326009805	2.4068522326009805
DD16-39	1.1338500408250007	0.76644858667451	0.5655190984805029	1.012418273678481	1.1338500408250007	0.0	0.0	0.0	0.0	0.0	2.4201240715891545	2.4201240715891545	0.4177188410203989	0.322880038993859	0.0	9.055658674451106	0.5736910532271701	0.5736910532271701	1.1199862867374508	2.264609477059901	1.3108513802416746
DD16-4	4.686695426710728	4.686695426710728	6.3426803513858845	4.686695426710728	4.686695426710728	1.2106344471056505	2.0	2.431615433850304	3.815467172259853	2.9530107160810086	3.7604211724325602	3.7604211724325602	5.7931341843905875	4.883661890707282	5.838590105532906	9.018683552766149	5.850681037432045	5.850823581849222	5.836034460326341	5.800581007732745	5.582346291159491
DD16-40	0.0	0.0	8.456535617811722	0.0	0.0	0.2929079803597528	0.0	0.0	1.1496728800117648	0.0	0.5337534964598419	0.5337534964598419	0.0014436891409625036	1.1507324228255194	0.5856710691444658	10.979879468772364	2.0667831105986245	2.0667831105986245	2.0667831105986245	1.7488224273809214	2.0667831105986245
DD16-41	0.31542259353140195	0.0	2.3710046867284267	0.31542259353140195	0.31542259353140195	1.7506195947073249	1.6012652281379407	0.0	0.0	0.0	1.4295160741215132	1.4295160741215132	5.7718483274489225	5.7718483274489225	5.8161912016661335	9.637678509252716	4.331611553743938	4.331611553743938	4.331611553743938	4.241422735403717	4.3700296111924315
DD16-42	1.5269527550490969	1.1812322182992825	0.1817407454138334	1.5269527550490969	1.5269527550490969	0.0	0.0	0.0	0.0	0.0	0.0	0.0	0.0	0.0	0.0	2.0	0.3107384453623417	0.3107384453623417	0.30975598724951314	0.23254609031698084	0.27346434195186275
DD16-43	0.0	0.0	6.3624644365985645	0.0	0.0	0.0	0.0	1.9060214321620168	3.9257588769804936	0.0	0.0	0.0	4.2855731518270215	0.3154779276286455	4.268485868760582	11.411265410682487	6.3624644365985645	6.3624644365985645	6.3624644365985645	3.2091363101346406	6.3624644365985645
DD16-44	3.8868177113658686	3.383224293337255	1.0009516957651772	3.8868177113658686	3.8868177113658686	1.7718483274489236	1.1496728800117648	0.1639797913359807	3.0	0.0	2.846607960145123	2.846607960145123	0.0	0.4824056698082149	0.2460267330564023	5.1414748921664994	3.0384180574484914	3.0384180574484914	3.3702871417871827	3.0372741034104784	3.5859671414486463
DD16-45	0.0	0.0	0.3294604507821289	0.0	0.0	2.3912366477025246	0.0	1.1496728800117648	3.0	0.3534898994302613	2.3173098327400643	2.3173098327400643	0.1817407454138334	1.236456324535737	1.2571793525892154	7.727894009865778	0.0	0.03629164529765035	0.0	0.0	0.0
DD16-46	4.771848327448923	4.771848327448923	1.5228692125474297	4.771848327448923	4.771848327448923	0.0	0.0	0.0	0.0	0.0	0.6313953966164029	0.6313953966164029	1.787319751981054	1.6075350960625143	1.7718483274489236	9.677329150680533	0.30563113339927506	0.30563113339927506	0.42763380048213984	0.3704383225163235	0.3717226453664214
DD16-47	1.6299444143963098	1.3832242933372547	3.4040217550005494	1.6299444143963098	1.6299444143963098	1.7492710255196733	1.4861812513865509	1.6657799052554598	2.1002917750756755	0.4352264872192224	2.9932982459125443	2.9932982459125443	0.720524521631326	2.91935096676002	2.1027977705446874	3.5979866198058432	3.428430673712582	3.428430673712582	3.4289121371656166	3.353996672334329	3.4255851926967966
DD16-48	0.9530107160810086	0.9530107160810086	0.0	0.9530107160810086	0.9530107160810086	0.0	0.0	1.1310275487525632	0.1817407454138334	0.0	0.0	0.0	2.8381195683928104	0.03557785812823033	2.8381195683928104	6.981765034162625	0.76644858667451	0.76644858667451	0.76644858667451	0.76644858667451	0.76644858667451
DD16-49	3.0	3.0	1.4295160741215132	3.0	3.0	1.7718483274489236	0.2726111181207501	0.0	0.0	0.2365669451485515	1.7718483274489236	1.7718483274489236	3.0001726862150497	3.3488191354754715	3.0	6.494272381930188	4.257179352589215	4.257179352589215	4.257179352589215	4.257179352589215	4.257179352589215
DD16-5	4.366663156056148	4.0387035733841845	4.2903327986727255	4.366663156056148	4.366663156056148	4.706979798860521	0.0	0.0	0.3434983080328557	0.0	5.532897173349018	5.532897173349018	5.002528150606442	6.28692263798969	4.268485868760582	9.944725005546204	6.70596274463142	6.70596274463142	6.725945927426231	6.677887030129964	6.725945927426231
DD16-50	3.8381195683928095	3.8381195683928095	4.181232218299281	3.8381195683928095	3.8381195683928095	1.7718483274489236	1.2571793525892154	1.8694843209021743	2.6107482924207948	2.7089354074034637	3.4289620312614955	3.4289620312614955	3.7719056457462985	1.4642879655375998	3.82124313411551	6.733867972175102	5.170534579677941	5.170534579677941	5.134242934380291	5.019351786692092	5.134242934380291
DD16-51	4.1496728800117655	4.1496728800117655	4.429516074121513	4.1496728800117655	4.1496728800117655	1.2571793525892154	0.2929079803597528	2.6866954267107284	1.7718483274489236	0.0	4.771848327448923	4.771848327448923	0.014078836495115332	0.4832392003190562	0.2365669451485515	9.43135946367656	3.0	3.0	3.0	3.0	3.0
DD16-52	2.099680450976575	1.6762391367856206	1.5359074685160905	1.9916617303170223	2.099680450976575	2.660046896802688	3.766448586674509	0.0	3.0	0.4443602721371779	1.767557719662393	1.767557719662393	2.3358997980613525	3.792132478211674	1.4295160741215132	11.842459479988985	1.3616919953667068	1.3616919953667068	1.0094921006322788	1.0056339218746198	0.8911653706595237
DD16-53	7.8188275140961885	7.582260568947638	8.980984637583564	7.8188275140961885	7.8188275140961885	4.8018915692241535	1.80550829146977	4.3770127323203365	7.812268818747943	0.0	5.963156694292983	5.963156694292983	8.913306049440635	8.339375750194442	9.012352117364577	10.518399901797293	9.681332335225106	9.681332335225106	9.681332335225106	9.292558186459734	9.667294477974382
DD16-6	2.2183555164253983	1.1496728800117648	1.4997209423361109	2.16244436130968	2.2183555164253983	0.0	0.0	0.0	0.0	0.0	0.0	0.0	0.0	0.0010129838726293378	0.0	8.487913058066255	4.25567337042231	4.265577648785883	4.25567337042231	4.157801642942558	4.4788791493414255
DD16-7	0.9481893320883434	0.76644858667451	0.8381195683928103	0.9481893320883434	0.9481893320883434	2.4259324858579827	1.9476808049737928	2.9530107160810086	2.0	0.7064731831024642	0.0	0.0	2.653414123867256	2.4522177184129315	1.791130284473819		3.2166676483635337	3.2166676483635337	3.1812322182992823	2.134242934380291	3.2166676483635337
DD16-8	1.87717059952122	1.7194593027555185	1.1257003649169923	1.87717059952122	1.87717059952122	2.8229551634049024	2.300664088645996	3.1482827029875105	4.158151425396749	0.8704529744384448	2.568837079686578	2.568837079686578	3.6606469072096166	2.851097529327723	4.210671394472467	6.8534499634015065	2.6644106745586678	2.6645257987020345	2.664555754773995	1.8664161579547305	2.6635675604357214
DD16-9	5.2925466991936965	4.634376231684522	5.162090705480527	5.2925466991936965	5.2925466991936965	8.659189672558831	4.897189041093138	3.54247850065194	5.915223955105343	0.7756979203913046	6.2565623564990025	6.2565623564990025	8.453964556880969	8.772110335269916	7.474321810071852	8.623261774723607	8.529114488295656	8.529114488295656	8.540587234461762	8.310442725587594	8.512652994409054
