topic	FifthIterBaseline	FirstIterBaseline	LDA_Indri73	SecondIterationBaseline	TenthIterBaseline	UL_BM25	UL_Kmeans	UL_LDA_200	UL_LDA_NE	UL_LDA_Psum	UPD_IA_BiQBDiJ	UPD_IA_BiQBFi	rmit_lm_nqe	rmit_lm_psg.max	rmit_lm_rocchio.Rp.NRd.10	rmit_oracle.lm.1000	ufmgHM2	ufmgHM3	ufmgHS2	ufmgXM2	ufmgXS2
DD16-1	4.194431157524942	0.8877986845352888	10.58555215782036	4.194431157524942	4.194431157524942	0.0	0.0	4.369385794400483	5.739449084215372	1.5078833123544442	0.0	0.0	3.108081675143634	1.7987583482242764	4.930941619839276	23.73575241606801	13.883679191029403	14.16056441125756	10.297360169084019	12.116903491597538	17.089239455305258
DD16-10	4.162923330634079	1.8675359917198089	1.647062502709758	4.162923330634079	4.162923330634079	3.3483885119837886	3.0917678669121935	3.3599889762975206	2.600725158123052	5.026941741388698	7.129975773778039	7.129975773778039	8.010337072427356	6.289310120449308	6.5233018934356855	16.342709737987608	7.922804443452772	9.642062745112913	6.3138023629071025	6.20480883083995	7.401300099361372
DD16-11	6.102547325414442	3.5185276363489386	2.553839765140335	6.102547325414442	6.102547325414442	0.6655512836465468	0.0	6.529702435318345	2.4956293165348287	1.86378210870651	7.262128077148987	7.262128077148987	5.775864621112905	5.699349776956304	9.549031102743623	23.75265657984443	11.668027832768285	11.668027832768285	15.093635006451516	13.866353793557725	13.361122166615296
DD16-12	0.0	0.0	0.53806818835553	0.0	0.0	0.0	0.0	0.0	0.0	4.014606040533811	2.0	2.0	0.24594687742242602	2.1910727727962143	0.0	15.418828992547743	0.0	0.8819850800550363	1.292009844532752	0.8997339453041869	1.292009844532752
DD16-13	7.500049414195428	7.500049414195428	4.0	7.500049414195428	7.500049414195428	5.3316980268029335	4.576901356650291	2.214806778267421	4.856416328625482	0.0	7.345631407104121	7.345631407104121	10.249227786355585	11.416110382948306	9.820822101956553	15.165656355390578	7.466772022850133	7.466772022850133	7.466772022850133	7.460962624651827	7.561822422069117
DD16-14	7.133002014382647	7.133002014382647	7.271897741644349	7.133002014382647	7.133002014382647	8.603449152768027	4.754755870738023	3.1388957272617035	7.605122227298207	2.6925578157029317	9.590855954039347	9.590855954039347	11.056451029710571	7.90754599440996	11.967203815839145	23.974521515438088	15.017383227668375	17.07691498721883	15.017383227668375	13.358418260937595	14.777028614095421
DD16-15	3.106699936363672	1.7755973690705775	1.7755973690705775	3.106699936363672	3.106699936363672	6.0986579901829865	6.328495008430816	0.0	1.3726075468410526	14.923023569272654	11.14354069883521	11.14354069883521	17.695422510913783	15.591622759038133	17.721189237855835	31.17798917157861	17.13497602206671	18.628584120876717	18.513454807569627	14.496311983118822	20.16520005268921
DD16-16	4.567282124613024	1.3726075468410526	3.1812322182992823	3.3814410470343934	4.567282124613024	1.7080733953817049	2.4495988619793083	1.8467835019458287	0.0	0.9787805640896494	0.0	0.0	11.439199975439355	5.382518159615454	7.604815277102323	24.471364808144497	15.243325089521267	16.54884714561507	15.189446395170254	10.743568994971763	14.568221281451512
DD16-17	7.921703964212325	4.910744054710627	8.680609251432433	7.355498137612213	7.921703964212325	2.0	0.0	2.5121337925480924	5.308115618130556	3.0	12.758018376421626	12.758018376421626	3.896519339711392	9.73983631989014	8.249221810634163	19.257337532394164	10.635968679592594	11.082638084026287	8.97543268501228	4.705961758561921	11.846024887953716
DD16-18	8.978884341526491	7.148204915911631	3.294125005419516	8.978884341526491	8.978884341526491	11.994931249551833	11.194118886666534	3.4760556930932007	13.709090753289836	7.617185626531924	15.884625784173293	15.884625784173293	26.51932423991981	21.449608577018584	23.41349204098209	27.206326927375656	29.12471446496253	29.12471446496253	27.794490137832145	28.4726212083496	28.348778939481445
DD16-19	0.0	0.0	0.0	0.0	0.0	6.287091920983063	5.56663718368154	3.198094346352228	3.643133360790386	2.8837824586394563	7.007190232773096	7.007190232773096	3.4055545990374814	4.1913894161947685	0.0	27.049106581676284	0.0	0.0	0.0	0.0	0.0
DD16-2	7.1980055672981385	4.86084560146664	3.4951447029274445	7.1980055672981385	7.1980055672981385	10.423549405398132	8.907262728041083	12.035254387397535	8.666732552260571	2.784209772092765	13.56012711234926	13.56012711234926	20.41056627815872	22.28539172256945	12.029695239234483	31.931477819798	19.34308929905637	20.254878651729552	20.37216042487185	16.227835838604026	19.30222186339802
DD16-20	9.583629397264136	9.583629397264136	12.42508699068807	9.583629397264136	9.583629397264136	8.989793173372977	11.455065028243144	16.121797580503713	17.12785497904212	0.0	7.823620924649192	7.823620924649192	22.926723050898666	12.359395522178627	21.52467744326753	32.61125777965399	25.608126249976568	25.608126249976568	25.704401511190113	15.938812263203275	24.208063745088662
DD16-21	1.940496036473752	1.940496036473752	3.5741024579558154	1.940496036473752	1.940496036473752	3.757319150558741	1.647062502709758	2.7553346762550976	6.763566783721857	3.808592813265962	3.366461097600884	3.366461097600884	12.119886172466126	7.2248963278667055	13.332853743189425	16.342709737987608	5.712103350679878	6.186499245291397	6.564672909404284	11.116660911783605	8.870185609215458
DD16-22	6.361224833185718	5.320127945560986	7.657984145472536	6.361224833185718	6.361224833185718	6.460386286916528	3.1992340185227417	1.1685799829157486	4.4827675413329064	2.678147295266442	6.8941214381982245	6.8941214381982245	13.060940021497547	13.859143975780926	6.345950785404737	19.123133221858172	12.573161880211707	12.573161880211707	12.539723377230235	12.622439797903429	13.149880064194482
DD16-23	0.0	0.0	4.56781625433788	0.0	0.0	6.350857188113087	2.1683513873924936	2.056595824704469	6.940199714841418	2.5129302451022157	11.036896451980017	11.036896451980017	18.832832161049875	15.544002741113149	19.924041618328122	23.70336342068182	8.590587431889599	12.3385230128691	8.532163934228791	8.07916764658257	11.291579226866483
DD16-24	8.271897741644349	8.271897741644349	8.271897741644349	8.271897741644349	8.271897741644349	11.22581946500116	10.681040869784592	10.818631932297919	7.992534464580227	9.75759047030281	17.118487965277094	17.118487965277094	22.52738733631395	19.32506249947642	22.451022515786015	23.000952597251743	20.97518903812323	20.97518903812323	21.159458859019253	20.98442218705221	21.096665067095845
DD16-25	1.4455675915949957	1.4455675915949957	1.8675359917198089	1.4455675915949957	1.4455675915949957	1.6417403407125108	0.7592638181744693	0.7592638181744693	1.6417403407125108	0.0	1.864875497758088	1.864875497758088	5.823226578407639	2.9297637615337497	5.171047152201573		6.9470369392081	6.9470369392081	6.077994513911731	5.541071442847207	6.538879190072563
DD16-26	0.0	0.0	0.3309867785765474	0.0	0.0	2.027782585600609	1.7718483274489236	1.3316980268029333	4.690211033997783	2.7592638181744693	0.0	0.0	0.8928781062482816	0.8316911752005319	0.0	23.004868323492765	0.0	0.0	0.0	0.0	0.0
DD16-27	8.37211359643542	5.361153686933722	8.805075212599506	7.805907769835309	8.37211359643542	6.848885902240768	5.740596761893567	4.989489035181322	3.339930134269694	0.53806818835553	11.042531006700347	11.042531006700347	8.7458764993235	8.114261028260247	13.04279645797904	21.739898659894227	22.194054385954022	22.194054385954022	21.446513948123762	20.86491756112463	21.831030999750432
DD16-28	1.5380681883555298	1.0	4.237678611859399	1.5380681883555298	1.5380681883555298	0.0	0.0	0.5906161091496412	1.3316980268029333	0.0	5.761928001995933	5.761928001995933	4.698073848640588	2.9365286183541937	5.233319640093715	11.893270804785367	3.8191921428497886	4.0554820859332015	4.385710135422454	4.777605162658111	3.645086322279812
DD16-29	1.3316980268029333	1.3316980268029333	3.0	1.3316980268029333	1.3316980268029333	0.0	0.0	0.0	0.0	0.0	8.094018894396536	8.094018894396536	3.443425231504235	0.7279197510300768	3.0	23.559612839489063	1.7718483274489236	1.7718483274489236	1.7718483274489236	1.7718483274489236	1.7718483274489236
DD16-3	0.0	0.0	0.34315188671026314	0.0	0.0	0.0	0.0	0.0	0.0	0.0	0.0	0.0	0.0	0.0	0.0	6.882524185475969	0.0	0.0	0.6196107450986367	0.8027425904640189	0.8469377767293566
DD16-30	0.0	0.0	4.333366276130286	0.0	0.0	1.63705040764171	0.0	0.8877986845352888	0.7545430489038027	0.0	0.7592638181744693	0.7592638181744693	5.897457071961079	3.759263818174469	3.9787805640896488	9.11352780033539	0.8071022825332952	0.8071022825332952	0.0	0.0	0.0
DD16-31	3.1217282547730343	3.1217282547730343	4.897325623843612	3.1217282547730343	3.1217282547730343	0.0	0.0	2.362464436598565	0.6863037734205263	0.0	0.0	0.3440732019551468	7.719906937573156	2.9134460666831776	7.806192622590883	12.75808786901215	7.53313506991452	7.53313506991452	7.625576475597137	7.167690603759732	7.323731623236306
DD16-32	0.0	0.0	3.701458723757182	0.0	0.0	0.0	1.4402454295977485	0.0	1.8675359917198089	0.7539416561772221	0.0	0.0	2.2912230836622847	1.814184509433889	0.0	12.504216959155366	7.22991246665042	7.610519529991156	7.22991246665042	6.632541371529027	8.55996943182792
DD16-33	0.0	0.0	0.5662058266001112	0.0	0.0	1.7718483274489236	1.5363951138253502	0.0	0.8877986845352888	0.0	8.075641666948233	8.075641666948233	2.379501697127996	2.3210887546760395	0.4945399878093857	22.424589303806847	0.0	0.5662058266001112	0.0	0.0	0.0
DD16-34	2.5500858821270365	1.3726075468410526	0.5745333005935289	2.5500858821270365	2.5500858821270365	2.362464436598565	2.362464436598565	4.0	2.1835357338243875	0.0	3.2834806814250217	3.2834806814250217	1.3672524913861814	1.5078833123544442	0.0	8.138061805669143	0.0	0.0	0.0	0.0	0.0
DD16-35	2.362464436598565	2.362464436598565	8.493902215705763	2.362464436598565	2.362464436598565	5.214198182380203	2.8911351831899914	2.337159965831497	2.5085809025790766	1.177478335285984	0.0	0.0	4.673207780420504	7.72586746360639	4.8036130893156885	11.99607266472836	9.557554745492913	9.557554745492913	8.138061805669143	8.138061805669143	8.138061805669143
DD16-36	1.940496036473752	1.940496036473752	4.130203115688172	1.940496036473752	1.940496036473752	1.6251315605669268	1.5608641273865171	1.3987113243310343	0.7227837957974979	0.0	3.735080959336445	3.735080959336445	1.8841979665945805	0.4330060096040621	0.9291791762876956	12.531654344739284	4.340401197159744	4.340401197159744	4.212918101868727	4.070786781614959	4.340401197159744
DD16-37	0.0	0.0	0.0	0.0	0.0	0.0	0.0	0.0	0.0	0.0	0.0	0.0	0.16818064523932907	0.3544349146251193	0.0	8.651529650731584	1.1309124842658331	1.1309124842658331	0.0	0.0	0.0
DD16-38	1.0294556601307894	1.0294556601307894	0.0	1.0294556601307894	1.0294556601307894	0.0	0.0	0.0	1.1309124842658331	0.0	2.1683513873924936	2.1683513873924936	2.470593754064637	0.6961395508641947	2.470593754064637	4.771848327448923	2.1683513873924936	2.1683513873924936	2.1683513873924936	2.1683513873924936	2.1683513873924936
DD16-39	3.1233812098101708	0.6863037734205263	2.129239409735653	1.4934060559538214	3.1233812098101708	0.0	0.0	0.0	0.0	0.0	9.02725674211734	9.02725674211734	1.3958414501762872	2.71152397343696	0.0	14.189349717245898	3.265977953696144	3.265977953696144	5.832777192458439	6.867149409404957	8.618596963042632
DD16-4	4.4705937540646365	4.4705937540646365	6.478267903196947	4.4705937540646365	4.4705937540646365	1.7709074359997767	2.0	2.629030033332933	5.146510825892424	2.887798684535289	3.5423859052330053	3.5423859052330053	11.283808057897453	8.102239881299706	10.808088553553105	19.74702043669648	13.653428971254707	14.560646837954508	14.417064246519216	11.48491253268942	13.468862415333664
DD16-40	0.0	0.0	10.293319096227998	0.0	0.0	1.1309124842658331	0.0	0.0	1.0294556601307894	0.0	6.191833368388138	6.191833368388138	0.5506235502888224	1.3074726340784988	2.332847403382228	20.261331492060485	3.0264109487033832	3.0264109487033832	3.0264109487033832	2.3119381284189093	3.0264109487033832
DD16-41	1.0060573985384038	0.0	2.675266759781489	1.0060573985384038	1.0060573985384038	2.768731782529428	1.9204371944459253	0.0	0.0	0.0	1.3316980268029333	1.3316980268029333	5.7718483274489225	5.7718483274489225	6.4933920804708105	14.130819711538903	5.011904557213336	5.011904557213336	5.011904557213336	5.4321902943055616	5.4665586204747765
DD16-42	2.3848516903013595	1.1812322182992825	0.6655512836465468	2.3848516903013595	2.3848516903013595	0.0	0.0	0.0	0.0	0.0	0.0	0.0	0.0	0.0	0.0	2.0	2.115788454666108	2.115788454666108	2.090580799493698	1.1758545573846166	1.693875553458713
DD16-43	0.0	0.0	6.3624644365985645	0.0	0.0	0.0	0.0	1.7755973690705775	4.4716033407055	0.0	0.0	0.0	4.847566311479127	1.2169936466416615	4.138061805669143	14.04060131152933	6.3624644365985645	6.3624644365985645	6.3624644365985645	2.8911351831899914	6.3624644365985645
DD16-44	5.033362920708046	3.3431518867102628	1.3558404100366213	5.033362920708046	5.033362920708046	1.7718483274489236	1.0294556601307894	0.53806818835553	3.0	0.0	4.854241779906267	4.854241779906267	0.0	1.1165907570832672	0.8749221744974472	5.516004373046167	3.4546540632614398	3.4546540632614398	5.04756751082928	3.4219129012073948	5.3914917867970615
DD16-45	0.0	0.0	1.0917678669121935	0.0	0.0	2.771943456400681	0.0	1.0294556601307894	3.0	1.2542904512895388	3.9918678874172864	3.9918678874172864	0.6655512836465468	2.066687111302232	1.138895727261704	10.300721673175714	0.0	0.3967052460349851	0.0	0.0	0.0
DD16-46	4.771848327448923	4.771848327448923	3.2733535144364465	4.771848327448923	4.771848327448923	0.0	0.0	0.0	0.0	0.0	3.0995547856333032	3.0995547856333032	2.5833553662348048	3.219300995205133	1.7718483274489236	12.091348185377786	1.535022033563372	1.535022033563372	2.838955723358134	2.1772343290946763	2.2060863715470425
DD16-47	2.158069914344125	1.3431518867102632	6.928465901324885	2.158069914344125	2.158069914344125	2.5865500528582843	1.4141473605045205	2.194549936721097	2.564654021525808	1.5246644975457464	6.615656796029183	6.615656796029183	5.633190903252523	6.125430203269165	5.65864073346547	8.816154251716572	7.985686203132403	7.985686203132403	7.994973746463073	7.864865423343041	8.057157865794606
DD16-48	0.8877986845352888	0.8877986845352888	0.0	0.8877986845352888	0.8877986845352888	0.0	0.0	1.8901763024403024	0.6655512836465468	0.0	0.0	0.0	2.7592638181744693	0.6252307651545977	2.7592638181744693	6.644801610117737	0.6863037734205263	0.6863037734205263	0.6863037734205263	0.6863037734205263	0.6863037734205263
DD16-49	3.0	3.0	1.3316980268029333	3.0	3.0	1.7718483274489236	0.9983269254698204	0.0	0.0	0.7545430489038027	1.7718483274489236	1.7718483274489236	3.2087046441073532	4.763781836076925	3.0	7.234458838517691	4.138895727261704	4.138895727261704	4.138895727261704	4.138895727261704	4.138895727261704
DD16-5	4.957128449658564	3.880992072947504	5.7116890500181245	4.957128449658564	4.957128449658564	6.5085809025790775	0.0	0.0	1.177478335285984	0.0	5.372607546841053	5.372607546841053	6.82342345330957	8.21159342648859	4.138061805669143	9.65658944201808	7.539942771884547	7.539942771884547	7.6935670038916575	7.368521835136969	7.6935670038916575
DD16-50	3.759263818174469	3.759263818174469	4.181232218299281	3.759263818174469	3.759263818174469	1.7718483274489236	1.138895727261704	2.1488191555375344	2.5129302451022157	3.5738996537012087	4.962537375615884	4.962537375615884	4.051990460297493	3.409521288074587	4.8243136348926665	12.937139287391874	5.465736148869556	5.465736148869556	5.069030902834571	4.940496036473752	5.069030902834571
DD16-51	4.02945566013079	4.02945566013079	4.3316980268029335	4.02945566013079	4.02945566013079	1.138895727261704	1.1309124842658331	2.470593754064637	1.7718483274489236	0.0	4.771848327448923	4.771848327448923	0.7870061225685535	1.8175550563776823	0.7545430489038027	11.284245902844491	3.0	3.0	3.0	3.0	3.0
DD16-52	3.6954660780240536	1.5185276363489386	1.7270424614661717	2.5245850348873424	3.6954660780240536	4.614583248718115	3.6863037734205264	0.0	3.0	1.5870660931128122	2.9597334284038075	2.9597334284038075	6.819277482744492	7.9940110981478	1.3316980268029333	25.61910593599192	7.399095380192852	7.399095380192852	6.875633675629872	6.7990510983818435	4.399410058128741
DD16-53	8.048668054323317	7.294125005419517	8.662983510638915	8.048668054323317	8.048668054323317	4.99498841785746	2.3709344723108727	5.419492939823768	8.827310469022185	0.0	9.651111153893043	9.651111153893043	9.738949651146047	9.52092081152398	9.160938856330436	11.21773935743735	11.20956851464504	11.20956851464504	11.20956851464504	9.707474330554156	11.12385804627125
DD16-6	5.105406020313287	1.0294556601307894	2.461714113925153	4.472536668502196	5.105406020313287	0.0	0.0	0.0	0.0	0.0	0.0	0.0	0.0	0.4313874310958482	0.0	18.05646951757028	9.378330444399486	10.7689018976933	9.378330444399486	7.458114249474143	9.616763690370568
DD16-7	1.351855057067073	0.6863037734205263	0.7592638181744693	1.351855057067073	1.351855057067073	4.085363264691777	1.8675359917198089	2.887798684535289	2.0	2.5112608067359625	0.0	0.0	6.6924858190147445	6.619506234217782	1.647062502709758		3.558702769366023	3.558702769366023	3.1812322182992823	2.069030902834572	3.558702769366023
DD16-8	2.0771311572250166	1.574102457955815	1.9783136179532783	2.0771311572250166	2.0771311572250166	4.452808614279516	3.124506347166233	3.641740340712511	4.989743326529972	3.049328995091493	6.060505415879778	6.060505415879778	10.029591139745415	8.873430172976805	9.034568991023127	16.548207009556744	8.344205957450317	8.483342386855217	8.360265682292603	7.4359667055322145	8.337479539448134
DD16-9	6.513849734508268	4.338129745784446	7.841053107548296	6.513849734508268	6.513849734508268	10.728074392394324	6.177478476378107	4.636326957833774	5.751563763830028	2.6912178636244883	14.854631676682878	14.854631676682878	18.483847425783544	17.61174853676445	11.526845854155932	21.43180692763945	21.002846858820536	21.002846858820536	21.147047660253342	19.515878278967488	20.628234907711185
