topic	FifthIterBaseline	FirstIterBaseline	LDA_Indri73	SecondIterationBaseline	TenthIterBaseline	UL_BM25	UL_Kmeans	UL_LDA_200	UL_LDA_NE	UL_LDA_Psum	UPD_IA_BiQBDiJ	UPD_IA_BiQBFi	rmit_lm_nqe	rmit_lm_psg.max	rmit_lm_rocchio.Rp.NRd.10	rmit_oracle.lm.1000	ufmgHM2	ufmgHM3	ufmgHS2	ufmgXM2	ufmgXS2
DD16-1	0.9207955129437236	0.588235294117647	2.912076222460081	0.9207955129437236	0.9207955129437236	0.0	0.0	1.568433059450171	2.1417379023130723	0.16780787932916547	0.0	0.0	1.1969093427528876	0.16788047382338625	1.4004740288281623	6.623948928112701	3.330332248447681	3.330334189804171	3.3059726574389723	3.843309562946772	3.532236625271544
DD16-10	1.5402655955569324	1.3136762860727729	0.9980713596914176	1.5402655955569324	1.5402655955569324	0.8389141764992656	2.1039247651557558	1.5655873879711881	1.1557513223974176	3.1878287048203378	1.9237000212879405	1.9237000212879405	1.8499677874123392	0.7449194330869541	1.839285813429547	4.680386007822103	3.4174703687957395	3.417856512465815	3.3495909391723173	2.4394676288282144	3.5512558680958937
DD16-11	3.089114333667844	2.819672131147541	1.6273525721455455	3.089114333667844	3.089114333667844	0.07184738273283482	0.0	2.4174538250986544	0.25738564558855503	0.43330501960702017	1.380414122349198	1.380414122349198	1.5858022769665236	0.7577570091129581	1.5933318750166194	8.250073268525062	6.903694464749929	6.903694464749929	6.908819008917577	6.9372533893618185	6.942404227930306
DD16-12	0.0	0.0	0.05081716159556872	0.0	0.0	0.0	0.0	0.0	0.0	2.6988668224803387	2.0	2.0	0.0003577679006661973	2.0000757143205106	0.0	4.680735447256391	0.0	0.01989543680193219	0.13472110126015147	0.05255726236924616	0.13472110126015147
DD16-13	5.9676214686462865	5.9676214686462865	4.0	5.9676214686462865	5.9676214686462865	4.88235294117647	3.1469850173444534	0.9720744913271558	2.5562896128586714	0.0	4.096510894548693	4.096510894548693	6.984240170943885	6.036016788360191	6.882823413104696	7.936066785332726	5.171194186863959	5.171194186863959	5.171194186863959	5.202251286648333	5.174288769434628
DD16-14	5.8528673702856295	5.8528673702856295	5.4676214686462865	5.8528673702856295	5.8528673702856295	3.9362543028322734	1.8036255500268528	2.614754098360656	3.8284832287330217	0.2682472494731756	0.34012025461287104	0.34012025461287104	6.198490789555997	2.7614045223307015	6.1108516674763464	8.050386593495176	6.504439872945316	6.504818483063289	6.504439872945316	6.908312320271577	6.527459173662052
DD16-15	1.3201653537009637	1.176470588235294	1.176470588235294	1.3201653537009637	1.3201653537009637	0.6209864982974845	2.7775834871714795	0.0	0.6273525721455456	8.11113337260555	2.006674365719205	2.006674365719205	1.9280876444762407	0.5170828151242488	2.0550614014412503	9.34624223912114	1.8717305222191807	1.871739186367084	1.7888353930745102	1.7518075700398517	1.9367576501937327
DD16-16	0.8427281317087167	0.6273525721455456	3.0	0.8251799192284526	0.8427281317087167	0.18564673529796105	1.4112958044057409	1.0718473827328348	0.0	0.10328424199649314	0.0	0.0	1.950202066782967	0.2975463773305522	1.6377637519349693	6.407152622896898	6.397385387576687	6.397488093530452	6.445024887689666	5.911019080215089	6.548967255831587
DD16-17	4.358374015318337	4.114754098360656	3.6891093162432527	4.346866988487643	4.358374015318337	2.0	0.0	0.5837727372559711	2.2283550404559427	3.0	3.541047298455928	3.541047298455928	2.084778337174156	6.483513521088325	2.2795202074579404	5.650354927209578	1.2753572159662945	1.275366789163888	1.2669531846097046	0.8881070988661041	1.3656382597394598
DD16-18	5.971623081154925	5.803823160380839	1.996142719382835	5.971623081154925	5.971623081154925	5.4072180645327	6.250876128363537	0.8466696606035898	7.198598439746452	1.4406586294450254	0.7363961890888922	0.7363961890888922	8.310462444213856	5.6098070398556645	8.320481733536205	8.289732725408763	9.04805203564642	9.04805203564642	8.939120661525077	8.986757989344078	8.980327751408774
DD16-19	0.0	0.0	0.0	0.0	0.0	3.1014151883780485	3.3226181260125496	0.333755171873204	2.4901468743080666	0.2997925811790748	1.368907937826793	1.368907937826793	0.016809027476085626	2.0038227874200323	0.0	6.777957881850487	0.0	0.0	0.0	0.0	0.0
DD16-2	3.770142326301501	3.5382267640585656	0.930790073567442	3.770142326301501	3.770142326301501	3.734776276503848	3.0154948944891817	8.711716088305645	6.6234952915283785	0.2872810584890985	4.401919722253258	4.401919722253258	4.2257129928200445	2.5408437160017443	4.018379496349676	9.27686807597962	3.69283408578394	3.6928394472618034	3.724791416747131	4.535812677912948	3.6405755395517314
DD16-20	7.899982939881838	7.899982939881838	8.499674125424008	7.899982939881838	7.899982939881838	2.068011201590571	6.53276570152022	9.1562609930486	9.244481789825867	0.0	2.5925877480456125	2.5925877480456125	9.03484892630164	5.204009675682884	8.939817540508948	9.36077160069286	7.361944897039412	7.361944897039412	7.1903915390522375	6.995833744421973	7.341389998597696
DD16-21	1.4098360655737705	1.4098360655737705	2.9019115801904194	1.4098360655737705	1.4098360655737705	2.1757721478885905	0.9980713596914176	1.9019115801904198	4.1174772693549615	0.7203293147225127	1.084390491285947	1.084390491285947	4.4777865412100395	2.44441950242666	4.61225909610062	4.680386007822103	1.869358132828448	1.8700311123538207	1.9154672072612635	2.692117293656916	1.8205696254768453
DD16-22	4.7096816583448575	4.614754098360656	5.1408261934471975	4.7096816583448575	4.7096816583448575	3.773718366643291	2.196029227249243	0.1159577811214671	2.5113795783024817	0.2685530497994693	2.080493972083769	2.080493972083769	5.7667258003256965	6.718854078969617	5.401911580190419	6.27975538385553	5.7128490440749875	5.7128490440749875	5.707474643500903	5.660732237018768	5.717456907041327
DD16-23	0.0	0.0	0.2468439375102703	0.0	0.0	1.7606283534480096	1.0852685274698148	0.8704892927431096	5.585268527469816	1.8823529411764703	1.3598349176718685	1.3598349176718685	6.825454771092413	5.138896751288238	6.97193342884385	6.9864287254861495	3.2630104321540463	3.2650189948226784	3.26302202686043	3.619236327837831	3.4257950042487764
DD16-24	6.4676214686462865	6.4676214686462865	6.4676214686462865	6.4676214686462865	6.4676214686462865	5.962846913260237	6.907477298499576	6.228513009443287	3.1387217594318284	4.804138398573751	6.8252347890707625	6.8252347890707625	6.632584761274583	5.4105125166040775	6.599823176144782	6.604679531819488	5.973136446927558	5.973136446927558	5.983214050629558	5.961663532422812	6.046423631209468
DD16-25	0.7235123516465433	0.7235123516465433	1.3136762860727729	0.7235123516465433	0.7235123516465433	0.6721392337822297	0.4098360655737705	0.4098360655737705	0.6721392337822297	0.0	0.0754324814422293	0.0754324814422293	3.1440430608267107	0.10669970576581472	3.1105546232200454		2.000305318355549	2.000305318355549	2.005125004479108	1.9063490778802528	2.0531255248370663
DD16-26	0.0	0.0	0.0004470624127934837	0.0	0.0	0.5782855032084114	1.5	0.8823529411764705	3.1659472925440384	2.4098360655737703	0.0	0.0	0.0027838497694273874	0.00019415672990919847	0.0	6.987838979172023	0.0	0.0	0.0	0.0	0.0
DD16-27	4.596487287243312	4.3528673702856295	5.660701008912045	4.5849802604126175	4.596487287243312	4.261108004193223	3.555978430991739	1.838242003975963	1.0979186303410118	0.05081716159556872	1.7696376303426755	1.7696376303426755	2.0343178627353646	2.3896309210551863	2.376144270957118	6.557178301783817	5.0516020874109495	5.0516020874109495	5.0133656292248014	5.009788754667767	5.020384797003215
DD16-28	1.0508171615955688	1.0	3.498071359691417	1.0508171615955688	1.0508171615955688	0.0	0.0	0.5	0.8823529411764705	0.0	0.8790386829952984	0.8790386829952984	3.3146351381244195	2.01425233298224	3.3720708700822306	4.6476723428603846	1.0837346898485167	1.0840709024821906	1.1426919733387688	1.7638163935910964	1.1341511537025155
DD16-29	0.8823529411764705	0.8823529411764705	3.0	0.8823529411764705	0.8823529411764705	0.0	0.0	0.0	0.0	0.0	0.15272286567650406	0.15272286567650406	3.0000102061553453	0.017172859231977467	3.0	7.020497904233356	1.5	1.5	1.5	1.5	1.5
DD16-3	0.0	0.0	0.1568381430363864	0.0	0.0	0.0	0.0	0.0	0.0	0.0	0.0	0.0	0.0	0.0	0.0	2.977815644852156	0.0	0.0	0.04767625624295052	0.04689197400611299	0.052920252471986944
DD16-30	0.0	0.0	3.3117476457641897	0.0	0.0	0.17362548981526826	0.0	0.588235294117647	0.06616559758294842	0.0	0.4098360655737705	0.4098360655737705	3.1222769178282164	3.4098360655737703	3.103284241996493	5.525158519039584	0.07622574239335309	0.07622574239335309	0.0	0.0	0.0
DD16-31	2.4098360655737703	2.4098360655737703	3.586306653809064	2.4098360655737703	2.4098360655737703	0.0	0.0	2.0	0.3136762860727728	0.0	0.0	0.001968183172557637	5.524084263883934	0.09730454410122516	5.638355215946095	6.881011309210797	4.6456339657304815	4.6456339657304815	4.608937494710334	4.590748056728628	4.5070851144078015
DD16-32	0.0	0.0	0.4372574591181669	0.0	0.0	0.0	0.3975802257373555	0.0	1.3136762860727729	0.08390393966458272	0.0	0.0	0.08396091145427614	0.4714650095385876	0.0	5.75863976931772	3.2317221564504663	3.2322845633257327	3.2317221564504663	3.214901389519529	3.2607353324423363
DD16-33	0.0	0.0	0.011507026830693795	0.0	0.0	1.5	0.15858823569482094	0.0	0.588235294117647	0.0	2.600665348181361	2.600665348181361	0.10521672002440532	0.10364478629449116	0.0027773519621583746	6.6854196000205866	0.0	0.011507026830693795	0.0	0.0	0.0
DD16-34	0.7469813056797929	0.6273525721455456	0.0029406800524521327	0.7469813056797929	0.7469813056797929	2.0	2.0	4.0	0.207849530311512	0.0	1.3442784675644597	1.3442784675644597	0.0883593360363576	0.16780787932916547	0.0	7.1764705882352935	0.0	0.0	0.0	0.0	0.0
DD16-35	2.0	2.0	7.176605672880379	2.0	2.0	3.2781049114264316	1.4470247032930863	0.2319155622429342	0.26332349899991697	0.11962873353424736	0.0	0.0	3.1785144857283623	6.103104663217364	3.2483179709681287	7.662034436188883	7.33222191063271	7.33222191063271	7.1764705882352935	7.1764705882352935	7.1764705882352935
DD16-36	1.4098360655737705	1.4098360655737705	3.607793933131597	1.4098360655737705	1.4098360655737705	1.2941176470588234	1.2049180327868851	0.5545180102260754	0.3617561758232716	0.0	2.31645494879232	2.31645494879232	0.01848487728308978	0.0014862164196682956	0.3055662198801418	4.154099849160811	3.1110384669456916	3.1110384669456916	3.0900082458084257	2.8314066081641656	3.1110384669456916
DD16-37	0.0	0.0	0.0	0.0	0.0	0.0	0.0	0.0	0.0	0.0	0.0	0.0	5.126940997404502e-06	0.0005043189505107732	0.0	6.67253950143317	0.12585590949687409	0.12585590949687409	0.0	0.0	0.0
DD16-38	0.4705144291091593	0.4705144291091593	0.0	0.4705144291091593	0.4705144291091593	0.0	0.0	0.0	0.12585590949687409	0.0	1.0852685274698148	1.0852685274698148	1.4971070395371262	0.0009784401180939534	1.4971070395371262	4.5	1.0852685274698148	1.0852685274698148	1.0852685274698148	1.0852685274698148	1.0852685274698148
DD16-39	0.4176928419974676	0.3136762860727728	0.23362698359612635	0.38990202846612587	0.4176928419974676	0.0	0.0	0.0	0.0	0.0	0.8840354733548449	0.8840354733548449	0.13604010916047676	0.13121244544994548	0.0	5.963107579537152	0.16425757264619245	0.16425757264619245	0.40041861182841454	0.8665584744975005	0.4454777815708112
DD16-4	3.497107039537126	3.497107039537126	4.636085689065384	3.497107039537126	3.497107039537126	0.6779568442683325	2.0	1.3430061683458097	2.146166272637329	2.5882352941176467	2.35286737028563	2.35286737028563	4.2649680927205935	3.0100930101465595	4.30599912872573	5.932713204739287	3.7887427584681137	3.7887589891494398	3.7803133979055215	3.767097856319295	3.6493921391105495
DD16-40	0.0	0.0	7.2246863992501185	0.0	0.0	0.12585590949687409	0.0	0.0	0.4705144291091593	0.0	0.17382128700896912	0.17382128700896912	0.00021323754730573317	0.4706977692244741	0.19136619405687247	7.9286552101629155	0.9874800104767064	0.9874800104767064	0.9874800104767064	0.8365658591087687	0.9874800104767064
DD16-41	0.08822079677726456	0.0	2.001709744268363	0.08822079677726456	0.08822079677726456	0.7694960251119803	0.9421673079435942	0.0	0.0	0.0	0.8823529411764705	0.8823529411764705	5.5	5.5	5.5096395343930205	7.251550759129046	2.945528040644416	2.945528040644416	2.945528040644416	2.7647155084731136	2.9560160331024883
DD16-42	1.1226645443284036	1.0	0.07184738273283482	1.1226645443284036	1.1226645443284036	0.0	0.0	0.0	0.0	0.0	0.0	0.0	0.0	0.0	0.0	2.0	0.11522602271817975	0.11522602271817975	0.11428736892458775	0.0932894574387886	0.10584050494397387
DD16-43	0.0	0.0	6.0	0.0	0.0	0.0	0.0	1.176470588235294	2.1157714529170817	0.0	0.0	0.0	3.1798907852710134	0.08822696282116921	3.1764705882352944	8.48630254244195	6.0	6.0	6.0	1.4470247032930863	6.0
DD16-44	3.3227854355804247	3.1568381430363863	1.0001350846450858	3.3227854355804247	3.3227854355804247	1.5	0.4705144291091593	0.05081716159556872	3.0	0.0	1.8533268654969703	1.8533268654969703	0.0	0.29503883063920017	0.07623279131482831	3.738813442392386	3.0104879924580734	3.0104879924580734	3.1468644443390827	3.0093855177742057	3.2232488108680224
DD16-45	0.0	0.0	0.10392476515575597	0.0	0.0	1.2799331669138259	0.0	0.4705144291091593	3.0	0.1316617494999585	0.9898952024066532	0.9898952024066532	0.07184738273283482	1.0118821235848452	0.6147540983606556	5.655744666928568	0.0	0.008446863980613874	0.0	0.0	0.0
DD16-46	4.5	4.5	0.5914871151531311	4.5	4.5	0.0	0.0	0.0	0.0	0.0	0.21267670255527651	0.21267670255527651	1.5027679169146049	0.7537846227789613	1.5	6.86719574478645	0.09339860162533056	0.09339860162533056	0.1336429820148926	0.11840143621335678	0.1195647053535838
DD16-47	1.2342091064120486	1.1568381430363863	2.3342594352755466	1.2342091064120486	1.2342091064120486	0.9949476012033268	0.9990356798457088	1.2822889961625474	1.1706584453218736	0.15524662457437113	2.0681617327170567	2.0681617327170567	0.2350951543013559	2.1483146000948223	1.6746756475018418	2.4000090796585067	2.3407045004593865	2.3407045004593865	2.340587814087297	2.3196342880679173	2.340082715917257
DD16-48	0.588235294117647	0.588235294117647	0.0	0.588235294117647	0.588235294117647	0.0	0.0	0.5356919750706446	0.07184738273283482	0.0	0.0	0.0	2.4098360655737703	0.0076888670240779266	2.4098360655737703	4.919541578895786	0.3136762860727728	0.3136762860727728	0.3136762860727728	0.3136762860727728	0.3136762860727728
DD16-49	3.0	3.0	0.8823529411764705	3.0	3.0	1.5	0.10777107409925224	0.0	0.0	0.06616559758294842	1.5	1.5	3.0000220907260204	3.1399341861581838	3.0	5.508208850673344	3.6147540983606565	3.6147540983606565	3.6147540983606565	3.6147540983606565	3.6147540983606565
DD16-5	2.921306454338678	2.819672131147541	2.7384705145654467	2.921306454338678	2.921306454338678	4.263323498999917	0.0	0.0	0.11962873353424736	0.0	4.627352572145545	4.627352572145545	3.4639072010987078	4.9388552169403805	3.1764705882352944	7.996142719382834	6.119628733534246	6.119628733534246	6.1436947654656695	6.088220796777264	6.1436947654656695
DD16-50	3.4098360655737703	3.4098360655737703	4.0	3.4098360655737703	3.4098360655737703	1.5	0.6147540983606556	1.5419519698322914	1.8823529411764703	2.1238097653107126	3.1782958717872383	3.1782958717872383	3.5000065093952037	0.6326031697055691	3.5128311135474752	4.881174292760562	4.596682158098259	4.596682158098259	4.588235294117646	4.409836065573772	4.588235294117646
DD16-51	3.4705144291091594	3.4705144291091594	3.882352941176471	3.4705144291091594	3.4705144291091594	0.6147540983606556	0.12585590949687409	1.4971070395371262	1.5	0.0	4.5	4.5	0.003056179203156225	0.14248532462601454	0.06616559758294842	6.790970002393098	3.0	3.0	3.0	3.0	3.0
DD16-52	0.9324580071064956	0.8196721311475409	0.6278568910960564	0.9078929279248056	0.9324580071064956	1.4879732330301292	3.3136762860727726	0.0	3.0	0.1675854408663759	0.8416065084179719	0.8416065084179719	1.1549452806162763	1.9490919845143424	0.8823529411764705	8.059552806466208	0.4716242335682548	0.4716242335682548	0.3634328407737805	0.3596971218906139	0.33513439233876346
DD16-53	6.062308316965782	5.996142719382834	6.947024703293086	6.062308316965782	6.062308316965782	2.8756705431136744	0.7351236462447979	4.155751322397418	5.417168358187404	0.0	5.290517455080531	5.290517455080531	7.231649053247738	7.191812742644354	7.26640502785876	8.034173176771764	7.7476645333048975	7.7476645333048975	7.7476645333048975	7.579868424458753	7.731960564926407
DD16-6	0.8244766699967073	0.4705144291091593	0.9004574361550941	0.8103983933353985	0.8244766699967073	0.0	0.0	0.0	0.0	0.0	0.0	0.0	0.0	0.00014475014881058947	0.0	4.723223850875988	3.449509675479397	3.451226624636939	3.449509675479397	2.5315012337327985	3.512722998303509
DD16-7	0.3855236688056076	0.3136762860727728	0.4098360655737705	0.3855236688056076	0.3855236688056076	1.1615876677435932	1.3136762860727729	2.5882352941176467	2.0	0.2596760875531735	0.0	0.0	1.2720401662086958	1.0229920399498404	0.9980713596914176		3.0076713512204627	3.0076713512204627	3.0	1.5882352941176472	3.0076713512204627
DD16-8	0.9460219785790519	0.9019115801904198	0.4483973873329243	0.9460219785790519	0.9460219785790519	1.8268811605335544	1.441690624125988	2.6721392337822296	3.1417896661231235	0.3104932491487423	1.1822945768130957	1.1822945768130957	2.6126155016363164	1.680398264711756	2.8079968976845784	4.680554086442908	1.0799312932888352	1.0799460204395157	1.080045782706016	0.756279754127343	1.0782400673896693
DD16-9	3.0174876349391013	2.8107833256098997	3.1375356914844765	3.0174876349391013	3.0174876349391013	5.948643016321476	2.9230908011653436	1.6954998444392118	3.9896766678406017	0.2700709551965473	3.3294055117752235	3.3294055117752235	5.707797335088911	5.99656272667414	5.391880099143195	5.764031733790102	5.7151438232792255	5.7151438232792255	5.718146378444529	5.612776466376624	5.716814561962942
