topic	BASE_INDRI_50	DDTJU_EXPLORE	FifthIterBaseline	FirstIterBaseline	GU_RUN3_SIMI	GU_RUN4_SIMI	LDA_Indri73	SecondIterationBaseline	TenthIterBaseline	UL_BM25	UL_Kmeans	UL_LDA_200	UL_LDA_NE	UL_LDA_Psum	UPD_IA_BiQBDiJ	UPD_IA_BiQBFi	baseline	lm	lmrf	multir	okapi	rmit_lm_nqe	rmit_lm_psg.max	rmit_lm_rocchio.Rp.NRd.10	rmit_oracle.lm.1000	simti	simtir	simtir20	tfidf	ufmgHM2	ufmgHM3	ufmgHS2	ufmgXM2	ufmgXS2	ul_combi_roc.2	ul_lda_roc.10	ul_lda_roc.2	ul_lda_roc.3	uogTrEpsilonG	uogTrIL	uogTrRR	uogTrSI	uogTrxQuADRR
DD15-1	0.00425	0.0035000000000000005			0.009609375	0.008541666666666666											0.006500000000000001			0.0075312500000000015						0.00825	0.00825	0.00825								0.01		0.01					
DD15-10		0.015			0.03	0.03											0.015	0.105	0.075	0.015	0.105					0.015	0.015	0.015	0.15						0.02	0.0525	0.0525	0.035	0.15	0.15	0.15	0.15	0.075
DD15-100		0.006			0.011428571428571429	0.011428571428571429											0.007000000000000001	0.08	0.03583333333333333	0.008						0.006	0.007000000000000001	0.006	0.07						0.03	0.03	0.03	0.02333333333333333		0.004444444444444445			0.005
DD15-101		0.014000000000000002			0.021296875	0.029285714285714283											0.0203671875	0.23	0.06265625	0.01975	0.11					0.0211875	0.0211875	0.01975	0.16						0.05	0.035	0.035	0.02666666666666667	0.016	0.08	0.0725	0.145	0.02
DD15-102		0.00446875			0.0040947265625	0.004142578125											0.0043779296875			0.00421875						0.00440625	0.00440625	0.00427734375							0.0125	0.005	0.005	0.008333333333333333					
DD15-103		0.0053125			0.0093525390625	0.009379150390625											0.009537841796875	0.075	0.0363427734375	0.009509765625						0.0119140625	0.0119140625	0.00949609375								0.0025						0.04	0.006666666666666667
DD15-104		0.005375			0.0106064453125	0.0114296875											0.014568359375	0.06	0.029375	0.01440625	0.07					0.013843749999999998	0.013843749999999998	0.014375	0.07														0.0025
DD15-105		0.03			0.02325	0.02325											0.0239375			0.019						0.02225	0.02225	0.02225							0.055	0.065	0.085	0.0475				0.08	0.05333333333333334
DD15-106		0.004			0.01	0.01											0.00475	0.03	0.013333333333333334	0.00475	0.03					0.00475	0.00475	0.00475	0.03						0.015	0.02125	0.02375	0.015833333333333338	0.01	0.03	0.015	0.015	0.005
DD15-107		0.004															0.004	0.08	0.04	0.004						0.004	0.004	0.004	0.08						0.02	0.02	0.02	0.013333333333333334					
DD15-108		0.0385			0.0350625	0.0350625											0.0354296875	0.3	0.085	0.035	0.04					0.0350625	0.0350625	0.035	0.06						0.02	0.02	0.02	0.013333333333333334		0.02	0.03333333333333333	0.0225	0.03625
DD15-109		0.01271875			0.0090439453125	0.010697265625											0.009365234375	0.07375	0.0325	0.0092138671875	0.1					0.007875	0.007875	0.009185546875	0.095						0.03	0.013333333333333334		0.013333333333333334	0.09	0.04	0.09	0.045	0.03333333333333333
DD15-11		0.006625000000000001			0.014812824010849	0.014812551379203797											0.0214373779296875	0.11375	0.040625	0.02143701171875	0.1975					0.02143359375	0.02143359375	0.02143743896484375	0.13625						0.0490625	0.0521875	0.038125	0.03756510416666667	0.14625	0.13	0.14625	0.14625	0.073125
DD15-110					0.006	0.006											0.0045	0.03	0.015	0.003						0.00525	0.00525	0.00525								0.006							
DD15-111		0.007000000000000001			0.011666666666666669	0.011666666666666669											0.0115	0.07	0.035	0.01	0.07					0.0115	0.0115	0.0115	0.07										0.00875				
DD15-112		0.006			0.017734375	0.01459375											0.007000000000000001	0.285	0.0859375	0.00475						0.003	0.0063750000000000005	0.003							0.025	0.02	0.02	0.013333333333333334					0.0325
DD15-113		0.003			0.0054375	0.005375											0.0054765625	0.03	0.013125	0.00540625						0.00540625	0.00540625	0.005375	0.04						0.015	0.01	0.01	0.006666666666666667	0.0022222222222222227	0.005	0.006666666666666667	0.00375	0.0075
DD15-114					0.012	0.012											0.006	0.06	0.03	0.006						0.006	0.006	0.006											0.02			0.02	
DD15-115					0.0050693359375	0.005											0.004625	0.05	0.0165234375	0.0045	0.03					0.00425	0.00425	0.0046875	0.03													0.0025	
DD15-116					0.016666666666666666	0.016666666666666666											0.004			0.004						0.004	0.004	0.004								0.025	0.025	0.016666666666666666		0.005	0.007857142857142858		
DD15-117					0.006	0.006											0.007000000000000001			0.007000000000000001	0.04					0.006500000000000001	0.006500000000000001	0.006500000000000001	0.04						0.03	0.0325	0.0325	0.02333333333333333		0.005	0.005714285714285714		
DD15-118					0.01925	0.01925											0.019125	0.07	0.03791666666666667	0.0185	0.1125					0.019125	0.019125	0.019125	0.1075						0.02	0.035	0.05	0.02333333333333333	0.028000000000000004	0.14	0.095	0.19	0.01
DD15-12					0.04646023941040039	0.0467559814453125											0.03929095458984375			0.03932248005270958						0.0401240656375885	0.04012406578660011	0.03933114051818848							0.1	0.06666666666666668		0.06666666666666668	0.04			0.05	
DD15-13					0.006944444444444444	0.006944444444444444											0.0061875			0.00575						0.006046875	0.006046875	0.00621875											0.02	0.006666666666666667	0.008	0.02	
DD15-14					0.004041015625	0.005758928571428572											0.004005030632019043	0.02	0.01	0.004004638671875	0.035					0.00405029296875	0.0040587158203125	0.004004825592041015							0.01	0.01875	0.01875	0.013333333333333334		0.0022222222222222227		0.03	
DD15-15					0.01947509765625	0.01947509765625											0.0153125	0.145	0.02896484375	0.0150625	0.14875					0.0153125	0.0153125	0.0153125	0.114375						0.015	0.055	0.015	0.05	0.145	0.125	0.145	0.145	0.0625
DD15-16					0.037000000000000005	0.037000000000000005											0.0185	0.18	0.09	0.018000000000000002	0.18					0.0185	0.0185	0.0185	0.18						0.09	0.09	0.09	0.06	0.18	0.18	0.18	0.18	0.09
DD15-17					0.026680230034722214	0.02813910590277777											0.02325	0.2	0.1	0.023	0.2					0.0225	0.023	0.0225	0.2						0.1	0.1	0.1	0.06666666666666668	0.215	0.2	0.215	0.215	0.1075
DD15-18					0.018000000000000002	0.018000000000000002											0.009000000000000001			0.0099375						0.01	0.01	0.00975											0.02666666666666667		0.008888888888888889	0.04	
DD15-19	0.003	0.003			0.014638671875	0.012808837890625											0.01023239517211914	0.0925	0.017001953125	0.010232402801513671	0.0925					0.010241363525390623	0.0102408447265625	0.01023236846923828	0.0925						0.044453125	0.04400390625	0.040546875	0.022862141927083333	0.065	0.02	0.065	0.065	0.0325
DD15-2					0.005643721522763372	0.005648090712726117											0.00260302734375	0.05	0.0159375	0.0026075878143310546	0.02					0.002623046875	0.00262109375	0.0026025390625	0.02						0.015	0.02	0.0225	0.015833333333333338	0.01	0.01	0.01	0.01	0.005
DD15-20					0.020824720594618054	0.02081169976128472											0.0163916015625			0.01625						0.018000000000000002	0.01625	0.01615625											0.015555555555555557			0.026785714285714284	
DD15-21					0.016	0.016											0.008	0.1	0.05	0.008	0.1					0.008	0.008	0.008	0.08														
DD15-22					0.03093107351660728	0.030923957824707037											0.018000000000000002			0.017916015625						0.011125	0.0133125	0.01678125											0.07	0.02333333333333333	0.07	0.07	0.011666666666666669
DD15-23					0.008683477300684899	0.008500124690384837											0.006967010498046875			0.0069609375						0.00651133406162262	0.006509601593017578	0.006961285084486008							0.05375	0.075	0.070625	0.046640625	0.0725	0.01	0.0725	0.02	0.025
DD15-24					0.00665704345703125	0.00665704345703125											0.0063750000000000005	0.045	0.0225	0.009671600341796873						0.00847802734375	0.008478759765625	0.00847802734375											0.0225	0.004285714285714286	0.009000000000000001	0.0225	0.0225
DD15-25					0.013000000000000001	0.013000000000000001											0.006500000000000001			0.006500000000000001						0.006500000000000001	0.006500000000000001	0.006500000000000001								0.016666666666666666		0.016666666666666666	0.0071428571428571435			0.0125	
DD15-27					0.0276861572265625	0.027685791015625											0.02275	0.35	0.1190625	0.022625	0.5075					0.01825	0.01825	0.02284375	0.38						0.1775	0.26125	0.263125	0.14583333333333334	0.5075	0.44	0.5075	0.508125	0.2540625
DD15-28					0.008226638793945312	0.008281097412109377											0.02809344482421875	0.06	0.02625	0.0260526123046875	0.075					0.026421569824218748	0.026421569824218748	0.026048301696777344	0.075						0.035	0.0575	0.0475	0.05369791666666667	0.075	0.06	0.075	0.075	0.0375
DD15-29					0.020827178955078133	0.0166168212890625											0.0165380859375	0.04	0.044583333333333336	0.01565234375	0.2125					0.01559375	0.015	0.0156640625	0.1						0.07375	0.04	0.04	0.02666666666666667	0.125	0.1	0.125	0.14375	0.06
DD15-3					0.006939523831104452	0.006908208183907845											0.0065971679687500005			0.006791015625000001	0.03					0.007452026367187501	0.007895446777343749	0.007224609375	0.03										0.03			0.035	0.0225
DD15-30					0.004	0.004											0.002	0.02	0.01	0.0035000000000000005	0.02					0.0035000000000000005	0.0035000000000000005	0.0035000000000000005	0.02						0.01	0.0175	0.0175	0.011666666666666669	0.02	0.02	0.02	0.02	0.01
DD15-31					0.008	0.008											0.004	0.035	0.0175	0.004	0.04					0.004	0.004	0.004	0.035						0.02	0.02	0.02	0.011666666666666669	0.04	0.03	0.04	0.04	0.02
DD15-32					0.0049775390625	0.0049726562500000005											0.00565625			0.00540625	0.03					0.0053125	0.00525	0.0054375	0.045						0.0225	0.0225	0.0225	0.015	0.0225	0.006	0.009000000000000001	0.015	0.005
DD15-33																	0.02789794921875	0.1	0.02541015625	0.027898193359375	0.08					0.027031990051269533	0.02703235054016113	0.0278984375	0.12						0.0625	0.06875	0.05	0.04661458333333333					0.02
DD15-34					0.00667798723337819	0.006689975589517418											0.004066192626953125			0.004066234111785889						0.003999858856201172	0.003999878406524658	0.0040660468991845855							0.0225	0.0275	0.02109375	0.024654947916666663	0.004			0.005	
DD15-35					0.02328948603934259	0.023289390937919964											0.02123232603160432	0.255625	0.08003098964691162	0.021232320584356784	0.3475					0.021369951583445068	0.021369951583445068	0.02123232325911522	0.3375						0.1927734375	0.12697265625	0.18390625	0.071883544921875	0.28	0.23	0.28	0.3075	0.088125
DD15-36					0.02037793008983136	0.02037792909145356											0.01001562476158142	0.04	0.019990234375	0.010015609741210938						0.009998046875	0.00999951171875	0.0100155029296875							0.0375	0.03	0.03	0.02	0.04	0.04	0.04	0.04	0.02
DD15-37					0.08	0.08											0.04	0.4	0.2	0.04	0.4					0.04	0.04	0.04	0.4						0.2	0.2	0.2	0.13333333333333333	0.4	0.4	0.4	0.4	0.2
DD15-38					0.004703155517578125	0.00432568359375											0.005			0.00709375						0.006618164062499999	0.006618164062499999	0.006618164062499999															
DD15-39					0.006383056640625	0.006383056640625											0.0053251953125	0.045	0.017656250000000002	0.0053251953125	0.0525					0.00532373046875	0.0053232421875	0.0053251953125	0.046875						0.03078125	0.026875	0.0259375	0.021471354166666658	0.006666666666666667	0.02	0.0225	0.045	0.013333333333333334
DD15-4					0.0071428571428571435	0.008333333333333333											0.005	0.04	0.02	0.004	0.04					0.004	0.004	0.004	0.04						0.02	0.02	0.02	0.013333333333333334	0.04	0.04	0.04	0.04	0.02
DD15-40					0.057999999999999996	0.029875											0.0293125	0.285	0.15	0.02834765625	0.2675					0.028087432861328133	0.028087432861328133	0.0280436897277832	0.165						0.12125	0.0925	0.1325	0.08916666666666667	0.29	0.26	0.29	0.29	0.145
DD15-41					0.018185763888888887	0.023381696428571432											0.012	0.12	0.06	0.0121561279296875						0.01218359375	0.0121796875	0.0121796875														0.005	
DD15-42					0.008035714285714287	0.009375											0.005625	0.03	0.015	0.0057508544921875005	0.03					0.005529296875	0.00552978515625	0.00571484375	0.03						0.015	0.015	0.015	0.01	0.03	0.015	0.03	0.03	0.015
DD15-43					0.013956473214285716	0.013856026785714284											0.00925			0.0075						0.008749999999999999	0.008375	0.0078125								0.03	0.03	0.02	0.04	0.02	0.04	0.04	0.03
DD15-44					0.015	0.015											0.0075	0.075	0.03	0.0075	0.06					0.0075	0.0075	0.0075	0.06						0.03	0.0375	0.0375	0.025	0.075	0.075	0.075	0.075	0.03
DD15-45					0.02371389389038086	0.02370226240158081											0.02006013965606689	0.248125	0.062176055908203125	0.02006241226196289	0.28625					0.020337890625	0.0204150390625	0.020061176300048826	0.220625						0.06125	0.0864453125	0.1166015625	0.07849365234375	0.21125	0.165	0.21125	0.21125	0.105625
DD15-46					0.006055665001273154	0.006029297813773155											0.006250349998474121	0.04	0.0225	0.00625044059753418	0.055					0.006264648199081421	0.006264647483825683	0.006250861167907714	0.055						0.02	0.024375	0.02375	0.016614583333333332	0.055	0.04	0.055	0.055	0.0275
DD15-47					0.008324532940983773	0.008337911874055862											0.008041747093200683			0.0080057373046875						0.008003446340560914	0.008003447473049163	0.008000319242477417								0.04375	0.0440625	0.02485677083333333	0.02	0.005	0.008	0.02	0.004444444444444445
DD15-48					0.01802083333333333	0.01802083333333333											0.0108125	0.08	0.04	0.0108125	0.08					0.0108125	0.0108125	0.0108125	0.08						0.04	0.04	0.04	0.02666666666666667	0.08	0.08	0.08	0.08	0.04
DD15-49					0.01765625	0.01425											0.0081689453125			0.008125						0.0079375	0.00775	0.008125							0.025	0.005							
DD15-5					0.00815846061706543	0.00802123832702637											0.0181923828125	0.1275	0.026357421875	0.0179765625	0.07					0.018099487304687502	0.018101654052734367	0.018135253906250003	0.075						0.03	0.035	0.035	0.02333333333333333	0.013333333333333334	0.004	0.004444444444444445	0.02	0.0375
DD15-50					0.007044921875	0.0072871093750000015											0.006500000000000001	0.03	0.0149981689453125	0.0072119140625						0.00891796875	0.008931640624999999	0.0079638671875															0.0033333333333333327
DD15-51					0.1	0.1											0.07012939453125	0.27875	0.08330729166666666	0.07092041015625	0.185					0.073681640625	0.07368408203125	0.070837890625	0.265						0.035	0.2625	0.330625	0.2339583333333333	0.01	0.04	0.03	0.02	0.02
DD15-52					0.024322916666666663	0.024322916666666663											0.013212646484375002	0.05	0.017499999999999998	0.01321240234375	0.0875					0.0131875	0.0131875	0.013212890625	0.05						0.036328125	0.01998046875	0.01998046875	0.013331705729166666	0.13875	0.13	0.13875	0.13875	0.019375
DD15-53					0.0154755859375	0.0154755859375											0.00703125	0.04	0.02	0.007044921875	0.04					0.00721875	0.006796874999999999	0.006796874999999999	0.04						0.02	0.02	0.02	0.013333333333333334	0.105	0.02333333333333333	0.105	0.035	0.011666666666666669
DD15-54					0.0070966796875	0.007470356941223144											0.007078125			0.007126953125						0.007151665054261684	0.007151665054261684	0.007074978828430177											0.0075			0.002	0.0022222222222222227
DD15-55					0.016071428571428573	0.016071428571428573											0.011778564453125	0.0525	0.02625	0.011703125						0.0108125	0.009625	0.009625	0.065						0.0425	0.0525	0.0525	0.035					
DD15-56																	0.01165625			0.0100625						0.011375	0.0115	0.0115							0.0675	0.00375							
DD15-57					0.00775	0.00775											0.004	0.04	0.02								0.00812451171875																
DD15-58					0.002	0.002											0.002375	0.01	0.005	0.0031875	0.03					0.0019375	0.001875	0.002875	0.045						0.01								
DD15-59					0.009486697673797609	0.009679812371730805											0.004636718749999999			0.004921875						0.005568359375	0.00481072998046875	0.005523437500000001							0.015	0.01078125	0.0115625	0.010052083333333331	0.005	0.0016666666666666663	0.0022222222222222227	0.0016666666666666663	0.0025
DD15-6					0.01	0.01											0.005			0.003	0.04					0.005	0.005	0.005							0.02	0.02	0.02	0.013333333333333334	0.04	0.01	0.04	0.02	0.02
DD15-60					0.017	0.017											0.0025			0.00390625						0.0025	0.0025	0.0025								0.014000000000000002			0.095	0.085	0.095	0.0275	0.0475
DD15-61					0.020433502197265627	0.020431884765625											0.0233369140625	0.2175	0.06	0.023333251953125	0.04					0.0213359375	0.0214580078125	0.02333349609375	0.12125						0.035	0.0525	0.058125	0.03875	0.0125	0.05	0.043125	0.043125	0.02479166666666667
DD15-62																	0.008			0.011875						0.011125	0.011234375	0.0111875															
DD15-63																	0.007875			0.0079375						0.0075	0.00775	0.0075	0.04						0.02				0.013333333333333334	0.004	0.004444444444444445	0.005714285714285714	0.02
DD15-64					0.03333333333333333	0.03333333333333333											0.02			0.0205						0.02	0.021796875	0.022421875											0.02666666666666667	0.08	0.08	0.08	0.05666666666666668
DD15-65					0.015	0.015												0.085	0.0227435302734375		0.09								0.1325						0.06609375	0.042421875	0.042421875	0.027493489583333332				0.0825	0.0425
DD15-66					0.012	0.012											0.004	0.09	0.04	0.0115						0.006	0.006	0.006	0.06														0.013333333333333334
DD15-67					0.01452391815185547	0.014469505310058594											0.00656695556640625	0.13625	0.038125	0.006619823455810548	0.03					0.006409302547574043	0.006480036079883575	0.0066120316982269285	0.1						0.06625	0.08328125	0.0590625	0.0403125	0.0525	0.015	0.0525	0.12625	0.068125
DD15-68					0.009200927734375	0.0092020263671875											0.0147763671875	0.12	0.04624786376953125	0.0147734375	0.12					0.01703125	0.01682073974609375	0.01473828125							0.06					0.0033333333333333327	0.0045	0.0075	0.02
DD15-69					0.0070003662109375	0.007687608718872071											0.0064208984375	0.0375	0.014010416666666666	0.006421630859374999	0.0375					0.006546630859375	0.00654638671875	0.006420654296875	0.0375							0.0033333333333333327						0.02	0.0375
DD15-7					0.03421875	0.03910714285714285											0.02872412109375	0.1225	0.050107421875	0.02872265625	0.25					0.028714843750000007	0.0287158203125	0.028724243164062507	0.25						0.125	0.10125	0.075	0.09489583333333332	0.27	0.26	0.27	0.27	0.135
DD15-70					0.007781250000000002	0.007781250000000002											0.00625			0.007062622070312502						0.009016293585300443	0.009016293674707413	0.008010477662086488	0.03						0.015	0.015625						0.01	0.006666666666666667
DD15-71					0.027795455953106285	0.02796874334657333											0.011281449843198059	0.11	0.021160926818847656	0.006495382239081663	0.106875					0.004480940580368042	0.0045048044323921215	0.006495133936405181	0.060625													0.05625	0.068125
DD15-72					0.018000000000000002	0.018000000000000002											0.01	0.06	0.0234375	0.01025						0.01	0.010375	0.010375	0.06						0.084375	0.08	0.063125	0.04375	0.01	0.02	0.02	0.03	0.01
DD15-73					0.013342013888888888	0.013342013888888888											0.008624999999999999	0.03	0.024765625	0.009011955261230468	0.1325					0.007560546875	0.007560546875	0.00889453125	0.1325						0.063125	0.10015625	0.09953125	0.06682291666666666	0.0725	0.045	0.0725	0.09125	0.063125
DD15-74					0.025	0.025											0.008	0.08	0.04666666666666667	0.008						0.015060546875	0.015060546875	0.015058593749999996														0.0175	
DD15-75					0.005990234375	0.005990234375											0.003	0.058125	0.0290625	0.00590625						0.005921875	0.0059375	0.0059296875							0.0290625	0.029765625	0.02953125	0.01998046875	0.06	0.013333333333333334	0.06	0.06	0.03
DD15-76					0.02587673611111111	0.033203125											0.013750000000000002			0.0143828125						0.0094921875	0.009448974609375	0.0142109375								0.09875	0.105	0.059375	0.03	0.09	0.09		0.06
DD15-77					0.029866071428571436	0.029508928571428568											0.011875	0.14	0.065	0.01190625						0.011875	0.011875	0.0119375	0.14						0.03	0.03	0.03	0.02				0.16	0.0825
DD15-78																	0.026000000000000002			0.026000000000000002						0.026000000000000002	0.026000000000000002	0.027000000000000003														0.0325	0.0975
DD15-79					0.010833333333333334	0.010833333333333334											0.006500000000000001	0.05	0.025	0.006500000000000001	0.065					0.006500000000000001	0.006500000000000001	0.006500000000000001	0.05						0.025	0.0325	0.0325	0.021666666666666667	0.05	0.05	0.05	0.05	0.0325
DD15-8					0.00779998779296875	0.008914969308035715											0.006248947143554689	0.06125	0.02875	0.006256256103515626	0.0575					0.006216461181640625	0.0062159423828125	0.0062562255859375	0.068125						0.0225	0.03046875	0.0346875	0.02054036458333333	0.059375	0.045	0.059375	0.059375	0.0296875
DD15-80					0.005375	0.0059375											0.0071875			0.007328125						0.007343261718749998	0.007337890625	0.00733984375															0.002
DD15-81					0.003875	0.003875											0.006125	0.01	0.012109375	0.0052421875						0.005	0.005	0.005														0.006666666666666667	0.01
DD15-82					0.006455078125	0.007152777777777778											0.00584375	0.055	0.029375	0.00584375	0.055					0.005953125	0.005375	0.005859375	0.05875						0.0275	0.038125	0.038125	0.025729166666666668	0.0075	0.03	0.03125	0.045	0.021666666666666667
DD15-83																																				0.01	0.01	0.0125	0.0016666666666666668	0.005	0.0075	0.0175	0.005833333333333335
DD15-84																	0.00659326171875	0.058125	0.015004959106445313	0.006591796875						0.0062802734375	0.006282958984375001	0.006593963623046875							0.03375	0.0275	0.025						0.020625
DD15-85					0.00850103759765625	0.00850103759765625											0.01075			0.014929695129394531	0.065					0.010890533447265623	0.010945289611816405	0.010726516723632812	0.065						0.0325							0.065	0.0325
DD15-86					0.005468673706054686	0.005468673706054686											0.003365128993988037	0.0325	0.008749847412109374	0.0033684391379356386	0.03					0.0033615758419036864	0.0033616025447845447	0.003366243362426758	0.0325							0.015	0.015	0.013541666666666669	0.0033333333333333327	0.01	0.0125	0.0325	0.009166666666666668
DD15-87					0.004285714285714286	0.005											0.00475			0.005						0.0045	0.0045	0.0045								0.0325	0.0325	0.021666666666666667	0.006			0.06	0.02
DD15-88					0.033051087748259315	0.033049914725124835											0.03200748655572533	0.31	0.07999992370605469	0.03200753141986206	0.31					0.0320622091293335	0.03206220933049917	0.03200748238712549	0.31						0.12	0.15875	0.1425	0.106640625	0.16	0.04	0.16	0.35	0.155
DD15-9					0.026879379276186232	0.02693005383387208											0.026509800899773842	0.14375	0.04753997802734375	0.02650978615693748	0.14					0.026578376770019528	0.026578376770019528	0.02650978478416801	0.23						0.10625	0.10859375	0.09421875	0.048489583333333336	0.245	0.24	0.245	0.2525	0.12625
DD15-90					0.008504464285714284	0.008504464285714284											0.00621875			0.00621875	0.03					0.0089375	0.0089375	0.00621875	0.03						0.02375	0.05375	0.0709375	0.03583333333333333	0.0033333333333333327	0.01	0.01	0.01	0.0075
DD15-91					0.00734375	0.00734375											0.005625			0.005625						0.0056875	0.00603125	0.0058125							0.0325	0.02375	0.02375	0.015833333333333338	0.03	0.03	0.03	0.03	0.015
DD15-92					0.011078125	0.0110625											0.006515625	0.14	0.05	0.006562500000000001						0.0063125	0.0063125	0.0065859375															0.02
DD15-93					0.006234375	0.006359375											0.0046875			0.004						0.00425	0.00425	0.0045							0.0225	0.03	0.02875	0.02		0.02	0.013333333333333334		0.01375
DD15-94					0.017499999999999998	0.017499999999999998											0.008	0.08	0.04	0.00825						0.008624999999999999	0.008624999999999999	0.008624999999999999							0.04	0.02666666666666667		0.02666666666666667	0.005	0.01	0.015	0.03	
DD15-95					0.0155	0.0155											0.013875000000000002	0.04	0.02	0.013843749999999998	0.04					0.013125	0.013125	0.013875000000000002	0.04						0.0675	0.04	0.04	0.03333333333333333				0.12	0.06
DD15-96					0.0225	0.0196875											0.01025	0.14	0.07	0.01						0.01	0.01	0.01														0.015	0.00875
DD15-97					0.04375	0.04375											0.015	0.04	0.02	0.004	0.04					0.006	0.0075	0.006	0.04							0.005714285714285714						0.005	
DD15-98																																										0.0033333333333333327	
DD15-99					0.013196044921875	0.013195068359375											0.01319384765625	0.16875	0.0414190673828125	0.0131640625	0.129375					0.013197265625	0.013197265625	0.013236328125	0.14						0.0378125	0.054921875	0.0536328125	0.03675130208333333	0.003	0.015	0.015	0.130625	0.0375
DD16-1			0.057375	0.2			0.04320424397786458	0.1434375	0.0286875			0.1025	0.14140625	0.02								0.01496875	0.008	0.01821484375	0.015352050806873728					0.0114290864020586	0.009143269149586556	0.0218892822265625	0.049197021484375	0.006045887090345786									
DD16-10			0.013875000000000002	0.06			0.008	0.0346875	0.006937500000000001	0.031875	0.0175	0.01875	0.0225	0.019375	0.0121259765625	0.0121259765625						0.004250236451625825	0.006062986373901368	0.004001922607421875	0.004125030040742881					0.00849951171875	0.004250188022851944	0.01060546875	0.011220703125	0.011220703125									
DD16-11			0.0125	0.04			0.02	0.03125	0.00625	0.01		0.0346875	0.02	0.02	0.020078125	0.020078125						0.00991796875	0.0039443359375	0.012053207397460936	0.011209779812656764					0.0309375	0.0309375	0.01976920445760091	0.02362451171875	0.030654296875									
DD16-12							0.01							0.0225	0.005	0.004						0.002	0.003		0.0062872226836771005						0.016666666666666666	0.013333333333333334	0.016666666666666666	0.013333333333333334									
DD16-13			0.03325	0.16625			0.04666666666666667	0.083125	0.016625	0.08	0.125	0.0925	0.03		0.033	0.033						0.018390625	0.008461914062500001	0.01840625	0.0592431640625					0.058541666666666665	0.058541666666666665	0.058541666666666665	0.058541666666666665	0.058541666666666665									
DD16-14			0.03675	0.18375			0.03395833333333333	0.091875	0.018375	0.0459375	0.029375	0.0275	0.05015625	0.04125	0.01852606201171875	0.01852606201171875						0.008650146484375	0.0122568359375	0.008655256271362304	0.010696700052312736					0.0133238525390625	0.0066621521711349475	0.0136051025390625	0.014478515625	0.013358642578125									
DD16-15			0.024	0.08			0.02	0.06	0.012	0.07125	0.02875		0.08	0.03890625	0.02599609375	0.02599609375						0.014339901894098147	0.00950766038656002	0.015541969773359596	0.014420913314475916					0.01851573433727026	0.014812587484200775	0.014743252749998647	0.019387571471078054	0.01416473388072336									
DD16-16			0.0134375	0.04			0.03	0.030625	0.00671875	0.015	0.025	0.015		0.00875								0.0087845458984375	0.0118309326171875	0.007825180053710938	0.00881332929057017					0.016327355702718097	0.00979643116891384	0.016217088699340822	0.0248681640625	0.0196868896484375									
DD16-17			0.00990625	0.0425			0.0069559151785714285	0.02453125	0.004953125	0.01		0.02125	0.026875	0.015	0.014998268127441403	0.014998268127441403						0.0057265625	0.0071337890625	0.00507122802734375	0.005810829412492518					0.007748912828309196	0.005424239091575146	0.01071630859375	0.0134375	0.006699200961738825									
DD16-18			0.042875	0.19			0.045	0.1071875	0.0214375	0.06796875	0.0749609375	0.1075	0.04259765625	0.1415625	0.2	0.2						0.016680107625076913	0.021252474980845364	0.016706414125990703	0.016778028928032502					0.01846895605579866	0.01846895605579866	0.017765557657731808	0.01708226474308458	0.017676060099015668									
DD16-19										0.0240625	0.028125	0.0375	0.0225	0.02625	0.010203125	0.010203125						0.0063515625	0.00713671875		0.006403435132014393																		
DD16-2			0.03025	0.14375			0.011666666666666669	0.075625	0.015125	0.0371875	0.039375	0.07	0.105	0.02	0.0174921875	0.0174921875						0.025262207031133584	0.015999999902735002	0.024534912109375	0.02464367675781127					0.014200054556131363	0.01136004385445267	0.014129719706252215	0.02289780298868815	0.013595712571404874									
DD16-20			0.05600000000000002	0.28			0.04934895833333333	0.14	0.028000000000000004	0.1546875	0.089375	0.165625	0.14234375		0.056015625	0.056015625						0.028376285916194326	0.028412326812744144	0.02826663726568222	0.028406616468922112					0.02326126924419441	0.02326126924419441	0.0229602461455064	0.04683349609375	0.02552955106444036									
DD16-21			0.006	0.03			0.00875	0.015	0.003	0.01875	0.015	0.0175	0.03046875	0.0384375	0.00775	0.00775						0.004023155329748988	0.004002906799316406	0.004053609847091138	0.004027262693271037					0.01115234375	0.00894140625	0.00823046875	0.005264375473683079	0.005758648940495083									
DD16-22			0.01025	0.0475			0.01034375	0.025625	0.005124999999999999	0.0240625	0.02	0.015	0.02	0.02125	0.024765625	0.024765625						0.005558677673339844	0.005973140716552735	0.013125	0.006142593003064071					0.008906199137369791	0.008906199137369791	0.00890625	0.008789469401041666	0.008907877604166666									
DD16-23							0.028431919642857142			0.15734375	0.06	0.03	0.14875	0.0425	0.03818450164794922	0.03818450164794922						0.013640106855600609	0.006998447231948375	0.01364615781325847	0.013630695374907086					0.027841796875	0.011171400327235459	0.02826171875	0.04142578125	0.02275732421875									
DD16-24			0.038625	0.193125			0.038625	0.0965625	0.0193125	0.02744140625	0.039765625	0.0314453125	0.0242578125	0.02408203125	0.01875916862487793	0.01875916862487793						0.006169801287405022	0.004512512741314822	0.005743484597855925	0.005990692320979126					0.019494572906772	0.019494572906772	0.01949457218688181	0.01949857915239497	0.019497214924558415									
DD16-25			0.006	0.03			0.0075	0.015	0.003	0.015	0.01	0.01	0.015		0.0075	0.0075						0.004	0.004001953125	0.004						0.008498046875	0.008498046875	0.01060546875	0.00998046875	0.010615234375									
DD16-26							0.008571428571428572			0.045	0.03	0.03	0.0525	0.015								0.02025	0.012375		0.01950146872762797																		
DD16-27			0.022	0.095			0.010963541666666668	0.054375	0.011	0.02640625	0.0184375	0.0325	0.0325	0.03	0.012595468521118165	0.012595468521118165						0.005947471916675567	0.005857760310173035	0.006282266119495034	0.0060487316894712794					0.0071016479587406155	0.0071016479587406155	0.007099547744908875	0.006965365057024428	0.00716065230251533									
DD16-28			0.009000000000000001	0.02			0.010625	0.0225	0.0045			0.005	0.015		0.0088828125	0.0088828125						0.0056953125	0.0071249999999999985	0.00533203125	0.014638824462890625					0.009462890625	0.006315104166666666	0.011337890625	0.010625	0.0101171875									
DD16-29			0.006	0.03			0.004285714285714286	0.015	0.003						0.012	0.012						0.005625	0.003	0.0033333333333333327	0.006692708309329368					0.01	0.01	0.01	0.01	0.01									
DD16-3							0.005																		0.0121875							0.005	0.005833333333333335	0.005833333333333335									
DD16-30							0.009375			0.0175		0.01	0.015		0.005	0.004						0.004966796875	0.004	0.003875	0.0165625					0.01	0.01												
DD16-31			0.016	0.08			0.017	0.04	0.008			0.02	0.02			0.004						0.00728125	0.00584375	0.0076875	0.024365234375					0.02479166666666667	0.02479166666666667	0.0178125	0.02479166666666667	0.016796875									
DD16-32							0.007131696428571428				0.015		0.015	0.01								0.008	0.008125		0.026833496093750003					0.01529296875	0.0122578125	0.01529296875	0.0149609375	0.0151025390625									
DD16-33							0.004285714285714286			0.015	0.0225		0.01		0.016496582031250002	0.016496582031250002						0.0080625	0.00628125	0.006	0.010313100814755671						0.01												
DD16-34			0.012	0.04			0.005714285714285714	0.03	0.006	0.02	0.02	0.02	0.03		0.012	0.012						0.006	0.004		0.065																		
DD16-35			0.008	0.04			0.00921875	0.02	0.004	0.035	0.03	0.03	0.03	0.02								0.006750000000000001	0.007249999999999999	0.007222222222222224	0.0352734375					0.024583333333333332	0.024583333333333332	0.02333333333333333	0.02333333333333333	0.02333333333333333									
DD16-36			0.006	0.03			0.02375	0.015	0.003	0.0125	0.0125	0.0125	0.01		0.007875	0.007875						0.0099765625	0.003	0.004285714285714286	0.011660155405600866					0.022500000000000003	0.022500000000000003	0.022500000000000003	0.022500000000000003	0.022500000000000003									
DD16-37																						0.006	0.006		0.108125					0.02	0.02												
DD16-38			0.008	0.04				0.02	0.004				0.02		0.015	0.012						0.006	0.006	0.0066666666666666645	0.06					0.02	0.02	0.02	0.02	0.02									
DD16-39			0.021625	0.08			0.0075	0.0475	0.0108125						0.01699853515625	0.01699853515625						0.0095	0.006500000000000001		0.036639404296875004					0.02770833333333333	0.02770833333333333	0.02119140625	0.021220703125	0.01699853515625									
DD16-4			0.054000000000000006	0.27			0.0195	0.135	0.027000000000000003	0.1275	0.12	0.06	0.0596875	0.015	0.0675	0.054000000000000006						0.02836041259765625	0.017989759445190427	0.02789697265625	0.031502966005391236					0.04126665932791573	0.028886662337696174	0.03618634956423193	0.057840087890625	0.036022140639834103									
DD16-40							0.0271875			0.015			0.015		0.022484375	0.022484375						0.0045	0.00425	0.008906250000000001	0.02592269706726074					0.05	0.05	0.05	0.05	0.05									
DD16-41			0.014000000000000002				0.016	0.035	0.007000000000000001	0.02375	0.02				0.0075	0.006						0.0115	0.0115	0.0153125	0.041724853515625					0.0375	0.0375	0.0375	0.03916666666666666	0.03833333333333334									
DD16-42			0.007000000000000001	0.02			0.0033333333333333327	0.0175	0.0035000000000000005																0.02					0.0125	0.0125	0.0125	0.01	0.011666666666666669									
DD16-43							0.015					0.08	0.065									0.01325	0.01	0.02	0.06837890625					0.04	0.04	0.04	0.04	0.04									
DD16-44			0.00925	0.035			0.003125	0.023125	0.004625	0.015	0.015	0.01	0.015		0.008	0.008							0.0032500000000000003	0.0045	0.0175					0.013333333333333334	0.013333333333333334	0.017916666666666668	0.013333333333333334	0.01833333333333333									
DD16-45							0.015			0.0175		0.01	0.02	0.015	0.007875	0.007875						0.002	0.00375	0.002	0.013333333333333334						0.006666666666666667												
DD16-46			0.009000000000000001	0.045			0.008958333333333334	0.0225	0.0045						0.013000000000000001	0.013000000000000001						0.007249999999999999	0.0071249999999999985	0.005555555555555557	0.04375					0.015	0.015	0.01875	0.017499999999999998	0.017499999999999998									
DD16-47			0.003875	0.015			0.003333338871598244	0.0096875	0.0019375	0.009921875	0.00875	0.0096875	0.0446875	0.0096875	0.011000365257263185	0.011000365257263185						0.002875000014893885	0.00199999999627471	0.001999999998137355	0.002054687500029102					0.0020000267028808024	0.0020000267028808024	0.0020000267028808024	0.002000213623046761	0.002000000208616228									
DD16-48			0.006	0.03				0.015	0.003			0.0225	0.015									0.004	0.0045	0.005714285714285714	0.0525					0.01	0.01	0.01	0.01	0.01									
DD16-49			0.006	0.03			0.012	0.015	0.003	0.015	0.015			0.015	0.0075	0.006						0.0075	0.00825	0.008571428571428572	0.043125					0.025	0.025	0.025	0.025	0.025									
DD16-5			0.014000000000000002	0.06			0.0125	0.035	0.007000000000000001	0.035			0.02		0.06	0.06						0.0075	0.0075	0.01	0.075					0.02333333333333333	0.02333333333333333	0.02333333333333333	0.02333333333333333	0.02333333333333333									
DD16-50			0.014000000000000002	0.07			0.0175	0.035	0.007000000000000001	0.03	0.03	0.0325	0.025	0.011875	0.016	0.016						0.00575	0.00640625	0.006125	0.007375517338477949					0.02583333333333333	0.02583333333333333	0.025	0.025	0.025									
DD16-51			0.013000000000000001	0.065			0.013000000000000001	0.0325	0.006500000000000001	0.015	0.015	0.0325	0.03		0.01625	0.013000000000000001						0.0045	0.00525	0.003	0.0298828125					0.016666666666666666	0.016666666666666666	0.016666666666666666	0.016666666666666666	0.016666666666666666									
DD16-52			0.0145	0.04			0.012	0.03	0.007249999999999999	0.05	0.03		0.015	0.03	0.014000000000000002	0.014000000000000002						0.0078203125	0.006700439453125	0.0033333333333333327	0.008412521370453733					0.016669921875	0.0133359375	0.016669921875	0.017109375	0.020833333333333332									
DD16-53			0.027000000000000003	0.1275			0.022291666666666668	0.0675	0.013500000000000002	0.045	0.055	0.0475	0.0653125		0.025734375	0.025734375						0.01234375	0.013718749999999998	0.013333333333333329	0.06171875					0.033671875	0.033671875	0.033671875	0.044583333333333336	0.033671875									
DD16-6			0.0226875	0.05			0.015833333333333338	0.0559375	0.01134375														0.01175		0.009966706275939942					0.0255078125	0.017055257161458334	0.0259765625	0.0266796875	0.0259765625									
DD16-7			0.006	0.02			0.005	0.015	0.003	0.0621875	0.055	0.015	0.02	0.04875								0.00664306640625	0.012525207519531251	0.004285714285714286						0.011666666666666669	0.011666666666666669	0.01	0.01	0.011666666666666669									
DD16-8			0.013000000000000001	0.06			0.0175	0.0325	0.006500000000000001	0.03	0.01875	0.02	0.0225	0.019375	0.01399609375	0.01399609375						0.006062503814697266	0.005015656441450119	0.008809570312499999	0.00603125024441087					0.011666653951009116	0.01	0.011666653951009116	0.011666641235351565	0.011666653951009116									
DD16-9			0.01978125	0.095			0.01565234375	0.049453125	0.009890625	0.027158203125	0.052421875	0.050625	0.0196875	0.0225	0.013833956718444822	0.013833956718444822						0.009873392880093888	0.005186890981742181	0.009840284824371338	0.009906261611732926					0.010153751123967806	0.010153751123967806	0.01015805285752157	0.009768869126955244	0.009973209384272095									
