topic	BASE_INDRI_50	DDTJU_EXPLORE	FifthIterBaseline	FirstIterBaseline	GU_RUN3_SIMI	GU_RUN4_SIMI	LDA_Indri73	SecondIterationBaseline	TenthIterBaseline	UL_BM25	UL_Kmeans	UL_LDA_200	UL_LDA_NE	UL_LDA_Psum	UPD_IA_BiQBDiJ	UPD_IA_BiQBFi	baseline	lm	lmrf	multir	okapi	rmit_lm_nqe	rmit_lm_psg.max	rmit_lm_rocchio.Rp.NRd.10	rmit_oracle.lm.1000	simti	simtir	simtir20	tfidf	ufmgHM2	ufmgHM3	ufmgHS2	ufmgXM2	ufmgXS2	ul_combi_roc.2	ul_lda_roc.10	ul_lda_roc.2	ul_lda_roc.3	uogTrEpsilonG	uogTrIL	uogTrRR	uogTrSI	uogTrxQuADRR
DD15-1	1.5781804997573048	-1.2492584297800318			7.572688221654757	8.50395390877404											19.024225740771975			15.335508001342573						21.236840266205114	21.62196526620512	21.96571526620512								2.4111875		0.1771007407719727					
DD15-10		0.9718064391513579			19.281723689149764	18.513161189149766											22.308161189149764	12.408027926464035	24.22895737667855	18.340223689149767	5.557154168474739					14.862786189149766	16.387598689149765	18.280661189149765	24.312439701837093						3.5477557034034235	17.716354144076046	4.665425041603523	9.424699113992824	29.76672368914977	28.529286189149765	29.76672368914977	29.76672368914977	29.76672368914977
DD15-100		5.889583002030477			0.7450510100414611	1.6595577098951182											11.442270502030478	15.1862893200437	22.308958386588426	-14.121208747461901						7.202791501015239	9.863622808725259	5.983229001015239	6.210921365778628						3.3669676646658284	10.33179150101524	2.4739051646658288	9.202802857971042		4.5866875			-4.589833498984762
DD15-101		2.6849826896539124			19.115240213397048	10.44884985830466											22.092776146442667	37.98194762677666	40.45641834712544	-1.4082835714753763	5.7862336234036125					1.8621602142643177	1.8621602142643177	0.1357230023488416	3.747761627307404						1.298609063136671	10.72966650101524	8.606021241358619	7.042836173740313	3.5378125	7.93125	19.5369489286813	19.836636428681306	1.91564575050762
DD15-102		-6.689044863463852			-16.134465720202122	-18.849670109523963											-0.8895564446053132			-22.66615853995377						-14.309233960890607	-14.309233960890607	-10.35119159052303							0.22374131385666216	-0.8331330864093425	-1.1753940613971474	-1.5908992592280276					
DD15-103		4.2718859973793935			52.19615199491296	25.744524222035192											23.774497835456827	1.669772748792142	55.823406800887184	11.184355570388195						34.4959357582851	34.4959357582851	9.080682791318665								-2.3038553305074294						5.856304070219967	-0.7649941048653969
DD15-104		9.468278242350898			20.455695624990145	29.823034718770995											28.007472885778128	-0.9680069830445741	29.368746445286554	4.93515039865399	9.188890438642144					20.66934366356595	20.66934366356595	7.913717383924798	-0.18714948462103886														-3.759401062373095
DD15-105		1.6799904576731226			19.512680833988945	-3.4346512422903857											16.77432580800593			-5.495518932857125						15.434235350069635	17.53580444450025	15.434235350069635							10.58375	19.884457952568464	18.203185329331657	23.25876551724605				-1.2093674823543583	-0.4248049823543585
DD15-106		-3.585791614316582			-14.948726348134143	-13.221413848134143											-19.38551388397422	1.3231093128807143	2.3933588271813147	-8.262951383974219	0.2473803158085578					-14.573263883974215	-14.573263883974215	-14.573263883974215	1.7293593128807143						2.741125	-0.9734466794709123	-1.4077741412503495	-1.5177030691416076	-0.5272446841914422	-0.5398784915222871	2.7581875	1.4196093128807146	-23.68235992024289
DD15-107		-0.8639512455885896															-1.1681713220297159	1.1598540010152387	-2.3319396912747394	-1.1102338220297159						0.16370367797028407	-4.9208125	-0.12892132202971607	5.8625625						3.12275	-0.3063542494923808	-2.5582338220297163	-3.6542823456373696					
DD15-108		-3.4450282007458597			34.74427782588409	36.88319540257218											33.37980395146236	1.7509144124969884	-2.9868563161361745	4.190135504716508	3.4696875					-9.5030599981114	-9.5030599981114	1.0318855047165094	4.667203677970284						0.9245405551759892	2.935375	0.275078677970284	-1.8796042494923808		10.2813125	5.609539100811199	0.8934623491164169	15.075856392581036
DD15-109		12.057316336049075			141.63732173688555	90.37449348582443											76.95214589050458	21.674685901797762	63.56617381298653	56.52935448777581	32.96017810644819					13.532631778315187	13.532631778315187	56.76761733279411	6.672960514026147						1.5019886867931047	3.216479001015238		-0.040127191274739404	2.9033518608595976	-0.0038588220297159923	2.9033518608595976	5.594875010303198	3.7918841553778684
DD15-11		11.946458237909775			41.09911886960679	38.717092315114655											45.530375491090155	29.07195306196987	18.93310702100835	41.60843798593855	30.229025440271712					45.503369683222104	46.2063071832221	44.92311052931071	32.0761122838054						23.938342273426585	44.360997946834075	24.109195782791318	43.46762349500654	30.084685611572045	26.05183300203048	30.084685611572045	30.084685611572045	30.084685611572045
DD15-110					10.31285881592643	10.075358815926432											17.27660881592643	7.152968576299418	-3.26888965772298	4.606796315926432						16.31067131592643	6.300586640557809	16.31067131592643								-0.14338965772298007							
DD15-111		-6.2902049576114365			-16.847829957611435	-15.480142457611434											-2.620856610148578	-0.04114245761143565	-6.423098420957213	-3.561400289340096	2.7801075423885644					0.91120588985142	3.059893389851421	3.059893389851421	6.837796564403575										-9.619410920957213				
DD15-112		-1.0571373713890937			11.432157447008779	29.56297152981773											33.06464182956449	35.93438509705103	63.54696255845431	21.67610134203085						0.5896643389851421	14.043073509165616	-1.8410231610148573							5.380377201837084	-1.0702393683828844	0.485180516955426	0.006618016955425965					18.14842375441141
DD15-113		-18.349125			-22.653695572896318	-27.42757178908716											-4.261959574848212	-1.3514531871192854	-6.741817693887797	-9.69571065586326						-2.0537499864869737	-3.3191249864869725	-4.15660532535583	-1.0047498820223222						-0.32396235896202263	-0.271273161014858	-0.007023161014858004	-2.03692712474619	-6.750835661014857	-1.4462731610148585	-5.293788122794295	-0.9033992592280272	-4.966375
DD15-114					-6.4528125	-6.891437500000002											-10.6216875	-0.6470764660891479	3.717062499999999	-7.037937500000003						-7.393687499999999	-7.387812499999999	-7.387812499999999											-1.6040764660891478			-0.9751389660891484	
DD15-115					-10.811291398018431	-20.54292876374764											-1.4048585872828774	6.631671195129107	13.231005306151216	-5.070902487234097	5.564942716444988					0.9173501717491248	0.9173501717491248	1.753585686832395	10.924434940717695													-0.7767065613971474	
DD15-116					-15.735223420957212	-13.42530117107916											-18.940677124746188			-18.357364624746197						-19.279927124746187	-19.279927124746187	-19.279927124746187								-2.4224779320467125	-2.942665432046712	-7.0471516525371465		0.9133800633883338	-9.715465243597404		
DD15-117					-7.6003281871192865	-8.028328187119286											-3.864956095372445			-8.723539345880067	2.9700675633883336					-15.759789345880066	-15.759789345880066	-15.759789345880066	6.2816875						3.026991317799744	-0.8178702819836681	-3.3501553746040424	3.4188638957212483		0.14937500000000006	-12.983570929780033		
DD15-118					33.763192307224635	40.909938618819574											34.894454659672284	1.3314873290068001	13.28842567305758	26.55801715967228	15.095138081404405					34.57907434780681	34.57907434780681	35.341204659672286	14.978174827556627						0.1835731316171156	1.2289873290068	35.96176508490872	-0.22782852092002906	2.675881605511252	11.214642110210269	34.96164626323423	37.79298603391085	-2.114763966089148
DD15-12					400.7557577170726	290.77915674569266											329.51772604550837			416.0301964964468						553.3072640044545	572.9799810027846	364.54664537660386							11.207208101732556	10.308145601732557		35.3466875	20.989499254568575			2.9723137897026937	
DD15-13					-19.379913848134144	-15.811255311865475											4.941052619540272			-3.859809594698681						5.237218136376937	4.52944438004643	3.687068797510556											1.042453677970284	-2.2307500000000005	-3.2529213220297164	1.88239575050762	
DD15-14					19.05645055516096	13.51261344346756											13.573284534874293	-0.0690762455885896	-0.2675762455885896	18.929528235896075	0.886954868601582					-3.5953092591734475	13.323476509384305	24.44924169701435							2.95175	8.242826030757923	11.991599571539865	13.264404843902845		-32.345687500000004		0.1853832043870204	
DD15-15					227.26022139473181	226.92584639473182											134.8649065159005	114.16294545087835	119.41113982080542	158.69223953906157	104.40514020200712					151.75094416782758	154.04081916782758	214.3133020390616	82.26898456543503						5.578948906806847	3.55571977241965	22.57125	112.40643539312315	114.16819545087836	42.81885691382656	114.16819545087836	114.16819545087836	94.09363487829953
DD15-16					28.76551966949257	29.05351966949257											38.0231875	40.538	40.538	35.4920625	3.4187809827169566					35.75195716949257	35.75195716949257	39.19603643762691	3.4187809827169566						6.7479184572169615	23.7862439427031	12.930993949195411	40.538	40.538	39.99575	40.538	40.538	23.7862439427031
DD15-17					82.16233852782011	92.89345670706363											38.49697179099297	2.5111941055112514	21.093296067449288	51.25473395288394	37.758					55.88869294882299	47.038082847152126	42.98210895288395	21.15210856744929						37.758	36.6301875	9.528267110210267	17.86879606744929	41.05548753104118	22.248358567449287	41.05548753104118	41.05548753104118	27.644942948822994
DD15-18					-4.801667483668922	-6.107104983668924											1.0029342156636902			0.3246674303312353						1.872253703859864	1.5196287038598637	1.6666287038598635											2.0589573766785483		-8.08229262332145	1.003377201837084	
DD15-19	-0.6413281871192853	-0.6413281871192853			0.4082992467289124	-1.7166504488680836											21.652684162576126	6.639802364644628	12.544727594085607	16.85752380596427	6.247564560241626					19.952549502357808	16.536177993880095	12.147638430710465	6.247564560241626						11.88637526103964	11.17402343677604	9.856229508055444	15.767041268727302	8.358604389344512	4.4220625	8.358604389344512	8.358604389344512	5.700359452732849
DD15-2					3.28589835470299	-1.5145857232147648											7.5116131929902625	0.9419780551759892	4.922671818032313	16.903537459393874	1.2919999999999998					9.05100893046012	5.789795853786428	8.24250074794756	-0.4603021247461903						0.8157442024351248	0.7061460068709253	4.0417222524595156	2.7214073419522764	1.0	-0.23679283050742905	1.0	1.0	1.0
DD15-20					9.670272221101172	11.664555636182337											24.88830713276999			21.500485210725607						18.875778025778246	25.434267616127052	13.930907023606329											6.214510126776668			5.577971313238369	
DD15-21					72.21553062880714	71.73709312880716											82.51721812880714	33.47055976359683	66.80176419625643	78.58015562880715	66.82201419625643					79.59390562880715	79.78753062880715	80.93690562880715	41.921879854342016														
DD15-22					191.631782883442	186.7874665962616											87.51827895740486			68.84899832345069						47.443984312880715	66.17179332135842	53.24605997052365											5.4119206484917	31.294875	5.4119206484917	5.4119206484917	7.507399093254842
DD15-23					106.96766871502544	119.60880631078098											51.0902020952109			54.41412525652525						72.29088750664963	73.41880015731711	94.71099533223816							10.297369597382504	50.35271550976982	47.73214177106736	72.42600071150447	5.021020411279617	2.7922811257614293	5.021020411279617	-1.0249893683828843	2.6403702187925098
DD15-24					54.477823666672315	52.71489562438215											15.178831277072431	12.795434251724885	10.603075427054149	56.76986456821154						62.46167437431725	63.254554454903705	61.56250764202297											2.3283263741286118	7.6350625	1.8944513741286118	8.796679678314234	4.7525649139155135
DD15-25					-6.701619684191443	-10.31899468419144											-8.607005682797029			-1.5334553783940257						-5.149142878394025	2.0358728087252604	0.819794621605975								2.182282355940568		7.30775	-0.021750000000000824			0.5981600088228208	
DD15-27					115.8260929248362	117.46559111453821											82.57701328773778	25.974987898390822	37.046625183862325	79.13758277078236	105.0299886430582					84.45925882882567	100.56006191308417	105.8432311680678	47.236227116819535						62.124398826078824	106.7915038232353	119.28594989161392	121.73328885916749	107.02020051775331	54.95641712272048	107.02020051775331	106.63568145635618	106.62293145635618
DD15-28					308.04506731108705	221.01749168550202											152.55292194365856	19.59959601082133	137.52495470261977	290.36185091167647	92.64101432352956					279.8081262401811	279.38340581521777	230.67133950974224	42.90605294978678						9.070691130642148	118.55010255566542	113.11653061834721	207.02190146005887	21.106302289681448	2.103925036192778	21.106302289681448	21.106302289681448	21.106302289681448
DD15-29					362.13971878342863	407.8873540341085											392.1868948162685	68.315	102.73248474109215	355.7566663341671	138.69836403173036					175.97159003064064	136.1160876744958	235.1619126405912	62.45893039972154						30.790202858776002	25.75180350233573	83.9157103136137	30.062186701701588	128.03105010363072	102.26324850913716	128.03105010363072	132.7435451653905	125.93002132275086
DD15-3					256.5730647649614	236.74863432976647											39.36715227242764			31.431791913436214	21.544348192195482					69.01937802584091	62.066962342711925	46.72404994454173	3.1049197283055463										5.091823856955807			10.08470150983806	7.905218952117088
DD15-30					-6.8646875000000005	-6.250624999999999											1.82775	0.9207639815439456	0.4335731316171156	4.608359312880714	0.9207639815439456					4.762921812880714	2.4140468128807147	3.9359218128807134	1.614430516955426						0.2950731316171156	3.423661441569987	4.401368016955424	2.49937329442466	5.3985	4.84275	5.3985	5.3985	5.2674375
DD15-31					0.5741821881345235	-1.2416303118654763											7.318369688134522	4.384114722315919	-5.059609052574327	9.481119688134523	5.654363786104999					6.124369688134522	5.744869688134524	6.393932188134524	4.944302222315918						3.0571719104504425	3.7292951316564062	2.5550115933864266	4.027796713567663	8.338709567953288	7.57925	8.338709567953288	8.863285847462855	4.749287506595431
DD15-32					-7.012722129805501	-10.517589617570607											1.7411118632400866			-1.6836677117964989	0.1911928158085578					-1.3819756220610424	-4.13769979491005	0.3529137355660525	1.7955850536526872						1.206880315808558	1.6313021286892726	3.8701093128807145	1.2307847492496855	3.164121508477713	-3.2356875	-3.378503491522287	1.5046093128807143	-7.338253491522287
DD15-33																	128.655256640785	1.416985006958094	68.51737009853535	129.65585278642828	28.72219192376227					197.2191965807993	237.18909595305172	272.19766325131604	38.318970925142715						30.11554440087048	57.11431277201655	10.859557005681117	59.143643898140866					10.611978752538098
DD15-34					118.96554625366569	96.38334213624347											24.02651403337863			44.40821105693582						45.70342025771869	56.96486886152103	53.74232892593566							5.298360670132213	13.854132983411196	8.765945254075104	28.92844462582972	2.500744688134525			-0.3585328069857371	
DD15-35					373.96406759464736	395.5878736809002											198.36489439189472	38.257439859402155	257.9829058556058	180.01274307169305	40.42241522977624					230.85552714207864	230.53515891619392	192.76206186874595	37.36463570164232						158.30315511534363	116.73031465924788	118.5664847375	191.6213731232964	18.569238680689818	0.5677353422770202	18.569238680689818	37.062558392003204	27.36976287960248
DD15-36					72.08831459273429	62.079089771450406											67.04212022376636	0.3391737544114104	21.587660242559593	53.44738809795818						53.62696911050915	52.760892644420004	56.08452683324357							7.955148182889314	2.68231950491903	5.272828677970284	1.6120024323816944	4.686291501015238	4.615666501015238	4.686291501015238	4.686291501015238	4.686291501015238
DD15-37					138.7389375	138.3708125											148.4966875	150.6053125	87.07997601928953	148.6690625	149.9295					149.3369375	149.2593125	148.84625	12.745665167633595						23.952895865779947	11.091477667633596	25.087833365779954	87.01310101928955	149.6076875	86.83922601928955	149.6076875	149.6076875	149.9285
DD15-38					-6.8986475551380195	-4.1717813464792615											-1.9642858371596568			2.0705186995602767						8.636075127958714	9.862075127958713	8.636075127958714															
DD15-39					-0.2659622183766359	0.031912781623365305											12.404639620608508	4.303290060639897	7.6531251278056125	9.476622127134325	3.882292961998135					12.797825296322234	11.521127421068428	12.455438118656616	4.3319995233952815						9.554498911614766	7.1907408539748	5.168795394379828	9.195093897579532	-2.6701250000000005	1.101875	3.0183293996250384	3.623454399625039	3.095004582840533
DD15-4					1.5194374999999989	0.6879143389851414											13.737789338985145	2.7339250310411787	1.0613968813737067	13.5685625	2.7339250310411787					13.8029375	14.6205	14.1213125	16.2965						2.7339250310411787	15.9085	9.606619439657383	5.185146881373707	16.2965	15.8920625	16.2965	16.2965	9.606619439657383
DD15-40					53.67473860571452	49.516579120318426											82.00532780374273	122.7799305607195	106.54559056449793	64.00956126184055	143.68742178436568					92.562900549584	93.04758804958401	90.07170499757092	95.70183538935122						61.699363221380004	77.82153146251213	121.78016164630994	114.52735690483908	125.35736289189852	113.0403064427031	125.35736289189852	125.35736289189852	125.35736289189852
DD15-41					19.257116392543328	16.107806308202168											39.55909819219548	18.193673754411414	18.518467654362627	31.723970109608864						31.50938374287047	31.444046865664763	31.307545788651186														-0.2263262455885896	
DD15-42					-6.393840933074504	-3.4194034330745047											11.003671365778628	0.772371508477713	0.8206772223159181	33.03206630566351	1.3928593128807143					16.897973873425677	19.29162542149817	29.02079793590136	2.271						0.38565469301426303	0.9157014815439454	3.1937186257614285	3.1937186257614285	0.772371508477713	-4.278744684191444	0.772371508477713	0.772371508477713	0.772371508477713
DD15-43					46.30711717441302	44.120137330813506											50.04813450902622			45.46443971188114						41.00288277909985	51.1972178767771	41.06321712956395								10.874429771915343	38.985833002030475	25.0050472542697	9.678172254269704	28.9010625	9.678172254269704	9.678172254269704	20.282312683884577
DD15-44					-7.9137031871192836	-7.661953187119286											1.336921812880714	4.443163240771972	1.0854481316171154	1.4891093128807142	1.7723889815439455					-0.2149531871192858	-0.1557031871192862	0.5971093128807139	1.0419982944246602						-1.0192965525743267	-0.6260432026474969	2.4945936257614285	0.8243818665334017	5.144796812880714	4.550621508477713	5.144796812880714	5.144796812880714	4.4992186257614275
DD15-45					269.0753856129229	375.30896005103017											230.43018555982425	117.47987392409756	373.47205926230725	308.50801327669535	123.0191088862957					229.06917331306812	303.008655916998	287.7656984835465	84.40757533678044						20.178011420045188	217.92593676720767	201.52310146352139	288.96678684185366	120.05378885860485	60.459621451346024	120.05378885860485	120.05378885860485	120.05378885860485
DD15-46					26.61411841931253	26.24203976690179											25.70416142288653	10.377852201278447	4.229380713965767	24.66186387951436	8.914379581097213					21.85816363603572	22.228981933600593	24.467876451194506	16.108041892553185						4.067041501015239	-1.969229947805017	1.6345265635272916	1.3308761920978007	7.034174406255746	-0.1398771912747394	7.034174406255746	5.421001079530871	7.034174406255746
DD15-47					271.15699496060694	273.6683278450002											164.62250919554987			177.69052937792833						80.1731226063854	163.848393356893	195.4851661428297								41.52781947416121	36.23463733245409	53.29429252936728	-0.33120124558858965	-10.03925	-14.53126374558859	-0.4448262455885896	-9.649407345637373
DD15-48					-3.260199160995932	-3.2873866609959315											7.850375847992702	4.273791501015239	2.3394073559405686	7.879188347992702	2.3394073559405686					7.826188347992702	16.514801418070974	7.578688347992703	4.273791501015239						7.175	2.3394073559405686	7.175	2.3394073559405686	7.175	3.6189165010152387	7.175	7.175	4.273791501015239
DD15-49					-40.52183162484746	-50.324213760999186											27.932341601624035			3.890850907650165						2.3744461900864167	3.790274377205705	0.6762144373930212							2.09500919492571	-9.09328234563737							
DD15-5					167.3609858029104	167.05280221804858											71.12772038861488	51.012439776236455	48.05500977202336	55.6749375028189	25.44614601475709					153.81579376369984	194.9243404330524	102.2529375487409	19.179895361825462						1.5202300264684625	8.108460524070198	8.57907780754949	22.966402714610748	-6.056451466089148	-13.369062748477145	-102.82713896608914	8.518437500000001	21.400871197327703
DD15-50					-45.714342322780645	-42.50140656422777											-183.72203353664486	14.811436506091432	80.32420236868606	-132.93673039992228						8.724666844004048	8.639755923046835	-135.04936551803982															-9.788524259228026
DD15-51					26.75909494731488	27.385157447314874											69.44445484283706	34.084646662657185	32.51369094261928	219.12171801008068	6.877673948282808					110.90350127536476	109.4608607998498	139.2119484130605	27.966759194925707						2.52807169492571	120.2470896096266	139.4412073736447	282.70005036106977	-10.06145124558859	-2.3427637455885897	-5.878638745588591	-8.275166749492383	-5.737296322029716
DD15-52					-17.31487148145166	-27.190079749157402											-10.351246849648646	0.1169295315683354	-0.2886018171106865	-63.93409071505052	6.93835825889172					-9.54949298992937	-23.080409739421743	-9.338034017767	0.8726920776889344						4.760644465974014	7.895240837251945	7.869365837251942	10.848103051490895	10.652380793879782	5.822791991866237	10.652380793879782	10.652380793879782	3.9190579186259726
DD15-53					110.06051646155198	146.03220301146166											174.53045651760436	1.1485207505076194	-0.3207500000000003	197.03650541903502	0.9128332505076192					167.83232977660802	186.65181443937996	170.79758887356223	-0.5258448456373697						-0.08928690660344762	-0.1500369066034477	-0.4712244066034477	1.8384582505076192	21.831897385896816	5.59984386028526	21.831897385896816	19.68477238589681	63.2208125
DD15-54					2.320412028247389	11.438615160777251											-36.03573119129873			1.8338424139712608						18.290658047614905	18.290658047614905	-5.54398129848162											-5.5018667956129805			-4.683917830507427	-8.679225622794295
DD15-55					-1.4274519252389126	-3.575826925238913											70.2300827839863	5.813753040477117	4.530586881148787	22.948752048476138						8.500616114821554	11.39821023753726	8.082198693785752	5.249352824631378						5.728977957804707	9.874645803766937	4.119227145941763	7.325934910584383					
DD15-56																	-59.38311917320815			-46.97065621718832						-12.037716931241365	-76.93999009225624	-40.94734022566603							8.156784483574423	-22.424336759228023							
DD15-57					-218.89140201800075	-216.4106387797864											-73.66825	-8.274826466089149	-9.303701466089148								-228.91521180864703																
DD15-58					-7.4668125	-7.4668125											-1.6278634169167674	-0.6925161728186848	-6.0486411728186855	-11.424968769992347	3.491410847462855					-43.82536631312341	-31.784453187119283	-34.95822516875773	18.562733229705465						-0.17428280698573706								
DD15-59					25.409196279251514	28.228833865461464											-3.0171584826918227			-13.63013898328727						6.433712124731161	5.433130051599799	3.5090866390317608							4.973149377205705	3.2362808964253365	3.0171475843638365	7.311219347891448	-2.005581678641572	-18.50470644341947	-13.42748599410502	-23.223527147806486	-7.177988416916771
DD15-6					3.6755207505076193	4.0051457505076185											1.6965848039086435			0.6906610494972332	0.6467176543626303					4.871161049497234	6.4550288644182805	4.871161049497234							1.2383286779702842	1.2383286779702842	0.6467176543626303	1.2383286779702842	0.3219237544114104	2.5714375	0.3219237544114104	1.2383286779702842	2.2741457505076195
DD15-60					38.25672574077197	35.31128824077197											-26.575202157722984			-21.23021141536574						-76.82201465772299	-76.80903083305225	-81.08845215772298								10.176041252538099			118.69620196724337	18.913603341822068	118.69620196724337	105.95476049390147	118.31507696724334
DD15-61					182.82284038988664	132.93814350516598											223.5425434113908	57.45050585886034	81.96286778046333	204.6745210535701	-0.07701374558858959					134.3643208638739	213.9517375101101	202.51745471205783	43.77371369556197						1.3260483036253874	84.37757145843361	97.51729354226437	96.58258472315916	2.363704737128367	3.776204737128367	83.61775685004855	83.05509710595045	77.42940165152574
DD15-62																	-144.89190514405942			-43.510754810711276						-171.79486821558154	-188.74853196440262	-166.1760817779546															
DD15-63																	-17.017270988681563			-9.24286798477777						-15.703400571522096	-11.61640974457335	-13.485199095129753	0.2082987544114104						0.26452075050761925				-20.426844845637373	-3.6116387455885897	-24.050046322029715	-8.3565	-0.9257198456373701
DD15-64					77.1366037525381	69.8417287525381											66.56465748743913			67.90678248743913						71.16635375253809	128.52170814509128	103.98867798946958											2.243202535291283	2.263827535291284	72.91985925977531	2.2525775352912842	82.28957565430824
DD15-65					135.3911952507448	134.5088827507448												82.25205547550422	158.73525910361846		22.13628248045012								27.355436191390844						49.92695466912236	147.91876494720213	99.97150751922186	178.18520030312303				98.91488711498816	82.63415321513078
DD15-66					-35.258	-36.1256875											-33.358447974566865	1.5330679728588112	7.093708348077347	-31.649319270707						-37.88488547456686	-38.259322974566864	-43.443416848805434	-3.5648750000000007														-2.7128590525743266
DD15-67					110.06268643278321	137.28869468804436											28.538905753989052	80.13227410440172	75.102777175011	74.19082161957547	-0.06224468419144219					78.76032028713144	76.56741092795434	85.61322584608979	53.295279182401174						38.73303310672295	109.88502894550315	17.225379292174345	66.57242226364772	18.815713391689393	2.3569144124969883	18.815713391689393	28.65015758836607	48.12695708591534
DD15-68					-23.467992791408356	-23.446313721188368											33.3976886380069	6.593702398329133	45.59710692302058	18.71412411999043	3.1217515125851243					39.618769127734936	42.63987423177974	13.328476489891546							5.086889898329133					-2.368091141777506	21.345676627791907	-1.3433667956129798	-7.048052780517273
DD15-69					-127.69336697658336	31.111543506625576											-76.31960034919214	5.109032586744325	25.059357032380003	12.649069936013849	6.22653715928166					-19.41728223629793	-4.471781259747537	27.32906445409319	3.982553337251944							-2.744663122794295						1.468125	26.05787426923174
DD15-7					4.644388518985902	6.859107384387784											34.17286932929021	14.353139312367313	35.632778299062856	35.076647076830696	22.77790326815327					37.36092241754904	38.86092241754904	38.19262101445759	21.098725172008272						21.098725172008272	20.407810606420444	8.058051889507572	40.24508541673879	29.146161680000766	23.018877211881136	29.146161680000766	29.146161680000766	29.146161680000766
DD15-70					-254.92741006044392	-240.44184756044388											-57.42543567571373			10.733853335655382						63.244457430986174	65.09306674386688	74.07908758653463	-1.740307184191442						-1.9024321841914424	17.15716832135843						-0.4500781871192856	-1.7234734209572111
DD15-71					112.98612542509984	188.21366138362168											103.14516705256192	-44.299653733404	77.72935609400567	34.182488277568154	24.517515502265358					-45.70408155257929	-41.864932274686616	-33.222844929472586	11.508763316142216													9.245927234145164	18.092544213069328
DD15-72					-3.054821952041096	-1.640321952041095											3.49438128746419	10.582205641374276	25.57120625215375	-2.6896949581244023						3.598932430508384	-5.817484318984	-11.034785462028196	6.529324305724003						40.64791174435608	16.37911127795082	34.21970143850945	19.76530292232636	0.6113062720570519	0.733368772057052	13.901589786448948	14.089902286448948	17.6505
DD15-73					-3.869042850400561	-1.6738584722582033											-5.993425958207936	6.666	6.612327310846482	58.21737679452987	16.813645113900805					40.7015962535978	50.62679771968693	-20.98946399448893	16.926707613900806						9.739276792647267	23.56995357007969	14.426234254841154	28.07046146597424	11.452138177298995	1.1584487109431607	11.452138177298995	10.364309137017736	17.820859097056488
DD15-74					-11.500715680655437	-7.380715680655438											-27.401312500000003	11.4955	9.008638996998744	-35.72175						33.21699575606744	29.08039150657506	25.869183256067448														0.6723477602329737	
DD15-75					12.569640263673374	4.807034903129676											-22.50468750000001	20.881390949625434	18.88693776250615	0.08165287166100654						-14.395210651663339	-36.356296070304346	-9.786467634707913							10.908437659250016	24.476104510255198	24.222000159250012	43.716982948689925	-1.3587822170973474	-0.04934842095721104	-1.3587822170973474	18.510796564403574	18.762671564403576
DD15-76					33.20219878419239	41.84878715095862											-68.15232473173657			-57.65165161272346						-2.2408354083378086	4.570973598396577	-2.5053949369111663								20.0394704737062	6.0124564957878	15.587992860818048	0.8925837632342312	0.5309295421306799	9.29979479391142		18.411609064403574
DD15-77					-24.11992014344493	-21.08675870581803											-24.211368229569825	17.396724706715666	4.5922688426222384	-17.907773419595593						-9.603400087564863	-5.762962587564862	-6.8152907746841525	17.503908512175627						0.7396389815439455	3.069875	-2.2409893683828845	2.6561875				22.013762101952683	22.66334990185512
DD15-78																	-49.39162755928229			-38.69169005928232						-39.399877559282295	-34.736315059282305	-33.6723531820766														8.609223440672622	3.4849145770807155
DD15-79					-23.265015687119288	-28.558390687119285											-71.22238380338777	3.3116250000000003	-29.613220306985745	-25.801196303387762	1.8381875039430824					-38.298567811865475	-38.515192811865475	-20.934133803387766	0.3709671930142629						-0.6268453069857369	0.3519108474628547	-4.420654571093503	-1.3939779320467125	0.8723696881345244	0.07134219301426298	0.8723696881345244	3.9043125	1.8767411966122367
DD15-8					32.96913648916209	38.272995819240926											61.05845825784014	12.435481770865099	22.263515772167224	72.6630985748207	18.103681800004853					59.588538455090855	55.30583770772348	62.95378910473547	19.00821673533216						2.892437628540022	37.877993193153436	28.79928249557543	39.84589561109426	22.938215661212034	17.292692563388332	22.938215661212034	22.938215661212034	20.054507162227274
DD15-80					-23.455921398475915	-22.353591893910966											7.92868102326122			12.148132007850881						-1.15514910881587	-5.351773877536836	3.211187147514643															-5.879835661014859
DD15-81					-44.2462492687753	-44.03985231879969											-13.88148782849604	-16.4611875	-9.265629694675367	-15.31170691166276						-49.84380365286332	-46.925142878394034	-50.65205365286332														-18.230229114316586	-7.267725622794295
DD15-82					-62.182725656200454	-70.1905241746565											-11.599045634513214	14.517626583695295	10.32317166591638	-16.46017063451321	15.21166285858554					-27.62889248091284	-67.41897263143612	-45.97926450875178	15.697329393997023						7.045246260000571	7.815373075649754	19.58095658111256	5.6286205326428975	-0.8326821841914422	0.4299132407719727	8.801108437308319	3.734921812880714	10.979073167478706
DD15-83																																				-1.8006411728186849	-1.4619536728186848	-2.2391135604365084	-1.7980080864093424	-39.07533156139715	-1.7749993919045763	-1.2664716487824377	-0.9745144792898668
DD15-84																	4.580868425475376	6.360649377938957	22.03219837123873	10.604092832078823						-15.608607433015127	4.137330066984873	13.460499311773289							12.843552222315918	-1.1999840525743264	3.0213904386421437						7.901298991100018
DD15-85					18.16254695786563	17.71756861243935											-53.347443965159655			51.44600920899428	4.164898465071317					-12.340476818813293	-1.2661678103355811	25.87474272891161	16.353723440672624						-36.72644576268573							8.71635105019499	15.892785940672624
DD15-86					-57.448051174506254	-57.44411367450628											-13.114235754741394	-1.9536902706007848	-3.309598809821294	-7.899167218012487	4.397513276612047					-33.7820378755445	-44.925272188425204	-21.86021367153291	4.7698437525758							5.2156875	1.6149826277133246	5.606464158421995	-0.915	-0.4655885623730951	-0.888611479804422	1.4415006132470232	-0.13503921585586465
DD15-87					-10.394766172818686	6.883062500000001											-16.669540461576034			-37.47386938897168						-27.0846160186369	-32.281811466660606	-30.38374101863689								10.650185161218255	13.226469657314468	4.658264181835	-162.06010859122597			0.19929633233291424	-1.9332012455885896
DD15-88					361.523693290543	367.31134750656236											469.4755957160703	115.24856380290123	464.32275521160506	597.5191446540617	116.35806380290123					442.3234190956034	498.6439231325634	520.7799252511634	116.35806380290123						40.214905965748365	155.2397822686496	92.96721546118452	278.72340739025424	4.1584706845540405	4.14128318455404	4.1584706845540405	124.00606380290121	113.60743880290123
DD15-9					90.59911953863156	85.14075460691113											98.39214975697816	21.152915339609766	49.55467411892079	103.18624617368879	15.021104525571095					90.5860496598457	90.37315268431051	106.32852403773927	27.929871897857772						18.04229555686521	37.496816846925896	33.990723380373765	48.244758987920505	29.73733938286448	4.105530518858009	29.73733938286448	30.967053461907266	30.14262633716108
DD15-90					-1.4603161719578692	-0.767536508446236											9.392467895469588			1.5780524634228712	3.8884529386421436					3.6670848078517233	3.6670848078517233	7.264342895469589	-0.15269777768408188						4.692620038124477	8.127518497785045	11.08655058900088	5.800384407263287	1.3168645254331393	-0.4353590525743267	-2.322072777684082	0.3282659474256734	-3.1448590525743265
DD15-91					-1.807431324678	0.03368885478278827											-5.129549819266263			0.4246376807337384						2.6190831722852543	21.122240202703672	4.225137680733739							12.010395808918533	3.377181058658886	20.57268221179302	-2.380665636315036	10.7284375	6.155286189149763	10.7284375	7.173723689149764	4.135411189149764
DD15-92					-7.436197958795687	-15.858707821322888											-4.703647246922365	6.9770832623368655	-0.5027007031353623	-3.7098285922146257						11.867204379275474	11.867204379275474	-1.2831650080719648															1.3977654386421436
DD15-93					-9.079130896877928	-16.24721994495042											-8.405502630748654			-13.290829872286675						-9.860475622794294	-9.860475622794294	-2.9184548722866737							1.6599077047220023	1.829973203450364	0.03396164271685631	-0.6366899105072381		1.3359375	-0.8537963220297158		-1.9326821841914423
DD15-94					-4.444572966006987	-5.023447966006987											-11.006258065284655	1.7546294036741676	5.807698906806848	-7.8675900880301715						-10.633493020208467	-10.633493020208467	0.9606297679104008							4.811386406806847	19.2605		2.591761406806845	6.171661189149763	11.876	1.2874573766785482	3.669318203403424	
DD15-95					24.210520950798674	28.04705329643605											19.96977993679509	3.8388125	-5.42682624558859	-9.674939919145489	-0.4675948456373698					20.963851809740504	20.963851809740504	25.09718508085452	-0.4032198456373697						23.484358865778628	0.9528728087252604	0.9583103087252606	8.141541501015238				9.902094855940568	9.898344855940568
DD15-96					-2.6382112735286256	-10.101640687119287											-19.70306050171548	16.15025	-3.484150289340095	-14.321498001715481						-18.333560501715482	-18.41306050171548	-20.636248001715483														0.7670624999999998	0.648911437626905
DD15-97					15.054260164421143	12.412440661288464											64.0272576870248	-1.9497149911771792	-1.0154051440594325	-7.086627191274741	1.7413448559405682					-9.619918428040508	-9.08928902436634	-9.619918428040508	3.831479001015239							-17.832217644059433						2.7294165010152387	
DD15-98																																										-0.6306250000000002	
DD15-99					79.32333949634659	70.98564013579286											84.7833920576744	49.4360657689034	50.612875758856276	71.62572256014823	68.51989996855944					98.47105008594448	98.47105008594448	75.66566371266386	34.24467338785268						20.09896844747624	83.0650516645875	47.11731122102274	54.67091352926856	-3.385024259228027	-0.8313071841914421	0.3911215084777129	67.3174964153075	32.012260027463626
DD16-1			27.58633396149728	6.760406076299416			85.81199954694755	27.58633396149728	27.58633396149728			16.0635815775585	22.682305471737514	1.7313125								-27.132108118547983	-126.61381151829802	-0.7067098086368304	104.68856496457876					184.3058845805619	183.1372039470953	75.41897694092769	84.36206787351828	150.97285634506247									
DD16-10			0.296127423545002	0.15381950491902965			-13.916055506652224	0.296127423545002	0.296127423545002	3.4976701328649242	-1.7526862838091533	0.797629577688935	2.60995825050762	0.3240115914446564	-8.96317469089799	-8.96317469089799						3.3042316708187904	-244.13488534676125	-12.67246405544268	24.66943803531548					-10.434969576236305	2.3337490458400296	-12.070922285542352	-1.2967774897106707	-1.3744128649644836									
DD16-11			12.460935308725256	6.715280154362628			0.9963402554266488	12.460935308725256	12.460935308725256	1.033791501015239		5.973063225597838	4.1146341553778685	-1.998646944824011	16.105552750496162	16.105552750496162						-13.30007780295152	-3.5549996923368217	-12.044289290835565	81.01014198193363					-3.866015160146393	-3.866015160146393	30.780968063340158	10.300835318359749	13.093318039242131									
DD16-12							-10.916266172818684							1.7725856713180566	-123.16225	-137.334125						-117.0240521247462	-106.167		37.83165606917069						-18.490953672818687	-12.411844845637367	-13.526029918407275	-12.411844845637367									
DD16-13			16.709512314307926	16.709512314307926			12.5359375	16.709512314307926	16.709512314307926	14.434762686447995	13.498965060743627	-0.6296101016708668	2.3095832763251565		-18.97377280387316	-18.97377280387316						13.55194972141453	-73.98803824179856	-22.782947215524484	36.603031024429384					7.884494369788573	7.884494369788573	7.729431869788573	14.903184396590865	23.40747248841486									
DD16-14			23.31441799938693	23.31441799938693			14.559932817828743	23.31441799938693	23.31441799938693	14.110860319392495	7.150502045518925	4.198975740771972	21.8923229216789	11.184894297352505	39.874770457444406	39.874770457444406						-0.7899970246746406	-58.24500226867262	51.626203904119606	79.235183034839					69.61151000467936	82.22789369575584	72.52689015380817	24.569363843350423	66.67581909495446									
DD16-15			19.59440907086742	5.839534567821704			-5.505777932178296	19.59440907086742	19.59440907086742	26.252682861603194	19.411717503170536		-4.442179982354358	36.375538692506034	-250.552541392911	-250.552541392911						125.57935776423945	100.0481949919597	149.44989723253988	215.18437254221453					167.02733182781526	213.427375756775	211.731856467248	90.6965970279694	164.95640282942773									
DD16-16			-17.455253066278324	-14.44583999117718			-5.91261462474619	-17.899211829512556	-17.455253066278324	0.15708325050761918	-1.089452569453916	-17.88016674949238		-0.8426591487824378								5.383764680925835	-130.83364013975606	-36.492776859482795	92.0566122822137					16.651111130427278	-4.242076317037629	-12.861621082546053	5.018943507008999	-17.186218106635152									
DD16-17			36.751822939617966	18.808019865423667			146.91921460576478	32.936012263886745	36.751822939617966	-0.15712500000000018		5.039942341938405	33.490885927411234	-1.0761250000000002	133.72553871951865	133.72553871951865						-27.623160141815376	-399.11882432763497	22.29758178674348	117.67423545649432					184.55025163549544	148.84878234456474	143.61841695647053	6.696747206514687	196.01086416850444									
DD16-18			17.048062041050994	13.598224112608529			-11.837614494523544	17.048062041050994	17.048062041050994	31.88490962630118	22.210052532256064	7.697481281281004	34.88247746130917	51.490926676616354	473.3155269583028	473.3155269583028						493.912590336196	313.44246156330007	369.6829241038003	568.6075626024173					656.2190351495577	656.2190351495577	472.2524907474697	495.7961633666135	477.9559157131338									
DD16-19										4.764725373783504	7.1109910801010665	10.766729247749057	-2.0717615695702016	-6.107822871310729	13.960435826661856	13.960435826661856						-140.08601821241209	-256.8902847101948		78.48585035262096																		
DD16-2			16.802606792539947	9.540009532194274			-12.938733591225958	16.802606792539947	16.802606792539947	15.08067724886671	14.94702031370873	-47.371390903417606	6.533016419077238	-1.40951159512975	18.56966828347669	18.56966828347669						146.80391006925208	131.79126917604765	-26.468700696312666	185.69884302197357					123.244115643701	170.11695649934745	166.07877292634805	66.94384666286679	135.42894748110558									
DD16-20			-5.678116412911727	-5.678116412911727			-14.720030675744006	-5.678116412911727	-5.678116412911727	47.690793892461755	64.56182957455499	68.10005657164001	59.953059581699144		7.494900626566602	7.494900626566602						49.98595609731709	-36.439852434853464	138.46801916904548	152.9136837712019					209.2604981343813	209.2604981343813	202.08755393062847	37.18125015534533	77.92664683584134									
DD16-21			2.4300253281965536	2.7022753281965537			-7.541936283809153	2.4300253281965536	2.4300253281965536	-2.618988408555343	-4.199851833833543	-2.576636569570201	16.356479036877985	10.628203910240547	-18.720597225433465	-18.720597225433465						26.92507972969749	5.6241322708334565	28.82375005330003	56.35449256466524					11.175700063041903	14.40572444024761	8.047676188259604	30.77605649473853	16.525484642953145									
DD16-22			24.702218803169114	23.66441704220157			24.11007202658489	24.702218803169114	24.702218803169114	27.87762474629289	2.3468280738179423	-1.0755381188512128	4.3347065653402295	1.3464232694452636	43.01411546360887	43.01411546360887						39.65587393397968	43.93937444518809	5.8069592221644015	84.2375545352565					8.093253681265011	8.093253681265011	11.937091974495035	48.626649814097995	63.997795461468534									
DD16-23							76.8231393320487			56.651134530666894	0.4096253539330335	-2.18300219127474	12.682425541091616	0.8516977759407585	93.12498111091251	93.12498111091251						118.51760180708366	35.35566102616661	55.30811578271863	115.47159184261706					11.191908351413588	145.31350731770485	38.84904178119361	-8.106505395465746	93.89667607698263									
DD16-24			33.154578457511604	33.154578457511604			32.58817122985191	33.154578457511604	33.154578457511604	36.81823671673335	34.80920097420138	34.62631474952792	24.440081533877002	28.83905696741785	49.75804957090556	49.75804957090556						147.94234407644882	107.89390778005944	144.79847867172532	188.3980870145654					204.74250198426785	204.74250198426785	211.7618061230885	198.01612258666503	179.96865279127232									
DD16-25			-1.9939917956129802	-1.1278667956129798			-20.33715274754049	-1.9939917956129802	-1.9939917956129802	-27.841421322029714	-2.6840323456373696	-4.72465734563737	-1.9016713220297157		-19.978050908555343	-19.978050908555343						-46.98631586003157	-46.694076013318316	-35.823239614443004						-2.6736609644492937	-2.6736609644492937	-7.339626203153085	-9.076793924044264	-6.430378374019869									
DD16-26							-61.50836436838289			-3.7497707426214553	1.7380311257614292	-6.237944483044574	0.1529444984993713	-1.198266172818685								-38.6179119345812	-547.0378098262522		181.8545523249783																		
DD16-27			13.850125403326302	4.889394973549028			20.504696895534305	12.562699447077804	13.850125403326302	4.908039951023649	2.55253982983614	6.962445452700049	9.06358315119457	-2.1324235184560547	15.785949261989114	15.785949261989114						6.588087158159205	-99.23232970142351	36.30648985996465	47.762047366232316					105.23826884573128	105.23826884573128	103.96549620557316	127.00689212824496	154.54987879325932									
DD16-28			-2.302778641777506	-0.7440000000000002			-13.547482030931173	1.3322213582224942	-2.302778641777506			-5.846713562373093	-2.7562801440594313		10.7573112169329	10.7573112169329						-17.76673805824902	-10.51941942646652	-16.729839874884437	23.32274109266357					-2.9886076496066103	-11.682236141128895	-0.6859998867174895	-11.362324551801784	-2.911543579682334									
DD16-29			-1.7490069830445742	-1.2402569830445742			-4.50825	-1.7490069830445742	-1.7490069830445742						5.544559506205964	5.544559506205964						-27.56126894341947	-25.7325625	-38.117875	23.21897434880306					-5.311468874238572	-5.311468874238572	-5.2357188742385725	-5.929343874238571	-4.982968874238572									
DD16-3							-9.125456561397149																		9.50081782048489							-4.0462500000000015	-6.6788021247461895	-3.2277760623730947									
DD16-30							-5.4217024566278385			-0.4613784915222872		-20.50508566101486	-5.964744684191443		-8.014516172818688	-10.353141172818686						-26.544574559687945	-29.88814117281869	-28.150034148782435	0.1609097531927688					-14.421086759228027	-14.421086759228027												
DD16-31			6.859181453957982	6.911306453957982			-7.265637672736522	6.859181453957982	6.859181453957982			-4.38710424949238	-3.0760359209572115			-21.338						-4.82451999146523	-11.872705487277026	-25.3740324517858	26.738626119870357					11.939487531041179	11.939487531041179	0.4128988177606701	0.6497232791200958	4.185377280206222									
DD16-32							-7.100579974550407				-0.8186631227942947		-8.231340247540485	-1.787875								-32.41741456612148	-51.55689669335431		32.55978682252907					7.789529346432589	6.906216846432584	9.01546684643259	-7.867796646735778	9.380005802439657									
DD16-33							-13.230609052574327			2.152077938642144	3.7717875065954316		-4.152898161014859		23.91514361526864	23.91514361526864						-20.713234499676414	-10.863934797267865	-23.810640687119285	117.7216150806448						-7.604989368382884												
DD16-34			-3.2026225676183064	-3.8135137455885895			-20.424951245588588	-2.7869350676183053	-3.2026225676183064	-5.436854249492381	-8.918791749492383	-10.637875	-6.818310067618303		-26.51704632202972	-26.51704632202972						-76.77312256761829	-30.4928125		6.701888767463046																		
DD16-35			0.9708332505076194	1.2596457505076193			-2.77137740535564	0.9708332505076194	0.9708332505076194	0.9820670828405338	-1.2367335912259594	-5.16549299508097	-0.3967130715220968	-0.8496088220297162								-31.385400571522087	-32.669612217924055	-35.056567321014484	11.608016174285192					2.604359803731713	2.604359803731713	0.8970369284779034	2.0257869284779035	1.497974428477903									
DD16-36			-0.8950057975648753	-0.749755797564875			-4.439061283809152	-0.8950057975648753	-0.8950057975648753	-2.27403245525362	-1.5784352111555326	-13.217410833949833	-3.2062962092036376		-13.608449069570202	-13.608449069570202						-30.795796816565808	-30.44966312279429	-30.358085661014858	11.750461283614545					-8.844120391599917	-8.844120391599917	-9.63308443967241	-10.347063475083893	-13.110932891599916									
DD16-37																						-56.17425	-19.335694483044573		8.571538845182301					-0.4826250000000005	-0.4826250000000005												
DD16-38			-1.8712149911771792	-1.81565249117718				-1.8712149911771792	-1.8712149911771792				5.9851875		-30.9157333552706	-40.35129585527061						-50.23073600815286	-19.79511100815286	-32.99623600815286	11.736864376269047					-23.31254585527061	-23.31254585527061	-16.4512958552706	-10.166942805246217	-12.793233355270605									
DD16-39			-3.805004285679	-5.2438621665458			-14.560703187119286	-4.82038642577383	-3.805004285679						11.675513095227089	11.675513095227089						-61.91038285346536	-17.356744683474705		39.15537583868075					11.806898323475867	11.806898323475867	25.099970081116304	25.20852038946239	25.579833004230245									
DD16-4			19.0969560815826	19.5559560815826			-9.8459386360949	19.0969560815826	19.0969560815826	4.8300310762994165	16.159375	2.1829506008199515	6.5149732877406725	-0.3819606610148583	5.6918787597136795	2.4463162597136794						24.471453691999287	-61.58931179142853	13.847335443506848	33.27065136934377					57.63727694995435	76.91176972873583	68.11494842976757	20.15977778144379	58.26367152695274									
DD16-40							6.400505778623427			0.8958124999999999			-10.877682184191444		5.25171921370689	5.25171921370689						-43.63451917864157	-31.069452930755983	-25.359159641376767	38.05971371351967					2.0701066359065745	2.0701066359065745	2.016294135906575	-7.09628672818685	2.713981635906576									
DD16-41			-1.4981334297800315				-1.7580180976265245	-1.4981334297800315	-1.4981334297800315	-0.28797671585586504	-0.01877665253714511				-25.233503491522285	-27.66269099152229						-49.21172418610405	-30.09703668610405	-25.62776230889834	8.82533447210805					1.2608477177509645	1.2608477177509645	1.0545977177509638	5.916357888019711	-0.7088294069952248									
DD16-42			-2.2889075941145123	-3.151208498984761			-17.610645998984765	-2.2889075941145123	-2.2889075941145123																-0.8050000000000002					-11.36975241050724	-11.36975241050724	-11.576682922311065	-15.553648161014856	-12.345416749492381									
DD16-43							0.2558540010152388					-4.716967644059432	1.2101713426361125									-48.91849562608877	-60.71499733681455	-14.808051143044192	19.165660740046363					2.1013540010152383	2.1013540010152383	3.02566650101524	-3.8346546824519185	3.783041501015239									
DD16-44			0.3895156878525379	-0.3381440613971476			-3.0774940945621987	0.3895156878525379	0.3895156878525379	-3.876515687119285	-2.0054946841914423	-5.3368389505027665	-4.3096875		-12.34558118311308	-12.34558118311308							-44.398749273926896	-45.87106469127474	7.5510487654478595					-11.012349186104048	-11.012349186104048	-4.5434565613971465	-6.83053363558172	-5.50840066689091									
DD16-45							-17.259311283809154			-1.7715647753314396		-2.783595306985737	2.11075	-2.5808252857610485	-25.702083254192715	-25.702083254192715						-52.64098962474619	-38.623358092746784	-38.22110293204671	-1.9540282241452047						-17.569703672818687												
DD16-46			9.662588313895952	10.599963313895953			-17.935064618281192	9.662588313895952	9.662588313895952						-22.45758361034318	-22.45758361034318						-60.119968870295494	-25.549505682797022	-34.50091168610405	14.040565403557995					-19.850689691274734	-19.850689691274734	-19.553870394809746	-16.271899828250877	-20.99917940328746									
DD16-47			-4.474214039711066	-3.604394061397148			-28.03315939705998	-4.474214039711066	-4.474214039711066	-1.822005189469452	-0.5865144792898667	-2.362078064723261	-0.25040743217064776	-1.4059085406870144	-13.383671289852064	-13.383671289852064						-29.341189445491448	-29.53215442682303	-11.290815986845956	-34.130826211944445					-30.659637437989694	-30.659637437989694	-30.198132567539894	-31.79575639115604	-28.92053413869653									
DD16-48			-0.445967644059432	-0.4053426440594321				-0.445967644059432	-0.445967644059432			-3.4929396912747395	1.9587915010152388									-111.09153234563738	-18.358231163995864	-15.447782345637373	8.713237340578058					-14.83408999117718	-14.83408999117718	-17.73402749117718	-10.78540249117718	-21.17277749117718									
DD16-49			-2.9254375	-0.6984375000000003			-12.860197974566862	-2.9254375	-2.9254375	-1.2292656871192855	0.048296812880714635			-3.327369684191442	-24.636390687119285	-31.419640687119283						-50.24581599152229	-20.930378491522287	-16.74975	9.747980821358428					-12.242211759228027	-12.242211759228027	-13.91121175922803	-9.661149259228027	-13.48108675922803									
DD16-5			1.0654560592328801	0.4906759048702498			-14.01125674066956	1.0654560592328801	1.0654560592328801	2.366599428477904			-2.339796322029716		2.8559237544114104	2.8559237544114104						-43.486134393551815	-31.722180495080966	-23.452088071522105	5.470317082840534					2.512536928477904	2.512536928477904	1.2266040010152386	-0.24143049508097025	1.2286040010152384									
DD16-50			14.202608827181315	14.286858827181316			10.529156125761428	14.202608827181315	14.202608827181315	5.431369439657382	-0.12519996895882146	6.050994439657383	2.5245947566275166	3.2542660467375684	5.882140438642143	5.882140438642143						-19.49277181969458	-15.208515955329508	-3.968995185088808	32.95372554171131					12.351491791927884	12.351491791927884	11.753445464746573	11.901014952942743	11.411132964746573									
DD16-51			-2.5512446841914427	-2.3077446841914417			-9.257815991522287	-2.5512446841914427	-2.5512446841914427	-2.866836759228028	0.9690000000000001	-3.920800911765172	-0.1912031871192854		-29.322078187119278	-30.854140687119283						-21.086506983044575	-21.793695811802355	-33.789551868382894	7.045689207775098					-8.715125	-8.715125	-9.7159375	-14.6669375	-9.6444375									
DD16-52			0.409611726322122	-0.9628771912747394			-8.157886313206895	-0.7043909368633292	0.409611726322122	15.93612066983652	2.845847508822821		-5.085062499999999	1.0489090271196666	-20.38376835894183	-20.38376835894183						-17.09789699644391	-3.1947161985501675	-55.052503491522295	58.982074261971434					12.104589170924955	1.528526670924954	20.90508052880736	13.502953337532608	10.778245189288723									
DD16-53			30.732075168240968	30.190371720815293			14.94093099922888	30.732075168240968	30.732075168240968	8.828949914327536	3.7573185967277216	25.616572875253812	26.670859468979287		33.98159364442605	33.98159364442605						6.310563408207643	13.429112866083285	4.688018370970673	32.562412991285925					27.68846275959465	27.68846275959465	23.69058775959465	32.52021507078884	32.54457279781521									
DD16-6			19.51084068013465	-1.2395221753686214			-11.183982049872618	16.064436815716363	19.51084068013465														-54.30616672199106		8.994539887814819					68.15681215387477	75.49079444778617	69.41368695699198	34.812652591204646	50.36368022026552									
DD16-7			-12.007402747540484	-12.450725622794295			-28.714141172818685	-12.007402747540484	-12.007402747540484	4.5893900195166415	2.4605137534747543	-3.2242106610148578	-1.35175	9.575647948400462								-16.44623248171835	-126.34942001934995	-39.277539333833545						-24.38390274754048	-24.38390274754048	-24.89211462474619	-18.845637785761053	-13.810152747540483									
DD16-8			3.136064481336525	3.0926651041308206			-5.051921091225959	3.136064481336525	3.136064481336525	9.376866326894424	1.98630912966522	11.900476838985142	6.32351748852103	1.0373704186259711	-6.710485226284323	-6.710485226284323						19.48612394726139	-103.31746247354909	-39.666192309243634	15.264900258350785					14.734663131138054	14.01136680910834	15.351384155835461	14.635450755453167	11.208987211011458									
DD16-9			15.223542290909998	9.124526700169595			13.974982002876216	15.223542290909998	15.223542290909998	25.22180654168095	11.324336549288654	-0.8373645153715961	9.089710348553764	1.660060046934694	96.18538908111016	96.18538908111016						98.3434959966098	46.19494604625452	34.58332391454198	98.96706648367191					134.81926002644428	134.81926002644428	77.01694396545989	168.40640959724885	194.6061292774723									
