topic	BASE_INDRI_50	DDTJU_EXPLORE	FifthIterBaseline	FirstIterBaseline	GU_RUN3_SIMI	GU_RUN4_SIMI	LDA_Indri73	SecondIterationBaseline	TenthIterBaseline	UL_BM25	UL_Kmeans	UL_LDA_200	UL_LDA_NE	UL_LDA_Psum	UPD_IA_BiQBDiJ	UPD_IA_BiQBFi	baseline	lm	lmrf	multir	okapi	rmit_lm_nqe	rmit_lm_psg.max	rmit_lm_rocchio.Rp.NRd.10	rmit_oracle.lm.1000	simti	simtir	simtir20	tfidf	ufmgHM2	ufmgHM3	ufmgHS2	ufmgXM2	ufmgXS2	ul_combi_roc.2	ul_lda_roc.10	ul_lda_roc.2	ul_lda_roc.3	uogTrEpsilonG	uogTrIL	uogTrRR	uogTrSI	uogTrxQuADRR
DD15-1	2.5784803531857494	1.0307092704313838			5.559777290018406	5.476498895475526											2.190247832062525			4.140045134527492						6.522815658765845	6.522815658765845	3.4207645078817333								0.6001814077025229		0.3750145746522349					
DD15-10		10.933333333333335			11.587320666271713	11.587320666271713											31.5	14.833333333333336	28.25	31.5	9.333333333333332					31.5	31.5	31.5	27.6						4.333333333333333	10.584826542845818	6.767052359176452	8.250755499954629	31.5	31.5	31.5	31.5	11.587320666271713
DD15-100		2.6669655279763242			8.056900964533082	8.166036115039523											10.44455808688886	17.666666666666664	26.80157143990563	10.75000402939625						9.000058371439845	9.542672436953168	10.000477827043994	8.266666666666666						4.666666666666666	12.0	4.666666666666666	8.000246968824388		0.4702242227966738			0.4996841349015038
DD15-101		15.4			13.606848268314659	12.102058990271873											13.476782425159529	39.0	40.813940810550115	9.610414571045784	6.666666666666668					9.183628551231497	9.183628551231497	8.474789821980982	5.466666666666668						2.5714575774559467	5.3344712887730585	6.5505389786562365	7.464848917930702	0.8888714035118503	8.0	10.64035767406394	21.466666666666665	1.0002389135219976
DD15-102		1.2644924819047711			2.4645662711333807	2.452481935149444											2.478382883971221			1.317322265581866						1.7716453599021766	1.7716453599021766	1.8040383167974627							0.6429838511249856	0.16668209436705808	0.14286439436398682	0.7084763425452436					
DD15-103		7.175844298531104			22.736407597171308	22.82621338124937											22.650624036156216	8.75	42.939483032995795	18.69979235710905						15.941157443718808	15.941157443718808	18.148288847680046								0.1111094655081074						9.4	0.8750340075218815
DD15-104		8.382446437126442			8.071884406388856	8.592851446778862											12.626382244084427	2.0	11.724433379826234	10.359964211252056	9.5					7.191299686876269	7.191299686876269	10.49171279010576	3.05														0.1250072964299807
DD15-105		4.672899669195089			5.044123729038309	3.2131627044156663											6.413206036850964			3.591471173240261						5.11134920018934	5.178026577730144	5.11134920018934							3.6680794468230964	15.367747470442625	17.66721570985478	18.012919654484335				2.285830309823789	1.777760156974346
DD15-106		1.0868597831493654			2.150624928816895	2.150624928816895											4.75	1.5	3.3333641887341163	4.75	0.6					4.75	4.75	4.75	1.5						3.0	1.9167129497678408	1.6500462831011742	1.9001791851414984	0.33333002943268986	1.0	1.0003853036790264	0.7501791851414982	0.3206654398225961
DD15-107		0.26655606279907873															0.307592391071603	4.0	2.0	0.307592391071603						0.307592391071603	0.5715157018012146	0.307592391071603	8.0						4.0	2.0	1.3333333333333333	1.0					
DD15-108		23.0			17.42225560948733	16.922594179365202											19.171396195179483	6.8	8.444621359232697	15.73381475373166	4.0					13.559334822490792	13.559334822490792	15.73381475373166	5.333333333333333						1.2001208799927408	1.333847071572035	0.8001208799927407	1.0002389135219976		4.001541214716107	3.929106438370301	2.1088926751839634	4.5732266558439605
DD15-109		19.646326588948344			36.21399331101136	32.213853434005344											22.031245211090063	37.5	64.8	24.044553266987858	34.666666666666664					4.54632569428787	4.54632569428787	17.13228358632571	12.666666666666664						2.9333333333333336	1.3335803021577206		1.0000388657392931	5.466666666666666	1.3333333333333333	5.466666666666666	3.6008172090257484	1.8335997350273672
DD15-11		24.30491817026619			24.555805197415317	24.67640866935609											47.85301833208133	32.91666666666667	27.633564748839213	47.665902078694366	35.45					48.01847649769227	48.01847649769227	48.04991229173845	35.166666666666664						19.715849476031607	33.52707967053625	24.143987962251806	25.45554772236852	35.16666666666667	27.0	35.16666666666667	35.16666666666667	15.794351457522724
DD15-110					6.7516126662734814	6.7516126662734814											7.751410739061228	9.0	5.4	6.7516126662734814						7.642262184810558	7.574630107752168	7.642262184810558								2.076383433882454							
DD15-111		3.0004532999727784			2.1430748283961103	2.1430748283961103											2.6960308007929097	5.0	3.0	2.2753887314152594	5.0					2.4150868292212992	2.4150868292212992	2.4150868292212992	7.5										0.7888792249127446				
DD15-112		2.737690318852815			15.68729200828216	17.608000069932533											8.1591191533936	48.6	62.018960890321004	7.2890925884369535						4.666666666666667	6.479093996247367	4.666666666666667							3.524545966196872	1.2	2.0	2.0					3.5069286371207737
DD15-113		3.0			1.829634689293286	1.7263464526289052											3.4780544646541887	1.5	2.0557942803027216	3.1927145823017784						2.132621568002977	2.132621568002977	3.1339308708778617	1.15						1.533364188734116	0.6666666666666666	0.6666666666666666	1.0	0.10517258208743756	0.2222189310162148	0.22222001962179325	0.16654715692491134	0.4286367763509109
DD15-114					4.001541214716107	4.001541214716107											1.7145471054036436	4.0	12.0	1.7145471054036436						1.7145471054036436	1.7145471054036436	1.7145471054036436											1.714459862716888			1.714459862716888	
DD15-115					6.378596891050662	2.1946533392594896											3.9291491645128014	13.466666666666667	19.266101073538607	3.729368579933623	9.5					3.868911293933767	3.868911293933767	4.434570617276198	12.666666666666664													0.09089806930352368	
DD15-116					1.8254220699289003	1.9643705539940504											0.8501960005624843			0.8501960005624843						0.7668033329356052	0.7668033329356052	0.8501960005624843								0.8334104718352904	0.8334104718352904	1.000151099990926		0.5831767383157881	0.7937232342150069		
DD15-117					0.7501791851414982	0.7501791851414982											2.553729954173853			2.611460315202089	3.5					1.856130143592855	1.856130143592855	2.303887886723101	7.0						4.3	3.2857904995295395	2.4858496687207143	6.019670254890867		0.4663957544167504	0.4115257732281384		
DD15-118					15.722894855745055	17.12460787798592											46.5555446271949	3.166666666666667	11.001926518395132	46.0	20.65					46.24974762439986	46.24974762439986	46.26290317408935	20.3						1.2	3.166666666666667	16.255008947827342	2.8666666666666667	2.999220515607988	13.0	14.719381680195186	43.0	0.5708302257770455
DD15-12					97.45480174940708	88.446289573853											108.64149697731064			127.63806168018108						143.78752151181038	146.3701383106467	121.18208724074543							12.0	5.143379588150664		7.202176892430277	3.5996481548801893			3.272330494926853	
DD15-13					2.6379433907176835	2.650769120414964											3.0489186804940247			2.6190733398855044						4.155179048378725	4.195384466111838	3.2879057684428554											0.8001208799927407	0.3635629355591796	0.3635776014561026	1.0002389135219976	
DD15-14					9.901036917817024	8.814584661409672											19.443651797125835	0.8	0.8	19.193859995751726	2.6666666666666665					14.995673183500381	15.807738466164436	18.9382328623868							1.333847071572035	7.3631590304545185	13.043723978704186	10.546241677012944		0.11755605569916848		0.9	
DD15-15					77.03390600093931	77.03390600093931											140.58427836033414	118.08333333333331	94.5463185644288	134.97046141134615	102.53333333333332					145.13798829716876	145.13798829716876	140.6370166087342	88.11666666666667						8.666666666666666	12.486084112563331	26.0	42.040303275267604	118.08333333333331	45.2	118.08333333333331	118.08333333333331	33.178494369333684
DD15-16					13.871962703611546	13.871962703611546											41.06662796491668	41.0	41.0	41.0	8.2					41.05878371142392	41.05878371142392	41.055510032480605	8.2						10.25	20.5	13.666666666666664	41.0	41.0	41.0	41.0	41.0	10.252448863600474
DD15-17					35.22253618823289	35.685005469175685											28.113398218670806	7.8	19.5	28.655480027142982	39.0					23.84944034146973	25.86499811276597	28.23483494860003	19.5						39.0	39.0	13.0	19.5	43.25	19.5	43.25	43.25	13.152843146808625
DD15-18					3.584140657680608	3.584140657680608											3.6500604399963694			4.188868151896682						4.3931891659175335	4.3931891659175335	3.916690965051061											1.6250631568263512		0.6494166791949524	1.8572371267318288	
DD15-19	0.21418982285904226	0.21418982285904226			8.400563781793307	8.367206064842332											18.110391837902853	10.4	14.562225942589347	18.34176586323065	9.9					17.407212831911725	16.85959452635302	17.931571929948113	9.9						11.82938314015516	13.229166180448539	11.036430220644233	16.933167956353156	10.95	7.0	10.95	10.95	4.307832067937702
DD15-2					9.834611080576078	10.133046258650099											4.339040351021964	1.7333333333333334	3.6672730182145132	6.859834383410138	2.0					2.5742194546964763	2.563319502077593	4.062739931936109	1.0						1.333364188734116	1.471577034216946	2.6195758603000083	2.2860294444560685	1.0	0.3333333333333333	1.0	1.0	0.33346176789300874
DD15-20					15.331838814849467	15.480475488925807											8.273814118131334			6.867295405696424						5.7750384554272225	9.601516463698246	6.488481099799483											0.7771404547285183			1.7853344599728735	
DD15-21					30.510653836032592	30.510653836032592											84.0	43.8	64.5	84.0	64.5					84.0	84.0	84.0	40.5														
DD15-22					75.84492819875109	74.90864071014238											28.181388867006863			21.97251915805269						14.527750468500912	16.30358723793113	18.84478813925832											8.25	6.6019954847277535	8.25	8.25	2.5376372263407254
DD15-23					35.263711585534104	37.53805501226851											25.905538901223913			24.375835980008038						31.387521256657948	31.55386546987857	30.901319887364433							8.593783978561884	37.251144532816696	33.94121048770086	37.36222961972304	8.45	1.5003583702829963	8.45	1.2	3.05741844672094
DD15-24					22.61575924710923	22.540325268741185											8.522888636497504	16.75	15.4	15.382046402101981						16.277067953789274	22.287911514442076	14.095766984960074											3.405011376041493	0.845824178317218	1.7624037514055382	4.95098943216553	4.033835458017676
DD15-25					3.0962873262360304	3.0962873262360304											2.3333283965243217			2.3750218892899424						2.299970679573349	2.333326776316944	2.3750218892899424								1.1429732418112586		1.6004837538733945	0.6151448569579767			0.7271845544281894	
DD15-27					58.90612297869572	58.867111769419786											42.532617897968436	27.33333333333333	31.599957606227235	42.24720278507992	107.83333333333331					30.321687603365675	30.81725141466234	44.970457300251645	58.83333333333334						33.00489772720095	106.99487213865106	80.42392251374733	77.42687821601794	109.08333333333331	49.33333333333334	109.08333333333331	109.28333333333332	42.906030430234274
DD15-28					86.30027111153191	78.19376642239571											125.02816983162391	22.75	96.14050729909422	139.43737115453828	93.55					158.37914328299073	158.35990625528837	138.48751248020022	53.35						17.481383285889848	76.35288246068016	91.30569030827007	105.65543485214256	20.633333333333333	6.083333333333332	20.633333333333333	20.633333333333333	10.45701366822299
DD15-29					139.0212415837255	138.55435760903126											156.26405953315378	69.0	66.74279689688069	156.07637358719222	143.25					121.96520333164793	121.22777180845644	139.95526773577993	58.5						45.651295926832866	33.4	86.33333333333331	36.0	127.93333333333332	105.0	127.93333333333332	139.13333333333333	51.41473386791919
DD15-3					79.51215509157643	76.98486749079234											12.302163329725866			11.770597575849404	18.5					19.04727034938211	15.289397745537094	14.88472043020566	7.4										1.888934095504705			2.8702743294704645	9.31025416758886
DD15-30					2.0007706073580533	2.0007706073580533											6.0	1.5	1.2	6.299970679573349	1.5					6.750179185141497	6.750179185141497	6.299970679573349	2.0						1.2	3.4285931830919605	3.0003853036790264	2.2501791851414983	6.0	6.0	6.0	6.0	2.0007706073580533
DD15-31					4.251454552939576	4.251454552939576											11.5	7.25	6.8	11.5	6.166666666666668					11.5	11.5	11.5	7.25						3.5002986419024973	5.5	4.25	5.5	10.25	9.0	10.25	10.666666666666666	3.083948027259785
DD15-32					4.676284868981344	4.529738390887136											1.82187024126458			1.9297267947403336	0.6					1.7715047239655732	2.1217384952888114	2.190852151768373	2.25						3.6	1.9285931830919605	3.7501791851414974	1.5000462831011745	1.6004759636735817	0.3333267763169439	0.6060099774090209	0.7501791851414982	0.2306942933037023
DD15-33																	95.42718063108929	12.0	52.84194647056242	98.64665146730465	30.666666666666664					103.22612761694668	110.4756533877133	115.90723648204391	45.06666666666666						24.002515708139683	52.24017919707742	20.066666666666674	51.8731259342179					5.001194567609988
DD15-34					32.53544194800593	28.55633515162885											9.432076452660297			13.423027262988755						13.891686664160314	15.070766814048708	13.835891761141527							6.964321971819934	7.320409724993964	6.260276334330479	13.751814289798313	0.4999511326222485			0.4544903465176184	
DD15-35					107.89402779590002	107.85294441576944											108.57577220493015	42.36666666666667	124.47063761441923	105.88645235855205	40.86666666666667					108.68913933859241	108.73918362366513	105.59126258997514	44.83333333333334						99.33587641963207	90.01665757288097	90.02553000556391	107.30771131891466	17.766666666666673	5.4	17.766666666666673	41.066666666666656	19.04579427768493
DD15-36					33.82161420655263	32.87020083738741											28.922473662042485	0.8	8.030875851253326	25.98485639132872						21.824891306746217	21.73626786009676	25.616110265426368							7.9047909107892815	2.8	5.333333333333333	2.1333333333333333	4.0	4.0	4.0	4.0	2.000477827043995
DD15-37					50.68618871973733	50.68618871973733											152.0	152.0	76.0	152.0	152.0					152.0	152.0	152.0	30.4						38.0	30.4	38.0	76.0	152.0	76.0	152.0	152.0	50.68618871973733
DD15-38					4.2872093821135655	4.541526670674179											0.5434268078575167			1.5473363224561767						2.809661602809878	3.2475793049547685	2.809661602809878															
DD15-39					7.386841983039197	7.386841983039197											11.735261280551311	7.966666666666668	11.238772397560084	11.626070070148392	7.133333333333333					11.382780853794186	11.216158928561104	11.784304413433498	7.933333333333333						11.505567498786425	7.772301524613799	6.005416551222045	8.058301204490348	0.4001209384683486	2.0	3.455409555844436	6.633333333333333	2.138417143322485
DD15-4					5.954607905081756	5.954593364633964											17.09513837096284	4.25	5.666666666666668	17.0	4.25					17.0	17.0	17.0	17.0						4.25	17.0	8.5	5.666666666666668	17.0	17.0	17.0	17.0	4.2510153824684895
DD15-40					38.29075962836141	43.34557591380771											69.13954187991091	129.86666666666667	122.91666666666669	74.25184393746432	150.86666666666662					85.14506962393557	85.21735729141524	77.94438196033032	108.95						55.97739400171278	54.87317150353896	112.25368788352608	112.53085477189344	127.16666666666669	113.5	127.16666666666669	127.16666666666669	49.465632297575894
DD15-41					16.306726896133952	16.409187300402017											20.654144323668785	19.8	20.0	18.612699806980725						22.381218685463253	22.294358902313885	17.77615199706502														0.21036779331006525	
DD15-42					4.803822690992777	5.391442139457052											4.4037502014586565	1.0	1.7500925662023483	9.214083497939514	1.5					6.536916481939935	6.705768193017076	7.0205047418774615	3.0						0.7143219718199341	1.0000925662023483	1.5003583702829963	1.5003583702829963	1.0	0.4285931830919604	1.0	1.0	0.6000906599945557
DD15-43					23.041087992605753	23.12843337025141											38.97164511043447			38.11139815757707						39.86660966212725	42.037684409218905	38.25644779935027								8.48676712976753	14.338270458771262	11.536325106231885	10.333333333333334	10.337314804683274	10.333333333333334	10.333333333333334	10.41876508966841
DD15-44					2.7509497924995507	2.7509497924995507											7.5	6.75	4.2	7.5	4.5					7.5	7.5	7.5	3.0						1.4571863661839208	1.9285931830919605	4.0003853036790264	3.5000462831011743	7.5	7.0	7.5	7.5	2.500743673962023
DD15-45					127.46424466559256	118.56901948193995											175.17101057633	130.91666666666669	241.56359836595746	186.31568953829296	131.36666666666667					156.7466966981226	165.5395220786427	182.6034587581189	95.05						35.5503702648094	147.7773275116999	157.85871161510852	188.28518150774607	126.66666666666669	70.5	126.66666666666669	126.66666666666669	59.78055227170112
DD15-46					15.175906243656804	14.977911979213385											21.566145849675173	12.833333333333332	8.933333333333334	21.65390547281332	11.583333333333332					23.772563988507557	23.479213819075195	22.094705665487414	18.83333333333333						4.0	4.6191534174584605	5.133515924127639	6.157731083144276	10.933333333333332	2.0	10.933333333333332	9.85	6.458107813752233
DD15-47					54.586440012382994	54.94129369571717											53.23360770932057			39.207520531578226						25.76876660161337	30.302419115423106	39.564842029885966								28.90126932535271	26.451511594916692	33.235323573697826	0.5714575774559473	0.2665118596667145	0.3076123605751783	0.5714575774559473	0.19982051667537
DD15-48					6.653889133974083	6.653889133974083											5.800136084709036	4.0	2.6666666666666665	5.800136084709036	2.6666666666666665					4.308911223203515	4.3964247857305185	5.800136084709036	4.0						8.0	2.6666666666666665	8.0	2.6666666666666665	8.0	4.0	8.0	8.0	2.000477827043995
DD15-49					4.5038715201018285	4.776569719708023											12.980347384616428			10.944066721888733						10.788737916453021	10.288645303143873	10.615270335412044							3.066727106663037	0.22206287589988186							
DD15-5					50.449431942436036	50.10981463498963											71.11481939528026	58.26666666666666	48.497874819218644	64.3763064048654	28.4					76.16023823615392	81.3878179151207	72.6738831352668	25.316666666666666						4.114372732367841	8.829057344166	8.400698872373843	11.669566794747142	1.714459862716888	0.5993942985596694	0.6310354925246253	4.001541214716107	14.859883256610255
DD15-50					18.976785612399066	17.370746510592877											11.335516884814124	24.0	43.87667410051999	20.84103737587301						26.519878936365124	27.17132730998536	23.79909745017545															0.14986538750652748
DD15-51					19.51752574957331	19.51752574957331											81.10552309983468	36.66666666666666	39.31712040704782	94.69975159188084	9.833333333333334					105.90029477060058	106.22328713656755	88.47890958533873	29.33333333333333						3.333333333333333	66.95577312682677	70.35849547850975	118.98715228973387	0.3635922772140947	0.8	1.9053046490279821	1.0002389135219976	0.8001208799927407
DD15-52					6.801875972207121	6.748275581180134											17.287991533720547	1.4	4.100625640432766	17.08322100786134	10.466666666666667					16.435805746394408	16.450535702446825	17.515430898009406	2.5						9.405171244853742	6.752863076672144	6.752863076672144	7.772122401132737	14.566666666666665	6.833333333333332	14.566666666666665	14.566666666666665	2.186196410005477
DD15-53					46.30737204335271	47.30444752726058											44.29488482564721	2.0	4.0	57.167308906347984	2.0					25.65220162852691	29.18975565645765	37.29033537541253	1.0						1.4666666666666668	1.4666666666666668	1.4666666666666668	4.0	41.2	11.111000981089662	41.2	21.500396616423792	7.3621494450733875
DD15-54					8.309583096969325	17.01681603792247											5.330835932068621			7.939503078756808						21.62704409668108	21.62704409668108	10.562368146282576											0.3817814689651684			0.09089440036402564	0.09514944361784068
DD15-55					6.444502685246247	6.444502685246247											23.775744011519972	7.666666666666668	8.5	16.55602101916362						13.8234877380358	12.475927081654909	12.65146010151755	7.2						7.500077138501957	13.083333333333336	9.95	11.7					
DD15-56																	2.9810425746722538			3.0157480526256504						3.9647232867742717	4.0979902660188685	3.1200305121647727							5.001048220290339	0.16654715692491134							
DD15-57					9.537364912071757	9.609787871385981											2.4007256308100917	4.0	4.0								6.249002209830731																
DD15-58					0.6669235357860175	0.6669235357860175											4.226531507093988	0.5	0.5	5.2562791511952085	4.666666666666667					0.9624888181309026	1.139549665434273	4.41968953002695	17.766666666666673						1.0								
DD15-59					11.451805921071664	11.983307262971113											3.4673652975276603			1.5113174927611916						3.82433472344361	5.343793955340691	3.2420228253353662							2.4007706073580533	3.783605630153076	4.435789228724344	7.950219759194633	0.9287075789883672	0.2925895529332885	0.5807377900351798	0.09752985097776284	0.1483000288871546
DD15-6					4.6683183603450935	4.6683183603450935											1.6416095031906068			1.375053440391528	1.0					1.9465691421927431	2.143103909291696	1.8194891421474533							0.8001208799927407	1.3333333333333333	1.0	1.3333333333333333	0.8	0.5715157018012146	0.8	0.8001208799927407	1.0002389135219976
DD15-60					42.84969080551329	42.84969080551329											5.0795368276564385			5.7064893807814006						6.058003809403562	6.701081709486487	5.0795368276564385								1.9998045304889944			129.5	32.35	129.5	46.56192961738203	43.766552085021836
DD15-61					82.65112988780984	79.76546335055508											161.09345106906417	60.25	87.5	159.05439050247733	0.8					135.99238108024664	143.017622385105	157.91765157887482	52.83333333333333						4.828643943639868	52.173680437883384	46.011634664692366	49.427635677958314	4.090413118658565	9.0	36.32638191453649	36.35973004016762	27.73620802816373
DD15-62																	1.1429732418112586			1.8666962365519144						1.0706254649426807	1.7701604457222877	1.1205749898226531															
DD15-63																	1.7290110700308376			6.8921085727201445						5.857367663963879	6.040608587856821	6.200451451174938	0.8						2.0				0.5000194328696466	0.17371956629873064	0.21034516417487512	0.3075724284789884	0.6667283774682323
DD15-64					40.747765157688335	40.747765157688335											103.33382701974584			103.77826272150179						101.55548561404741	108.75648797210144	106.22577749829338											3.555520313948692	6.4	42.97954864447089	6.4	28.309117347005486
DD15-65					54.38613835246983	54.38613835246983												79.0	94.49157349755257		25.26666666666667								35.4						41.63642977251044	113.66581679713707	70.13200563675977	93.81250512992304				98.93333333333332	34.82389703585535
DD15-66					2.0007706073580533	2.0007706073580533											3.0	10.8	14.25	4.071028966788807						4.200362815405047	4.200362815405047	3.4998657756992477	6.0														0.9999900882980696
DD15-67					59.04382281746581	60.83389771777676											49.87951244524882	87.3	79.16666666666667	87.04734393280546	0.6					86.72707045951925	85.31585356511873	86.34222078682785	57.66666666666667						40.3	87.7724144827282	51.36654709419379	46.60751567816836	27.633333333333336	4.8573894083755516	27.633333333333336	38.766666666666666	31.245502078428522
DD15-68					9.627375751820107	9.960398804482553											19.064908458618973	7.666666666666668	24.943906863246607	19.519995908587614	5.75					20.892957477043236	25.81547408533194	22.460163553046517							4.60069505995826					0.9491474542080074	2.097921608898922	0.3817814689651684	1.704892489088002
DD15-69					8.937480808491664	14.604758691746426											14.04954150689599	7.133333333333333	19.543338018385263	23.605306159082183	7.8					26.221683952745053	26.067352029941894	25.06244209150943	5.133333333333333							0.13327803139953934						2.0	12.353039538303769
DD15-7					11.914748673835087	11.852093360906075											37.276579009728216	16.866666666666667	31.186442694418545	37.07869916161764	25.2					36.261183091104726	36.31996111895431	37.428201822553184	24.2						24.2	16.46781502313681	12.0	33.37867827177137	29.33333333333333	25.33333333333333	29.33333333333333	29.33333333333333	11.470311891940911
DD15-70					4.687802554469831	4.687802554469831											1.7704234901769709			9.923800847753329						28.566286063110557	28.716134637750482	19.8005400558342	0.6						0.4285931830919604	3.280170943919728						0.5000926133091453	0.9995852354965452
DD15-71					61.42007716119206	64.76754320700825											44.383900885399534	12.75	73.3980675901787	37.901387305802935	29.75					10.934554084615916	12.233665617850573	26.176628491057052	19.58333333333333													14.55	23.086625461166268
DD15-72					8.468228957475658	8.468228957475658											12.934530747406805	12.666666666666668	18.403383758034305	13.201086810205885						14.669199446665466	15.513596054519192	13.450884674524273	9.0						32.87811643174485	18.876850041745445	33.60090471943417	22.81036488358128	1.8179613860704733	2.8572878872797363	5.0484106181111885	7.40155720758821	2.8575785090060735
DD15-73					15.919917695135359	15.909807176298544											13.150577029173784	7.0	9.572525560472664	25.668479270911554	17.25					27.39563773767443	27.272396143459762	19.42202445586981	17.25						7.672494923705901	19.93489342849196	11.951352113250685	26.168652803718647	12.166666666666664	2.35	12.166666666666664	13.75	8.585388970510508
DD15-74					8.515918586741783	8.515918586741783											4.001541214716107	12.0	10.001726347120805	4.001541214716107						16.104227729828857	16.093703290077272	11.884520033130393														2.0026965447168346	
DD15-75					18.38585380210339	18.28168183378763											12.0	24.15	22.65	16.812443160235222						24.56940503125145	25.947421920644736	17.837660665599827							12.836051529259546	16.266656213258102	16.08773159327917	21.68207925798134	6.75	1.6666501471634494	6.75	22.5	8.752822444102621
DD15-76					18.1139255096885	18.8032768908568											3.5998725779857645			5.320628802065978						7.213020831200013	8.945708985275711	6.211379377626308								16.351497237628767	11.965627028358329	19.37532379376251	1.0907768316422841	4.1431510478645	6.0011700405387725		4.901188697355818
DD15-77					10.111355870710575	10.077992939246117											15.205101975085785	18.33333333333333	10.833333333333336	14.094772309842613						14.655659860328615	14.668054756024475	14.017891649848327	17.5						1.5	6.0	1.2	6.0				24.43333333333333	12.264438804963849
DD15-78																	7.601148359931037			12.666666666666664						12.666666666666664	12.666666666666664	12.799944698066206														4.355042412658402	9.167807859131084
DD15-79					2.1674014527741887	2.1674014527741887											3.100090659994556	5.0	1.0	3.100090659994556	3.1					3.5003853036790264	3.5003853036790264	3.100090659994556	1.0						1.0	2.6670519703456934	3.0000462831011743	2.2503853036790264	2.5	1.0	2.5	5.0	1.8503893018970523
DD15-8					22.91245135763725	23.013705085048127											38.916755310557946	14.783333333333335	25.05	42.40054640188329	19.75					41.20790458330853	40.29145144903949	41.67733810530982	22.25						4.833503038037637	30.319390242873183	20.835929096669346	32.567615638887624	26.16666666666667	18.5	26.16666666666667	26.16666666666667	11.095155013866622
DD15-80					4.995013390642661	4.953514354191427											21.485002488140086			16.92402500823932						20.092777040124734	19.147074069315646	16.807338388783315															0.0951383709628409
DD15-81					0.6266613670621469	0.6314221817819913											3.0061778876525898	1.0	3.7601019787091854	1.890948827212156						1.5004318533950076	1.974712439279343	1.5004318533950076														0.3639723247032417	0.28572878872797364
DD15-82					13.0153650094128	12.422342334389592											20.81152962053368	16.8	16.85	20.81152962053368	17.25					17.796594265539703	16.416451625421633	21.186292721709805	17.75						4.750537555424494	11.138633387864079	13.006696367342908	10.919414286681823	0.27269420791057103	0.75	7.217842544879469	4.5	5.24363566261092
DD15-83																																				0.33336418873411616	0.33336418873411616	5.750079614686171	0.07140193111925383	0.14286439436398682	0.3428946143621721	1.75	0.4345740512135341
DD15-84																	14.788906778187735	6.85	15.208358242697694	14.49761978904117						13.161275222418116	13.810835019327698	16.572237859965654							7.501294760340603	2.2861648529549083	2.2505375554244944						3.653922798945665
DD15-85					18.069399668056292	18.055754357473198											16.004815968067938			22.689474333182783	8.0					21.26333111982529	23.494697321601876	18.421715617169674	15.5						6.001140803633658							9.833333333333334	7.251878513191513
DD15-86					9.747387816365656	9.747387816365656											10.531396804304793	2.85	5.750474338482251	11.782707321218288	6.166666666666668					10.69137017032313	10.56863016297868	10.460604296251713	5.916666666666668							3.333847071572035	1.4002389135219977	3.2367406524458016	0.2000604692341743	0.5	1.3811479284470591	2.3666666666666667	1.3330480903958404
DD15-87					8.869991295576346	9.070126903686576											9.657505864806168			6.495932386303638						5.676047712704673	5.6325333943005536	5.900014516078044								7.334632791524849	10.201024633474812	6.667306700398838	0.35534115056867804			2.333333333333333	0.5714575774559473
DD15-88					127.4086079042864	127.53822683854678											247.91724643306648	123.3	253.37137448514525	265.5421557816577	123.3					245.0069857568853	249.40590309818657	247.98158892217307	123.3						40.5	99.52730307014788	86.86739702984389	144.29750770411258	10.8	4.908495742390278	10.8	135.3	59.02730307014786
DD15-9					34.64482767055588	38.124909525777724											62.511892756315135	24.65	47.75650664276476	63.297426724456514	18.7					61.85690443893569	61.88998681630893	63.3618813830709	32.3						17.250385303679025	24.25358702001827	31.766321286269413	28.426981892996825	31.75	9.05	31.75	34.75	14.563404273252745
DD15-90					5.556528891487941	5.612150484565133											5.29881627289458			5.159848809255945	4.5					5.696128133085742	5.696128133085742	5.29881627289458	2.25						4.012440254663996	7.605993104927534	8.563144138263937	7.550718994464258	0.473276619393469	0.9999900882980696	1.1250437239567046	0.9999900882980696	0.8180826237317131
DD15-91					12.91656396868142	12.980108177215113											11.22614674648134			11.22614674648134						9.535887518814373	13.226663623829731	11.610612282080073							14.916666666666664	10.68417194474953	14.019399332782529	10.333664274574831	13.0	6.5	13.0	6.5	3.2507764689464915
DD15-92					10.345764651579694	10.447870455373208											10.331517831608442	11.3	9.25	10.895751701763675						8.925939593634766	8.925939593634766	10.73169917566118															2.2505375554244944
DD15-93					3.848096167202949	3.681331957086028											4.6855568556129805			3.4002389135219975						5.2010124842947505	5.2010124842947505	4.184448521855054							3.788184684118984	3.8337225590171133	3.70030077675011	4.400831047354423		2.0	0.971607559373978		0.8442099097117857
DD15-94					8.034443097803429	8.034443097803429											8.699864614103996	5.2	8.666666666666666	9.417881234010666						11.508702188498434	11.508702188498434	10.611026186024256							5.200785719952815	5.201572200088532		3.714663035886591	1.0830425140150348	2.600786100044266	2.166867226771755	4.333333333333333	
DD15-95					7.7253032097120355	7.747275982114411											18.677256027816203	4.0	0.8	17.950100824904002	1.0					14.835834778793727	14.835834778793727	18.37074590344696	1.0						16.868174816651553	1.3334567549364646	1.3334567549364646	2.8007197039806924				10.666666666666666	4.267935903129551
DD15-96					7.852868976073744	7.863985236333665											6.8166279649166786	21.0	4.2	6.75						6.75	6.75	6.75														1.0003853036790264	0.5536440727808917
DD15-97					12.36510667564757	12.001332609921565											5.931555688504478	1.6	2.6666666666666665	1.3334567549364646	2.6666666666666665					2.4242335865787488	3.5534107675204982	2.133124943333701	4.0							0.5330679169783946						0.4996841349015038	
DD15-98																																										0.17633408354875268	
DD15-99					33.492132511946714	32.52787335845516											68.17366387779379	49.95	49.36418907362678	66.04289078820804	71.28333333333333					74.60586350091052	74.60586350091052	68.4514578138097	38.45						21.42976395344833	72.2053009952285	35.85113646986376	40.57244862688305	0.13621618820246054	0.4285931830919604	0.6000906599945557	69.45	8.15427535527077
DD16-1			21.707360438901404	9.0			45.568005681597384	21.707360438901404	21.707360438901404			15.768097846020012	25.40699897156604	1.333847071572035								7.889439036084795	2.323794954891369	21.922496205666828	52.25429962811033					51.97974331937375	52.84075205110721	25.638343318560857	57.97279122113525	42.203521184296335									
DD16-10			4.319272874219458	2.8			1.6666666666666663	4.319272874219458	4.319272874219458	3.6195887601034378	2.685789228724345	2.6670429925470165	2.8339665283330335	4.352712764510361	6.772950990714985	6.772950990714985						8.247760572096514	5.94264339645023	5.223848810348625	16.050491299446946					6.6620086998085934	9.271221629146279	5.308049381575488	6.42516740911908	7.987250430649327									
DD16-11			12.000960752719296	9.0			4.8	12.000960752719296	12.000960752719296	2.000477827043995		7.334712194682207	3.3341297402982444	1.2001208799927408	12.136354457679985	12.136354457679985						9.318236761504329	12.446921944321494	10.069914708718231	36.73872256281672					15.26604268709746	15.26604268709746	23.505443672215748	20.756379478209006	18.388915642311034									
DD16-12							0.33336418873411616							4.133515924127639	2.0	2.0						0.1999804530488994	2.1817814677795897		19.368703399503037						1.0502515933715206	1.33365191325425	0.8214672938907706	1.33365191325425									
DD16-13			22.1	22.1			18.0	22.1	22.1	20.33333333333333	15.9	6.8668479866557774	7.750468859211402		22.23172892583666	22.23172892583666						32.83112018336063	22.83860548723006	29.99592013140025	40.28200652848909					23.628937595609933	23.628937595609933	23.628937595609933	23.462058892921892	24.60114743374196									
DD16-14			25.16666666666667	25.16666666666667			23.75	25.16666666666667	25.16666666666667	15.065303673582175	6.30064499013791	9.75	16.563953792722756	5.430226964010414	14.202872567442546	14.202872567442546						18.11693504702861	16.191298655331018	22.08752338332883	41.08772415853496					25.65543918040661	30.3317793643883	26.370210717509302	20.465411550609623	24.97485813018041									
DD16-15			14.001433481131984	8.0			8.0	14.001433481131984	14.001433481131984	16.708770489678205	17.269084259599694		3.2	27.68881862828311	22.900515366972904	22.900515366972904						45.47712453981722	35.79624962086297	49.39424206133915	92.52241424058184					51.386867664395	57.368240777994004	57.91760274874208	40.80266049560317	58.502555323484756									
DD16-16			5.018219861227145	1.6			3.0	3.7859594460332495	5.018219861227145	1.333700681415006	1.983393773329704	1.5001194567609988		0.7502035906405662								28.083324395829237	11.35831666468878	9.815071252600116	56.95563872728197					30.751225158557247	37.26207200336196	28.95870781884502	19.324198202325785	21.194887740228832									
DD16-17			41.981457734344175	22.25			55.420484499048776	36.870397283042934	41.981457734344175	2.0		5.215089472933834	22.758273162286024	3.0	97.09183256390062	97.09183256390062						10.8736201884385	27.17860982406456	18.75735891917445	49.5438177176358					53.447406010345105	58.06781669588374	40.778175255028465	6.9890513360893625	61.26397106831666									
DD16-18			22.56701055352201	18.4			8.0	22.56701055352201	22.56701055352201	26.090784520155843	22.458225694854946	9.501663426821393	26.738745923885908	28.334640253318486	154.8911319729185	154.8911319729185						128.3666639000759	94.54531976123442	114.54965073386656	146.64126975784632					146.5090226488733	146.5090226488733	98.09567977600292	117.24181725989901	121.56689840206154									
DD16-19										6.779069146765544	8.316878206653964	6.968490276110287	2.733333333333333	2.179157671912485	9.023220283552073	9.023220283552073						5.184275349163033	5.563519804722018		35.94358295377694																		
DD16-2			13.926965228811223	9.783333333333333			2.3716994543926444	13.926965228811223	13.926965228811223	12.078118973355243	11.577995551752107	16.27624848824523	9.466666666666667	2.0004290588832383	15.473681606294699	15.473681606294699						56.42811774778895	39.51209604531695	27.86325602880794	87.5225061718748					47.101227148508514	54.12634288352137	50.80078532038103	33.60710971817799	38.961252913543724									
DD16-20			33.96666666666666	33.96666666666666			40.05035931455573	33.96666666666666	33.96666666666666	37.55573933891928	46.08859996304788	70.63794951287477	59.504250412885256		11.639429781115565	11.639429781115565						68.45441813042872	39.6553080182551	78.4610311604964	90.95988989077257					73.09150643807213	73.09150643807213	73.25064278452794	46.9884294718923	57.0904048307444									
DD16-21			4.5	4.5			9.066666666666666	4.5	4.5	3.1859086854853427	1.1666666666666663	2.733333333333333	14.534720603325475	8.392148577068333	4.300210752158152	4.300210752158152						22.39115660039372	11.799787910637136	23.80830050443295	28.869615645663945					10.9792341923102	12.021911776109645	10.151982770798783	23.202204729447732	14.7286300776259									
DD16-22			30.297732443655228	28.75			35.524643834182775	30.297732443655228	30.297732443655228	21.65248678385205	3.9	1.9646206137224311	4.650683945581523	2.8147466394357976	31.562607041524423	31.562607041524423						55.20404736171929	63.804390354403026	39.16666666666666	65.46343888325445					51.07873676592968	51.07873676592968	51.19976740738152	46.974843712910435	51.97887719103388									
DD16-23							17.602137620932194			34.38241618614515	3.45	1.6667283774682322	15.25	5.0	36.00504844827549	36.00504844827549						40.648645192526025	24.695842571006303	32.940555047106855	47.97302504544836					16.04354634448451	31.702694628226872	19.40786977196835	16.15612596998299	36.65907886533084									
DD16-24			37.35	37.35			39.5	37.35	37.35	30.543582087593972	31.14680106447473	29.38586656516734	20.280392661035208	18.631304688935725	51.94795411172566	51.94795411172566						80.68781242482892	76.16580999666745	78.12676575477573	90.25050830817491					90.24005027462955	90.24005027462955	90.89367440865959	87.42107781703635	88.57578275389118									
DD16-25			0.9	0.9			1.4	0.9	0.9	2.667180404905368	1.0	1.0	2.667180404905368		1.3049881131885672	1.3049881131885672						10.271203212534703	3.1858573942112307	9.693761760861927						7.822328416612371	7.822328416612371	7.153271771065158	6.025001369414568	7.375460903881635									
DD16-26							0.4614185408627674			2.7003583702829963	3.0	2.0	8.200273886191459	2.5								3.177257145187084	1.7894299030474412		60.44498160686197																		
DD16-27			21.384899554612748	12.0			27.00553615521191	19.496029387827505	21.384899554612748	6.545815360780475	4.7670141957805745	6.851108613197387	5.701310297630161	1.0000925662023483	21.643135949621076	21.643135949621076						12.328153662445054	14.836521879346554	19.8557985213112	33.64488929011521					53.376128307456476	53.376128307456476	49.46441884679122	47.95959186198318	54.031760100408675									
DD16-28			5.166959792974104	2.0			8.166666666666668	5.166959792974104	5.166959792974104			0.5	2.6666666666666665		8.766797471785686	8.766797471785686						14.078570524059836	20.255534228578018	13.98944929189198	22.079404175986706					7.621954472678927	7.894637673771004	8.869715250785493	8.160711936834161	7.577848976286999									
DD16-29			2.0	2.0			6.0	2.0	2.0						6.242777833593367	6.242777833593367						6.500657085456213	1.2003628154050459	6.0	25.66289704392705					3.0	3.0	3.0	3.0	3.0									
DD16-3							0.2																		8.508272190278474							0.533522237127183	0.6168177353843888	0.7002197748968981									
DD16-30							3.5666666666666664			1.267014195780573		0.6666666666666666	0.4285931830919604		0.5	0.5						5.119069885675153	3.5	3.750203590640566	7.526682184336018					0.5000462831011742	0.5000462831011742												
DD16-31			7.5	7.5			10.416666666666668	7.5	7.5			2.0	3.0			0.2857578509006073						16.881812689942812	8.569530045160121	17.63986668162138	24.347793036037363					13.069119450647216	13.069119450647216	13.234917113659641	10.843812280073614	12.067833251011946									
DD16-32							4.500261478004958				1.0669235357860174		1.4	0.6669235357860175								4.0650234138466175	3.1517715703579015		24.483287071032862					15.46055472803746	16.127208280671347	15.46055472803746	13.85291383722005	16.627082044522755									
DD16-33							0.9999900882980696			4.5	3.083948027259785		0.6666666666666666		17.920984970534814	17.920984970534814						3.545917766306918	4.137776350540332	0.3750218892899422	39.519481956630365						0.6666600588653797												
DD16-34			1.6001208799927409	0.8			0.3635922772140947	1.6001208799927409	1.6001208799927409	2.0	2.0	4.0	1.3715784574486882		2.667180404905368	2.667180404905368						0.8790499685275504	1.333847071572035		8.0																		
DD16-35			2.0	2.0			7.629933391107643	2.0	2.0	4.000061710801567	1.8	1.5716964909779447	1.8003597935147382	0.8001208799927407								4.0866305029141365	6.84852451607528	4.333572246855331	10.800724490396853					8.50037632588035	8.50037632588035	7.333333333333332	7.333333333333332	7.333333333333332									
DD16-36			1.5	1.5			9.066666666666666	1.5	1.5	1.3333333333333333	1.25	1.150119456760999	0.65		3.226206035671128	3.226206035671128						2.5812270718895247	0.33558235284654153	1.0667876051350151	12.98164484759998					5.566786123427665	5.566786123427665	5.400030855400781	4.800060439996371	5.566786123427665									
DD16-37																						0.3997677895000718	0.5453664021841538		12.35					2.0007706073580533	2.0007706073580533												
DD16-38			1.6	1.6				1.6	1.6				3.334617678930088		4.1	4.1						5.166666666666666	1.5603095300247487	5.166666666666666	13.0					4.1	4.1	4.1	4.0	4.1									
DD16-39			5.334685486123656	3.8			1.7505644888205247	4.300046283101174	5.334685486123656						16.18881289424279	16.18881289424279						7.800944444774912	5.144518107331043		38.33316795635315					8.819550577968563	8.819550577968563	15.645115758014406	15.899583208081784	17.5285528602356									
DD16-4			28.08333333333333	28.08333333333333			12.850370264809392	28.08333333333333	28.08333333333333	8.600090659994558	24.0	6.16703693147606	11.975092049315288	2.6666666666666665	15.733333333333334	15.733333333333334						37.01482306281128	18.957360490238045	35.83587463020789	46.870993819212245					41.08735384634944	43.87788643623133	43.15274480733297	35.52582825773003	41.77119165285112									
DD16-40							15.602641239968046			1.0003853036790264			0.6		6.264695848033197	6.264695848033197						0.4806271811533258	0.8577660715069986	2.701434017921286	24.9861353662568					5.834617678930088	5.834617678930088	5.834617678930088	3.750048582174117	5.834617678930088									
DD16-41			1.0000507605479076				3.722218931016215	1.0000507605479076	1.0000507605479076	1.7691534174584602	1.4000604399963703				1.0	1.0						12.5	12.5	13.007977870522401	18.287276971549712					8.168079446823096	8.168079446823096	8.168079446823096	8.745849515499373	8.501474522362528									
DD16-42			5.666967290990231	4.0			2.000477827043995	5.666967290990231	5.666967290990231																2.0					4.420469481612441	4.420469481612441	4.38473588759445	2.9534374535968846	4.134726171159628									
DD16-43							12.0					2.6666666666666665	5.466787546659408									7.216277110786532	1.3649780308117765	6.666666666666666	18.88427652523507					12.0	12.0	12.0	3.6	12.0									
DD16-44			4.30013694309573	3.2			2.4006060244549983	4.30013694309573	4.30013694309573	1.5	0.6	1.8335030380376387	3.0		5.581272426511524	5.581272426511524							0.8139889018984799	0.8123770507311698	9.583590202452683					4.833672915466867	4.833672915466867	4.711676721192446	4.57158820749048	5.822686071593447									
DD16-45							0.6857892287243441			2.7335902024526844		1.0	5.0	0.9001798967573691	2.8004676212775026	2.8004676212775026						0.5001194567609988	1.8729062708952864	1.25	10.29584840950448						0.2500097164348233												
DD16-46			13.5	13.5			4.771981213655907	13.5	13.5						3.0726511431664845	3.0726511431664845						6.106020984227515	4.565391918888381	5.5	20.8674143816841					2.3337591011073364	2.3337591011073364	3.40417364648781	2.933874135589043	2.975558680808588									
DD16-47			1.7095767087292302	1.2			6.013462868535013	1.7095767087292302	1.7095767087292302	1.9002338106387515	1.0833333333333333	1.7595767087292298	4.4762728837782095	1.0930982050027385	7.870936295505812	7.870936295505812						5.69674067410275	4.975433776750802	4.740546146645267	8.745842921382					7.302303496958015	7.302303496958015	7.187666066694748	7.432835478527533	7.226667451140075									
DD16-48			2.6666666666666665	2.6666666666666665				2.6666666666666665	2.6666666666666665			3.0003853036790264	2.000477827043995									9.0	1.2803242452058856	9.0	12.3					1.6	1.6	1.6	1.6	1.6									
DD16-49			3.0	3.0			3.0	3.0	3.0	1.5	0.7501791851414982			0.4285931830919604	1.5	1.5						9.1999004688669	10.429000269358248	9.0	12.500385303679025					9.75	9.75	9.75	9.75	9.75									
DD16-5			3.666728377468232	3.0			4.171699454392645	3.666728377468232	3.666728377468232	5.800359793514737			0.8001208799927407		4.8	4.8						5.467301284898109	7.134085985094032	3.333333333333333	8.333333333333332					6.8001208799927415	6.8001208799927415	7.000238913521997	6.571457577455948	7.000238913521997									
DD16-50			17.5	17.5			20.0	17.5	17.5	8.5	4.25	8.83346176789301	6.666666666666668	4.343014071123172	20.834510215178497	20.834510215178497						15.16074255737082	7.931800151674893	16.119133255390867	25.150573126196004					20.916676383101493	20.916676383101493	20.666666666666668	20.5	20.666666666666668									
DD16-51			5.6	5.6			6.0	5.6	5.6	0.75	1.0003853036790264	2.416666666666667	1.5		6.5	6.5						0.8900253629583155	1.5571496963844045	0.8571863661839209	10.20065514881508					5.0	5.0	5.0	5.0	5.0									
DD16-52			3.960357088812767	2.0			1.9635776014561024	2.5714575774559467	3.960357088812767	9.085403125675256	6.6		3.0	1.6503590818988674	2.971457281621872	2.971457281621872						7.4844397513441345	8.927385176501208	1.0	29.950874908165197					11.29299194138342	11.29299194138342	11.044984647600849	10.810267723493832	7.339919783948822									
DD16-53			37.03577954927589	35.75			39.0	37.03577954927589	37.03577954927589	14.500119456761	8.250537555424494	31.167042992547017	23.60185229141135		39.61033959105667	39.61033959105667						38.37153639384953	39.678555747298	37.00003085540078	40.38370965921368					42.30133580779445	42.30133580779445	42.30133580779445	40.200271979983675	42.187004156526044									
DD16-6			14.378126571121998	2.2			7.500192885714742	12.806538363631518	14.378126571121998														0.9941741136859092		22.51210470158184					32.70206045690679	37.08335611461956	33.002193587586945	23.904392989639266	33.216401256512164									
DD16-7			0.9001194567609988	0.4			0.5	0.9001194567609988	0.9001194567609988	7.186407314590175	5.4	2.6666666666666665	2.0	5.453551808300839								10.98879572511898	10.810005506449723	1.1666666666666663						3.222220019621793	3.222220019621793	3.0	1.6666666666666663	3.222220019621793									
DD16-8			5.685728788727974	5.4			2.8005754490402675	5.685728788727974	5.685728788727974	9.733989127517097	2.3526523245139908	6.668207881382773	8.400725278225996	2.186196410005477	11.215284154294984	11.215284154294984						21.37455808535606	12.642704098693633	20.380176752089397	29.66877317029977					11.574886024395704	11.841419982884906	11.638344305026393	11.322603865817928	11.695478255895535									
DD16-9			18.214890284752574	12.3			21.978190999123907	18.214890284752574	18.214890284752574	26.076987291711173	12.259994807392724	9.60017164054065	15.426197727697318	5.188795043328869	43.3816867580376	43.3816867580376						55.72898327598021	35.483223375984934	30.84854274899041	61.621561860434724					70.83205782360383	70.83205782360383	71.05698759978496	57.697197867655106	62.13137952348087									
