topic	BASE_INDRI_50	DDTJU_EXPLORE	FifthIterBaseline	FirstIterBaseline	GU_RUN3_SIMI	GU_RUN4_SIMI	LDA_Indri73	SecondIterationBaseline	TenthIterBaseline	UL_BM25	UL_Kmeans	UL_LDA_200	UL_LDA_NE	UL_LDA_Psum	UPD_IA_BiQBDiJ	UPD_IA_BiQBFi	baseline	lm	lmrf	multir	okapi	rmit_lm_nqe	rmit_lm_psg.max	rmit_lm_rocchio.Rp.NRd.10	rmit_oracle.lm.1000	simti	simtir	simtir20	tfidf	ufmgHM2	ufmgHM3	ufmgHS2	ufmgXM2	ufmgXS2	ul_combi_roc.2	ul_lda_roc.10	ul_lda_roc.2	ul_lda_roc.3	uogTrEpsilonG	uogTrIL	uogTrRR	uogTrSI	uogTrxQuADRR
DD15-1	2.5744702926119416	1.028926546453539			5.5311748718991955	5.447357835037082											2.17156059226816			4.112578639799752						6.500763169179296	6.500763169179296	3.3957029816703894								0.5975954040233848		0.3734987671846376					
DD15-10		10.933333333333335			11.560061800424824	11.560061800424824											31.5	14.833333333333336	28.25	31.5	9.333333333333332					31.5	31.5	31.5	27.6						4.333333333333333	10.570787695134227	6.758313049639815	8.23997079150983	31.5	31.5	31.5	31.5	11.560061800424824
DD15-100		2.6560039604577703			8.021115958746247	8.129551812978276											10.433362619026726	17.666666666666664	26.779139246340453	10.735538716660686						8.994001082640983	9.529639469158075	9.995985395776287	8.266666666666666						4.666666666666666	12.0	4.666666666666666	7.994659044462472		0.463104940863696			0.4930355472562669
DD15-101		15.4			13.541226308366086	12.056134266722546											13.411466718206535	39.0	40.78735123773821	9.587401089370552	6.666666666666668					9.158972186746784	9.158972186746784	8.465337322147231	5.466666666666668						2.5702833299151817	5.3266366469288835	6.544882547945822	7.4550513185663485	0.8817876127028987	8.0	10.616746011268184	21.466666666666665	0.9979926978881428
DD15-102		1.2522948814606325			2.4419896446098406	2.432176130125788											2.4570952329366			1.3074002040674624						1.7553929343338983	1.7553929343338983	1.7870302132939857							0.6415671814228671	0.16633252198559265	0.14257083247879554	0.7061621884761718					
DD15-103		7.151128642659312			22.62001933702313	22.722988779213896											22.570646757425546	8.75	42.87361435428187	18.660428153536962						15.888489504893027	15.888489504893027	18.115991531747788								0.1104446994200178						9.4	0.8714971234308209
DD15-104		8.33410061595102			8.012739430077549	8.534810614748073											12.577788055845735	2.0	11.682203965845346	10.335225398432954	9.5					7.15687192554671	7.15687192554671	10.4659455462179	3.05														0.12425013533012295
DD15-105		4.643833092297302			4.978502152920028	3.1741487228862377											6.375488541803232			3.580377337328315						5.077873254065081	5.1437424160232315	5.077873254065081							3.6592976342068777	15.355229717953314	17.657308668373414	17.984872849927157				2.2811333196607286	1.7706622617069705
DD15-106		1.0854027897618532			2.145682450611497	2.145682450611497											4.75	1.5	3.3326650439711853	4.75	0.6					4.75	4.75	4.75	1.5						3.0	1.9156642326234443	1.648997565956778	1.8984945234161072	0.33199917407005697	1.0	0.9979902638746032	0.7484945234161072	0.3169989565591816
DD15-107		0.2640080697627249															0.3046242386795452	4.0	2.0	0.3046242386795452						0.3046242386795452	0.5679997281032411	0.3046242386795452	8.0						4.0	2.0	1.3333333333333333	1.0					
DD15-108		23.0			17.33856577643453	16.83678586474064											19.112742090525984	6.8	8.440258555389102	15.715949081261986	4.0					13.536815142748065	13.536815142748065	15.715949081261986	5.333333333333333						1.1983953266415728	1.3306536851661372	0.7983953266415728	0.9979926978881428		3.991961055498413	3.912837882123539	2.096443970025962	4.545583659292005
DD15-109		19.550887708811047			35.959585142894724	31.987222310255323											21.866553348535646	37.5	64.8	23.865876752663088	34.666666666666664					4.512148222925507	4.512148222925507	17.034826065349588	12.666666666666664						2.9333333333333336	1.327992377795805		0.9959967124923668	5.466666666666666	1.3333333333333333	5.466666666666666	3.5927744263916535	1.8259907340419883
DD15-11		24.293175553236136			24.461440378491265	24.581376409248985											47.820849467238034	32.91666666666667	27.628321163117214	47.63628655990243	35.45					47.98887440748497	47.98887440748497	48.01615244117927	35.166666666666664						19.69379713632172	33.498665834900066	24.1325355041835	25.409944365043273	35.16666666666667	27.0	35.16666666666667	35.16666666666667	15.758778230864339
DD15-110					6.736450710744967	6.736450710744967											7.726477460231089	9.0	5.4	6.736450710744967						7.614642008914095	7.549441297387824	7.614642008914095								2.060338918081854							
DD15-111		2.993982474905898			2.1342764387754722	2.1342764387754722											2.667434174277326	5.0	3.0	2.2467657690714447	5.0					2.3859306092369943	2.3859306092369943	2.3859306092369943	7.5										0.7784787537452951				
DD15-112		2.7200871924570227			15.625261346076089	17.510782411043753											8.108760947806598	48.6	61.97543312860629	7.260486607943407						4.666666666666667	6.448532252057122	4.666666666666667							3.516737928682013	1.2	2.0	2.0					3.485454525621269
DD15-113		3.0			1.8200053048858649	1.7178009993307823											3.468204472763793	1.5	2.05182540057843	3.1862541329005305						2.1253224777233832	2.1253224777233832	3.128249907182165	1.15						1.5326650439711853	0.6666666666666666	0.6666666666666666	1.0	0.1035894132665008	0.2208893988400356	0.2213327827133713	0.1643454162317758	0.4259997960774308
DD15-114					3.991961055498413	3.991961055498413											1.7039991843097233	4.0	12.0	1.7039991843097233						1.7039991843097233	1.7039991843097233	1.7039991843097233											1.707421151020377			1.707421151020377	
DD15-115					6.316238550431416	2.170402637846282											3.9186085145267295	13.466666666666667	19.2534158037462	3.723009597546747	9.5					3.8605262180751065	3.8605262180751065	4.420694193841017	12.666666666666664													0.09036400526336064	
DD15-116					1.8195180759608345	1.9578500530094365											0.8460956746836308			0.8460956746836308						0.7626000451937559	0.7626000451937559	0.8460956746836308								0.8316626099279631	0.8316626099279631	0.9979941583019659		0.5775162440962986	0.7846265570930193		
DD15-117					0.7484945234161072	0.7484945234161072											2.5428628827021917			2.6003594148496307	3.5					1.84721681242596	1.84721681242596	2.2963451090740583	7.0						4.3	3.283805086233296	2.483536991599164	6.0124198965698366		0.460166117967536	0.4068439669757096		
DD15-118					15.668026921439585	17.056046588709126											46.55111725793931	3.166666666666667	10.989951319373017	46.0	20.65					46.245532598780244	46.245532598780244	46.25845518798597	20.3						1.2	3.166666666666667	16.22387343036984	2.8666666666666667	2.976045103896011	13.0	14.684723420115384	43.0	0.5612177206059429
DD15-12					96.84740975222248	87.95334934701665											108.11625397766652			127.0247615862338						143.06245358057643	145.60614842443354	120.63419569143636							12.0	5.12226345306113		7.171144848280617	3.5712444767334444			3.253104189480983	
DD15-13					2.6298572639376068	2.6425497857682054											3.04150715424841			2.6165693659067863						4.14641281603189	4.1871920854158455	3.279389800564484											0.7983953266415728	0.36000972708586304	0.36073214923551056	0.9979926978881428	
DD15-14					9.850328143188118	8.778294968473716											19.371016480675973	0.8	0.8	19.12910865082099	2.6666666666666665					14.96038795224787	15.762698445794168	18.870177680659488							1.3306536851661372	7.350340914976155	13.032740226173475	10.521275474218758		0.115776235215924		0.9	
DD15-15					76.7509002389994	76.7509002389994											140.52498933479794	118.08333333333331	94.44683993320965	134.92216428044256	102.53333333333332					145.0856434751595	145.0856434751595	140.5435603114235	88.11666666666667						8.666666666666666	12.471112456418574	26.0	41.91138337775939	118.08333333333331	45.2	118.08333333333331	118.08333333333331	33.10002623959567
DD15-16					13.838799104613305	13.838799104613305											41.06573801685251	41.0	41.0	41.0	8.2					41.058004225718356	41.058004225718356	41.05467215290631	8.2						10.25	20.5	13.666666666666664	41.0	41.0	41.0	41.0	41.0	10.229425153353468
DD15-17					35.09090507087006	35.545056351281936											28.078626720708776	7.8	19.5	28.61867795018744	39.0					23.80967433634489	25.822374372949966	28.205149649409904	19.5						39.0	39.0	13.0	19.5	43.25	19.5	43.25	43.25	13.12360894263608
DD15-18					3.57614131210765	3.57614131210765											3.6491976633207854			4.183383511057247						4.389423059835565	4.389423059835565	3.9133353987347723											1.618494657800096		0.6396650210463382	1.853420822224342	
DD15-19	0.2117244529452604	0.2117244529452604			8.375295840886329	8.341565449020731											18.08590195435245	10.4	14.555501657105124	18.31773781924347	9.9					17.3876236449877	16.844713782907633	17.90989000929657	9.9						11.821689374099982	13.222661257706854	11.02942051318626	16.918339114641206	10.95	7.0	10.95	10.95	4.298502772096161
DD15-2					9.773032002258514	10.073083985157234											4.319273183273279	1.7333333333333334	3.6619841601728975	6.818426190991322	2.0					2.5580229415859304	2.548168908876732	4.044175684944153	1.0						1.3326650439711851	1.469279678859254	2.6157953501237285	2.281799123961352	1.0	0.3333333333333333	1.0	1.0	0.3326634212915343
DD15-20					15.283117414727604	15.430022926310947											8.221859208834937			6.832431087153585						5.7484428240250525	9.563110356116734	6.456432955243707											0.7654101406882746			1.7649262867616922	
DD15-21					30.438721303276946	30.438721303276946											84.0	43.8	64.5	84.0	64.5					84.0	84.0	84.0	40.5														
DD15-22					75.53235477014123	74.6107866328218											27.99172834066228			21.84424848688571						14.48338417980751	16.24189369893209	18.764011829549087											8.25	6.573549444257232	8.25	8.25	2.5131499691062475
DD15-23					35.05590127080023	37.30551299030818											25.80567869407			24.286911047086182						31.2789115504775	31.445525030120567	30.747595444321888							8.582138230271259	37.21367554393656	33.91512916783731	37.28699891478983	8.45	1.4969890468322145	8.45	1.2	3.051013812186701
DD15-24					22.508707401355878	22.436475452462677											8.472128157362901	16.75	15.4	15.26435368835826						16.17857642379525	22.195276662335324	13.994151854509996											3.3979368991082697	0.8360393408828247	1.7487437696710273	4.9400670674567175	4.025244890105846
DD15-25					3.0890198677686613	3.0890198677686613											2.331334098260053			2.372750405990369						2.2976037063944537	2.330670354763587	2.372750405990369								1.1382807673469175		1.5935877440623594	0.6080286115511453			0.7229120421068851	
DD15-27					58.72652411780813	58.688699023207036											42.43593917650456	27.33333333333333	31.559678592782486	42.15533031620159	107.83333333333331					30.221409302192512	30.715254666504197	44.83583679558014	58.83333333333334						32.95885030670693	106.95527552929218	80.35427586581838	77.35255727335736	109.08333333333331	49.33333333333334	109.08333333333331	109.28333333333332	42.80670958133515
DD15-28					85.87454597790074	77.88017971397922											124.88811896195496	22.75	96.05907908753012	139.19106275934203	93.55					158.1538421248193	158.13476509872518	138.25608635479972	53.35						17.469163734823375	76.24784711954018	91.23319451837317	105.42237310263344	20.633333333333333	6.083333333333332	20.633333333333333	20.633333333333333	10.433780131597473
DD15-29					138.51545802362807	138.03310743426755											155.84996857645032	69.0	66.64556371492692	155.75318892329386	143.25					121.85781351142084	121.1585432657018	139.754453874285	58.5						45.62193184678978	33.4	86.33333333333331	36.0	127.93333333333332	105.0	127.93333333333332	139.13333333333333	51.296783877442884
DD15-3					79.03080365465495	76.52823761929794											12.223388047366354			11.698604767852602	18.5					18.885713359827573	15.192630660972945	14.778657652475145	7.4										1.877558678001126			2.8529125809543507	9.290861628000428
DD15-30					1.9959805277492064	1.9959805277492064											6.0	1.5	1.2	6.297603706394455	1.5					6.748494523416108	6.748494523416108	6.297603706394455	2.0						1.2	3.427712497436387	2.9979902638746028	2.248494523416108	6.0	6.0	6.0	6.0	1.9959805277492064
DD15-31					4.241461663983988	4.241461663983988											11.5	7.25	6.8	11.5	6.166666666666668					11.5	11.5	11.5	7.25						3.4974908723601787	5.5	4.25	5.5	10.25	9.0	10.25	10.666666666666666	3.077146180176285
DD15-32					4.652302071134887	4.505544470240009											1.8125923293231057			1.9206946684187989	0.6					1.7644882721013142	2.1144944094570164	2.180027675769016	2.25						3.6	1.9277124974363864	3.7484945234161073	1.498997565956778	1.5967867588557827	0.33067035476358697	0.60121946669022	0.7484945234161072	0.2284681790096589
DD15-33																	95.30034835528221	12.0	52.75867612961839	98.49180608804909	30.666666666666664					103.01197900548664	110.21397461551477	115.57419549502872	45.06666666666666						23.975918216313016	52.22623140391307	20.066666666666674	51.84255426004262					4.989963489440716
DD15-34					32.31162125286582	28.34508167758684											9.385138688839033			13.334671272803845						13.832753844041884	15.000035656193454	13.732706536170015							6.9628541623939775	7.307701389777352	6.250310292386532	13.715939138600021	0.4960061773240895			0.4518200263168032	
DD15-35					107.30795042926071	107.25930316625221											108.27810490070354	42.36666666666667	124.14499372261182	105.62481825148113	40.86666666666667					108.43851899677715	108.4886811963711	105.33362735713892	44.83333333333334						99.24349478696524	89.89695418093052	89.92299720686367	107.09219091788464	17.766666666666673	5.4	17.766666666666673	41.066666666666656	19.00465919584445
DD15-36					33.672765214245594	32.7386099369377											28.84066745554232	0.8	7.996753354560902	25.92914971407671						21.787420872034694	21.69280707692359	25.56491292086591							7.903616663248515	2.8	5.333333333333333	2.1333333333333333	4.0	4.0	4.0	4.0	1.9959853957762856
DD15-37					50.56484003631322	50.56484003631322											152.0	152.0	76.0	152.0	152.0					152.0	152.0	152.0	30.4						38.0	30.4	38.0	76.0	152.0	76.0	152.0	152.0	50.56484003631322
DD15-38					4.247461750501005	4.501147258953308											0.5385672595039535			1.5311728900486794						2.7745475219940308	3.2131357082186605	2.7745475219940308															
DD15-39					7.360135353110494	7.360135353110494											11.718255507487298	7.966666666666668	11.231062786643276	11.609156504124348	7.133333333333333					11.36642686122449	11.201422220054116	11.767019015236038	7.933333333333333						11.497059541268143	7.764125753594768	5.998998602708763	8.044917539654806	0.3983969360155897	2.0	3.447830110498302	6.633333333333333	2.1295318648331345
DD15-4					5.939278026007703	5.939848353792812											17.09353628676766	4.25	5.666666666666668	17.0	4.25					17.0	17.0	17.0	17.0						4.25	17.0	8.5	5.666666666666668	17.0	17.0	17.0	17.0	4.241468966024608
DD15-40					38.20651572538475	43.20913327910799											69.07765911886273	129.86666666666667	122.91666666666669	74.13822612972297	150.86666666666662					85.00087194628573	85.0733703955771	77.79800738609137	108.95						55.95985764086364	54.82275237102903	112.21297725142958	112.49172412018947	127.16666666666669	113.5	127.16666666666669	127.16666666666669	49.35067543154229
DD15-41					16.258556718418156	16.361719755588506											20.626009804342424	19.8	20.0	18.568532800890647						22.35122163442173	22.265818844659876	17.74100583148718														0.2075943343320787	
DD15-42					4.7859960942320665	5.374710561373663											4.384744996114241	1.0	1.7479951319135558	9.135192863471376	1.5					6.486079931190591	6.652087346556876	6.968644416936544	3.0						0.7128541623939777	0.9979951319135558	1.4969890468322145	1.4969890468322145	1.0	0.4277124974363866	1.0	1.0	0.5987964949811796
DD15-43					22.974230052319736	23.061292324976566											38.94300994381955			38.100889834487354						39.849469471117466	42.0105969868686	38.244267913446656								8.468697101132918	14.304536851590136	11.51017852213674	10.333333333333334	10.312566060037565	10.333333333333334	10.333333333333334	10.395763760402591
DD15-44					2.7444750511653133	2.7444750511653133											7.5	6.75	4.2	7.5	4.5					7.5	7.5	7.5	3.0						1.4554249948727733	1.9277124974363864	3.9979902638746023	3.4989975659567785	7.5	7.0	7.5	7.5	2.4949793107068183
DD15-45					126.80440256638443	117.90335369238207											174.84836406203098	130.91666666666669	241.24367571704357	185.91517278866428	131.36666666666667					156.4714339313198	165.23188151031496	182.19736376185767	95.05						35.541980527654225	147.6262995754874	157.71701086608388	188.0359127861049	126.66666666666669	70.5	126.66666666666669	126.66666666666669	59.646703466284436
DD15-46					15.104068166100545	14.905914386494748											21.525509311193986	12.833333333333332	8.933333333333334	21.616125960185837	11.583333333333332					23.73101045884095	23.440567536536843	22.052979139852468	18.83333333333333						4.0	4.6170043722495615	5.13039208125061	6.1467335024753895	10.933333333333332	2.0	10.933333333333332	9.85	6.444191029585742
DD15-47					54.15402006457165	54.515510104962175											52.88945292092335			38.96768433913407						25.61558534771666	30.07298372487709	39.29835560872523								28.86036797402113	26.406991676696357	33.160793912643406	0.5702833299151822	0.2629520674100206	0.3052353952713857	0.5702833299151822	0.1968200064757964
DD15-48					6.6368297306709945	6.6368297306709945											5.783201475513554	4.0	2.6666666666666665	5.783201475513554	2.6666666666666665					4.289296833914163	4.375576923031035	5.783201475513554	4.0						8.0	2.6666666666666665	8.0	2.6666666666666665	8.0	4.0	8.0	8.0	1.9959853957762856
DD15-49					4.4806067051688405	4.7505547432435495											12.915313035177546			10.901912177600117						10.763065069956586	10.265067928283159	10.577673004904582							3.0658643299874533	0.21912722164236773							
DD15-5					50.168367188164034	49.83450102971757											70.99380325339264	58.26666666666666	48.46711345537156	64.32668865388882	28.4					75.98660903739287	81.17372889406508	72.53594966223906	25.316666666666666						4.110849989745547	8.818890132064244	8.389170402053796	11.64925625562051	1.707421151020377	0.5892782370725601	0.6215364795990048	3.991961055498413	14.82733354462057
DD15-50					18.88709595387018	17.29665955975669											11.273509002850814	24.0	43.74945379442063	20.70564513888485						26.415303878700065	27.055824801913968	23.666092142163208															0.14761500485684728
DD15-51					19.321005599839467	19.321005599839467											81.01730167869266	36.66666666666666	39.306074867923975	94.47716761464848	9.833333333333334					105.80598935128172	106.11982180413834	88.34291339752588	29.33333333333333						3.333333333333333	66.81254045755938	70.2036805387245	118.63096999506294	0.36145602105344254	0.8	1.90093701508132	0.9979926978881428	0.7983953266415728
DD15-52					6.7854893203780575	6.732132799807599											17.272422596520414	1.4	4.095381939460247	17.068619133374945	10.466666666666667					16.42706683452951	16.442032137725793	17.497106957834912	2.5						9.398401683469409	6.7479942304433695	6.7479942304433695	7.76295945274464	14.566666666666665	6.833333333333332	14.566666666666665	14.566666666666665	2.1813275637767027
DD15-53					46.014798102730865	47.00357744292248											43.99678775792668	2.0	4.0	56.83181158691986	2.0					25.427162930492305	28.92744291796205	37.059793839328535	1.0						1.4666666666666668	1.4666666666666668	1.4666666666666668	4.0	41.2	11.066639135668566	41.2	21.41393660604612	7.290196973488728
DD15-54					8.251453863788258	16.88256330229039											5.312012789750102			7.8909599678265785						21.500056215391336	21.500056215391336	10.481404287647527											0.3795286634254472			0.09018303730887764	0.09372386485519002
DD15-55					6.4057900208698255	6.4057900208698255											23.626256187686486	7.666666666666668	8.5	16.454045920544427						13.764386078783176	12.434329087661107	12.615837746057599	7.2						7.498329276594629	13.083333333333336	9.95	11.7					
DD15-56																	2.9611859472392728			2.9945917047753468						3.950124529772517	4.081864299543051	3.0995179310216314							4.989965923466128	0.1643454162317758							
DD15-57					9.488037820003756	9.561835633280019											2.3903816160935394	4.0	4.0								6.179596158064941																
DD15-58					0.6653268425830686	0.6653268425830686											4.197528223466627	0.5	0.5	5.220928600899158	4.666666666666667					0.9572252761221394	1.1342011594907393	4.393843926257676	17.766666666666673						1.0								
DD15-59					11.375286188444289	11.891659799313253											3.427355219554085			1.4977195575953883						3.7850643819899865	5.3018875032775235	3.2054283294942616							2.3959805277492063	3.781659364568661	4.434339328278377	7.947860266603848	0.9248524294285212	0.28820080213963234	0.5719904736807769	0.09606693404654412	0.14687245765036724
DD15-6					4.657290332095021	4.657290332095021											1.6335035494397292			1.3694954796770042	1.0					1.9374952077802448	2.1331357832052533	1.8103892860284536							0.7983953266415728	1.3333333333333333	1.0	1.3333333333333333	0.8	0.5679997281032411	0.8	0.7983953266415728	0.9979926978881428
DD15-60					42.747252069981634	42.747252069981634											5.061870444393966			5.682115325979607						6.040595625013224	6.682161241696745	5.061870444393966								1.9840247092963577			129.5	32.35	129.5	46.456546650971354	43.66207911538335
DD15-61					82.35895347636577	79.51389293723383											160.95393881095777	60.25	87.5	158.93638017954657	0.8					135.9473440185823	142.90201793778652	157.8099240176774	52.83333333333333						4.825708324787955	52.109789050299796	45.92835446137378	49.34803719267442	4.066380236851228	9.0	36.24375087978786	36.277017189462654	27.621073540670942
DD15-62																	1.1382807673469175			1.8406715794451256						1.0571847931809235	1.7534714182239368	1.1062913129369705															
DD15-63																	1.7098378591824392			6.874996520453029						5.847735541042192	6.027894626054772	6.1923878757167765	0.8						2.0				0.4979983562461834	0.17080557952370656	0.2071788265330016	0.30401430577557265	0.6653300879423706
DD15-64					40.63869553934518	40.63869553934518											103.32264070353895			103.76353450989042						101.52715045081159	108.69525118902712	106.17818863362885											3.541324523413941	6.4	42.885207639239795	6.4	28.191395778218226
DD15-65					54.21929404109794	54.21929404109794												79.0	94.33767046752169		25.26666666666667								35.4						41.59895814102303	113.57855397998024	70.04923525087062	93.642857627129				98.93333333333332	34.74438141836646
DD15-66					1.9959805277492064	1.9959805277492064											3.0	10.8	14.25	4.060745969707215						4.195190808046768	4.195190808046768	3.495013923511113	6.0														0.9959975222101708
DD15-67					58.81561745040256	60.58291248809071											49.76401363882879	87.3	79.16666666666667	86.95391848792319	0.6					86.60361958258328	85.20345374257063	86.24000650719982	57.66666666666667						40.3	87.72096196097485	51.328247958106395	46.54945790766872	27.633333333333336	4.847408304279049	27.633333333333336	38.766666666666666	31.177807663202838
DD15-68					9.5148059990702	9.842839526063363											18.95508684665272	7.666666666666668	24.888587167023054	19.415753065828813	5.75					20.787462119888765	25.66542088044384	22.33256179422645							4.590773128189044					0.9348950307600328	2.0624731489796595	0.3795286634254472	1.6854964346136545
DD15-69					8.886198013981371	14.514716160768144											14.0113263160253	7.133333333333333	19.515573012938365	23.571522984812823	7.8					26.182065431211853	26.030095018621758	25.013081548539425	5.133333333333333							0.13200403488136248						2.0	12.325208342324233
DD15-7					11.884970846040591	11.823163207450275											37.260985754193285	16.866666666666667	31.16836828301735	37.06623865861883	25.2					36.25002517932697	36.30791329693493	37.411351288618654	24.2						24.2	16.459702696973846	12.0	33.36477111007448	29.33333333333333	25.33333333333333	29.33333333333333	29.33333333333333	11.44363454402483
DD15-70					4.651818619408318	4.651818619408318											1.7528663557140922			9.837148787943672						28.396301668455358	28.543621227723502	19.622774367899357	0.6						0.4277124974363866	3.2600832807150075						0.497997141673427	0.9900302616102188
DD15-71					61.060903781978034	64.36998823262482											44.05838848726032	12.75	73.1787836563418	37.62553851998485	29.75					10.879341708643706	12.16961965892411	26.06546638330695	19.58333333333333													14.55	23.037035083670894
DD15-72					8.449679167851771	8.449679167851771											12.92209477816905	12.666666666666668	18.377036418061444	13.186102847931776						14.651933469774168	15.489632217984884	13.431564619207206	9.0						32.859712072530314	18.867078670976557	33.58876631288654	22.79545295437785	1.8072801052672127	2.8514166495759112	5.027402095509888	7.385149469365434	2.839998640516206
DD15-73					15.875144779815516	15.865810471039447											13.128595508032836	7.0	9.553577860867556	25.53285906920875	17.25					27.30359700445445	27.17858049064587	19.34211637541991	17.25						7.659548269328464	19.92142097171176	11.939393260999427	26.146234820780755	12.166666666666664	2.35	12.166666666666664	13.75	8.56610390909581
DD15-74					8.484977313732344	8.484977313732344											3.991961055498413	12.0	9.987951319325523	3.991961055498413						16.01944150422073	16.009103432856158	11.797597422668288														1.9762153765437287	
DD15-75					18.28226569703182	18.1795511270852											12.0	24.15	22.65	16.77461096350974						24.528795325961305	25.889975843409147	17.783101234942336							12.8295269772527	16.242181057847656	16.068480730621445	21.632475434195953	6.75	1.6599958703502846	6.75	22.5	8.73242393645355
DD15-76					18.03623896621763	18.729259259936775											3.5801468692926286			5.282987042127245						7.1734109798926005	8.886609465514473	6.165269799434872								16.332245640948635	11.950311653658295	19.330935150090827	1.0843680631603276	4.1345527510090445	5.987960568570327		4.880367324460674
DD15-77					10.081153140007284	10.047953719223964											15.19589483927699	18.33333333333333	10.833333333333336	14.086016857871122						14.650583926021822	14.663027892277414	14.009372662442438	17.5						1.5	6.0	1.2	6.0				24.43333333333333	12.237297994768255
DD15-78																	7.5847556030949415			12.666666666666664						12.666666666666664	12.666666666666664	12.798670701548028														4.312618808916281	9.148283841149645
DD15-79					2.1613142481310987	2.1613142481310987											3.0987964949811806	5.0	1.0	3.0987964949811806	3.1					3.4979902638746028	3.4979902638746028	3.0987964949811806	1.0						1.0	2.6646569305412697	2.9989975659567785	2.2479902638746028	2.5	1.0	2.5	5.0	1.8462873673413585
DD15-8					22.84323804752843	22.944318369936518											38.86359448088071	14.783333333333335	25.05	42.32789957130058	19.75					41.15334904408096	40.2482997219742	41.62011380187975	22.25						4.829657741841518	30.293449537579928	20.81258910206534	32.529464159522234	26.16666666666667	18.5	26.16666666666667	26.16666666666667	11.070596289509904
DD15-80					4.963453978113778	4.924220992902419											21.470122442898763			16.89789957521357						20.06479633798124	19.128527366226187	16.781153363892845															0.09353628676765716
DD15-81					0.6167783198982051	0.6214644582809132											2.9758284808939157	1.0	3.7492891294819533	1.8736039858011304						1.4866681082005924	1.9603892701552816	1.4866681082005924														0.36047221389102135	0.2851416649575911
DD15-82					12.954937207149987	12.368927091446517											20.781881190354703	16.8	16.85	20.781881190354703	17.25					17.76678260632348	16.401367459013294	21.15165785079691	17.75						4.7454835702483225	11.126791330658984	12.988893897860065	10.901916632431641	0.2710920157900819	0.75	7.202189755917287	4.5	5.2218589392476895
DD15-83																																				0.3326650439711853	0.3326650439711853	5.7279831381180175	0.07071639798048095	0.14257083247879554	0.3421696641391888	1.75	0.4327837322043862
DD15-84																	14.76256391599838	6.85	15.176229470204838	14.47574988503794						13.143880451086938	13.782764142285547	16.532311909517645							7.490963489494143	2.2811277561837637	2.245483570248322						3.6389416572159896
DD15-85					17.947393013325545	17.93408250220735											15.968756363753199			22.58478504570725	8.0					21.225110430033947	23.4457642049131	18.362216995673712	15.5						5.9879610553844325							9.833333333333334	7.235444625675497
DD15-86					9.712230916383733	9.712230916383733											10.494734048345329	2.85	5.7350184379879305	11.731560915289776	6.166666666666668					10.654743345725878	10.534535432490992	10.425344058199338	5.916666666666668							3.3306536851661366	1.3979926978881432	3.2284818301706464	0.19919846800779487	0.5	1.378182627656697	2.3666666666666667	1.327599387865625
DD15-87					8.84804960647862	9.047645889595485											9.646650821511278			6.485456147848287						5.671442078301704	5.6284942820854535	5.895801194219217								7.32022330833636	10.187562321058362	6.6559716028468845	0.3493749560702593			2.333333333333333	0.5702833299151822
DD15-88					126.87670239979154	127.00473760565693											247.430739471836	123.3	252.8876594850782	264.88282169913134	123.3					244.56830734463216	248.90898988376802	247.4722847858233	123.3						40.5	99.39584422197098	86.85490165833578	143.99886816668982	10.8	4.879656284221475	10.8	135.3	58.895844221970975
DD15-9					34.477589314281545	37.96307569981788											62.406185576122866	24.65	47.70579345783422	63.18563630149602	18.7					61.759774104089615	61.792874271037924	63.24847366706683	32.3						17.247990263874602	24.223596575549088	31.744690788185586	28.373813077123646	31.75	9.05	31.75	34.75	14.5302917655618
DD15-90					5.536263195969228	5.591683966436569											5.277450571115105			5.139672600755211	4.5					5.680151687470437	5.680151687470437	5.277450571115105	2.25						4.008366182602524	7.596585020829103	8.553680043669232	7.5430431700938465	0.4661523596992537	0.9959975222101708	1.1204963015539129	0.9959975222101708	0.8132760473702457
DD15-91					12.877179209178722	12.940191142935838											11.188009086321445			11.188009086321445						9.487323611705493	13.172596308299351	11.56802696854091							14.916666666666664	10.669129141855922	13.99575321297892	10.321641746685806	13.0	6.5	13.0	6.5	3.2434762681364653
DD15-92					10.30682556568526	10.408549319999214											10.305840649434092	11.3	9.25	10.868238616822882						8.895588505351087	8.895588505351087	10.701823763491776															2.245483570248322
DD15-93					3.824601637177256	3.6579392577600713											4.671956589554308			3.397992697888143						5.192774399780387	5.192774399780387	4.1751096426312415							3.7861476599026345	3.8296540908034	3.6965893389064313	4.395178191069993		2.0	0.9675373196890488		0.839091743893323
DD15-94					8.01588859788083	8.01588859788083											8.697012249051529	5.2	8.666666666666666	9.406752011816039						11.489062457196038	11.489062457196038	10.5866972019595							5.1895696231702235	5.179160168202668		3.6994124938774835	1.0725301676074117	2.589580084101334	2.1623227858127043	4.333333333333333	
DD15-95					7.688248344901693	7.709139069047308											18.655819704768728	4.0	0.8	17.9343554062977	1.0					14.823132912382352	14.823132912382352	18.347883707075233	1.0						16.856090721503566	1.3306601758847412	1.3306601758847412	2.792779267807466				10.666666666666666	4.25809802361542
DD15-96					7.833826696987692	7.8446498221261916											6.815738016852505	21.0	4.2	6.75						6.75	6.75	6.75														0.9979902638746032	0.5502499314075538
DD15-97					12.304701803499356	11.943972902732543											5.853598407280152	1.6	2.6666666666666665	1.3306601758847412	2.6666666666666665					2.4150282390450686	3.5252645059491607	2.1226843851729162	4.0							0.5269590790821358						0.4930355472562669	
DD15-98																																										0.17366435282388598	
DD15-99					33.391989648071196	32.43378131227144											68.12360992563829	49.95	49.337837669233906	66.01507437039207	71.28333333333333					74.55807967468762	74.55807967468762	68.41116540218982	38.45						21.41717555224891	72.17888867697711	35.820320051897006	40.534873648503044	0.13392703240991458	0.4277124974363866	0.5987964949811796	69.45	8.119718447020588
DD16-1			21.67926687771479	9.0			45.465661711825426	21.67926687771479	21.67926687771479			15.7514843442459	25.38267854717341	1.3306536851661372								7.873504744048989	2.3096788229674274	21.864749679646287	52.0644087885737					51.7061750897717	52.553646036420574	25.53061604691037	57.86808143225206	41.898871686928636									
DD16-10			4.3160007211936335	2.8			1.6666666666666663	4.3160007211936335	4.3160007211936335	3.6144595827333212	2.6843393282783774	2.6643231915271404	2.829650034110209	4.349666170861446	6.758739708110192	6.758739708110192						8.201845149337919	5.911824622230557	5.201815821909691	15.969415584849127					6.6486595829139326	9.22631612332232	5.302067184449056	6.4129385396534815	7.976189991611839									
DD16-11			11.993974036983113	9.0			4.8	11.993974036983113	11.993974036983113	1.9959853957762856		7.3226259835143575	3.3266423263017253	1.1983953266415728	12.104761356946408	12.104761356946408						9.270148478452905	12.405937277164874	10.010307380025553	36.584259097160356					15.25076656047743	15.25076656047743	23.433639723014412	20.709958293739813	18.355430496914586									
DD16-12							0.3326650439711853							4.130392081250609	2.0	2.0						0.19840247092963573	2.180004863542932		19.279307387992233						1.0457930501542714	1.3306569305254392	0.8192825080382738	1.3306569305254392									
DD16-13			22.1	22.1			18.0	22.1	22.1	20.33333333333333	15.9	6.864259656629026	7.74448304865582		22.211053120365328	22.211053120365328						32.800611104654905	22.80599872356255	29.970839715769035	40.247611034022896					23.61784297955627	23.61784297955627	23.61784297955627	23.45636919611071	24.585370305076584									
DD16-14			25.16666666666667	25.16666666666667			23.75	25.16666666666667	25.16666666666667	15.050918030825727	6.293378288374638	9.75	16.54551970874426	5.417668684848355	14.134307072307134	14.134307072307134						18.065743208627246	16.151911629597432	21.9746871482791	40.938028715032466					25.578811122770638	30.19685992980218	26.29165780924881	20.421953013674127	24.90600041101789									
DD16-15			13.987956187328859	8.0			8.0	13.987956187328859	13.987956187328859	16.67123011220438	17.251134053922602		3.2	27.65530746049268	22.852153680115556	22.852153680115556						45.22238109019868	35.51926573264435	49.13423772970546	92.20208426191294					51.11074487661396	56.99705655376784	57.53461159191479	40.60634007384417	58.160377450906154									
DD16-16			5.007816270387621	1.6			3.0	3.781331504574018	5.007816270387621	1.3306561191796773	1.98253099665412	1.4989963489440714		0.7484941177491626								27.95004188894228	11.288915590053543	9.774932989679163	56.74429122386442					30.63323564847629	37.06517234752598	28.83988473524588	19.283622993323977	21.145770062313773									
DD16-17			41.930392419043386	22.25			55.25134995911832	36.83973841663584	41.930392419043386	2.0		5.204828083409975	22.719335220123163	3.0	96.86356130485865	96.86356130485865						10.822228049637818	27.15288026834633	18.67937459009968	49.28087991020921					53.10459486934946	57.66291009541769	40.56498242697789	6.9752071342190485	60.86537661611854									
DD16-18			22.558313745077825	18.4			8.0	22.558313745077825	22.558313745077825	26.067807355578807	22.443855181089724	9.484446538096538	26.707178443539753	28.27372239224485	154.23815678384952	154.23815678384952						127.59315451459946	93.91304772143965	113.99370322279587	145.687051306526					145.6367446822289	145.6367446822289	97.35562300630043	116.31175725602004	120.65971364948992									
DD16-19										6.774499256292169	8.31385848828942	6.952679817020751	2.733333333333333	2.174197284727097	8.997552681512484	8.997552681512484						5.1459035843371295	5.522902312965806		35.785644092988896																		
DD16-2			13.917878086828127	9.783333333333333			2.367077201946362	13.917878086828127	13.917878086828127	12.058643588440145	11.561316745888734	16.2738999931637	9.466666666666667	1.9959862071220482	15.452088059496374	15.452088059496374						56.16761154220444	39.23890898714402	27.7878364534232	87.18505001726608					46.85142533366742	53.76467068022983	50.498888350305606	33.478836959685395	38.73520706598933									
DD16-20			33.96666666666666	33.96666666666666			40.041312933730076	33.96666666666666	33.96666666666666	37.49501334879049	46.03900557406997	70.59582770756725	59.46159896063142		11.622170430426873	11.622170430426873						68.2939278843379	39.536613096941295	78.21456890401289	90.60756408314276					72.73363957210722	72.73363957210722	72.8138851153817	46.88317996813746	56.84796777743095									
DD16-21			4.5	4.5			9.066666666666666	4.5	4.5	3.1833356772224493	1.1666666666666663	2.733333333333333	14.524362061528661	8.376644489941993	4.2975257229027095	4.2975257229027095						22.31288957365388	11.73429206862235	23.733667443117252	28.75631897949461					10.95653487444182	11.990940184780412	10.129167858698732	23.12217189708468	14.655984861964033									
DD16-22			30.294516772321934	28.75			35.501260370772954	30.294516772321934	30.294516772321934	21.61960821235437	3.9	1.9603450347541571	4.645481136234783	2.808640109886189	31.50635346136037	31.50635346136037						55.140377385284786	63.753415371873075	39.16666666666666	65.34183331574799					51.02331892094859	51.02331892094859	51.1419344358926	46.931533531767435	51.91985421793394									
DD16-23							17.501536294471858			34.321644099905704	3.45	1.6653300879423707	15.25	5.0	35.86345909874885	35.86345909874885						40.42042136252812	24.52839808472301	32.8352381331329	47.70487815337968					16.00712261204363	31.47740754298236	19.3505726719228	16.131354656148098	36.53342559690882									
DD16-24			37.35	37.35			39.5	37.35	37.35	30.51229685121063	31.136340219601465	29.363090973951373	20.265662599737333	18.60843544981929	51.857345732440216	51.857345732440216						80.46374294401171	75.96458364426941	77.89954456587485	89.98061606377436					89.93294009884943	89.93294009884943	90.58335507285366	87.10693417940986	88.28713725512688									
DD16-25			0.9	0.9			1.4	0.9	0.9	2.6639870184994705	1.0	1.0	2.6639870184994705		1.3001068872588617	1.3001068872588617						10.263544615894492	3.1653438925958697	9.687127128340984						7.808754379145028	7.808754379145028	7.144384392853127	6.018025997099057	7.366384125088732									
DD16-26							0.4578530929070786			2.6969890468322144	3.0	2.0	8.195588121875916	2.5								3.148648225911173	1.7661303184807169		60.14000958002103																		
DD16-27			21.36153816328579	12.0			26.991291978652487	19.48020951022213	21.36153816328579	6.540530212379634	4.764123337564248	6.841267083726993	5.6905625645437805	0.9979951319135558	21.565667971868567	21.565667971868567						12.24980953651375	14.75370371933322	19.734660133410358	33.47615476015901					53.11850127036295	53.11850127036295	49.218402058779446	47.734235087194044	53.74745770981468									
DD16-28			5.16031791772626	2.0			8.166666666666668	5.16031791772626	5.16031791772626			0.5	2.6666666666666665		8.731102482164076	8.731102482164076						14.065841744949214	20.2494695182974	13.97881484155941	22.056713687722745					7.592383171107705	7.862932283034338	8.83769087986382	8.149371171329777	7.552973805735105									
DD16-29			2.0	2.0			6.0	2.0	2.0						6.207718978696064	6.207718978696064						6.493705519804722	1.1951908080467697	6.0	25.57217820478429					3.0	3.0	3.0	3.0	3.0									
DD16-3							0.2																		8.496061290583539							0.5318618892993292	0.6146956897043063	0.6978609365238049									
DD16-30							3.5666666666666664			1.2641233375642482		0.6666666666666666	0.4277124974363866		0.5	0.5						5.110324238445915	3.5	3.7484941177491615	7.5211904323033					0.4989975659567779	0.4989975659567779												
DD16-31			7.5	7.5			10.416666666666668	7.5	7.5			2.0	3.0			0.2839998640516205						16.855431477935255	8.535071913920042	17.628004296061963	24.32744471395725					13.046665003919935	13.046665003919935	13.210513091548854	10.827335406482003	12.041358920940313									
DD16-32							4.485211793440917				1.0653268425830686		1.4	0.6653268425830686								4.0467598593758485	3.1402781650896348		24.45374023422564					15.44648104390248	16.107821753429654	15.44648104390248	13.845990057794936	16.609024277568835									
DD16-33							0.9959975222101708			4.5	3.077146180176285		0.6666666666666666		17.850435291839627	17.850435291839627						3.5296011699520533	4.117246566123823	0.3727504059903689	39.332460431892734						0.6639983481401139												
DD16-34			1.5983953266415734	0.8			0.36145602105344254	1.5983953266415734	1.5983953266415734	2.0	2.0	4.0	1.368678656556755		2.6639870184994705	2.6639870184994705						0.8749075685947274	1.3306536851661372		8.0																		
DD16-35			2.0	2.0			7.627078248634068	2.0	2.0	3.9986634212757037	1.8	1.5682760278033252	1.7963880245297157	0.7983953266415728								4.081337924979506	6.846058098469093	4.331326031221476	10.794846074735513					8.497656524860473	8.497656524860473	7.333333333333332	7.333333333333332	7.333333333333332									
DD16-36			1.5	1.5			9.066666666666666	1.5	1.5	1.3333333333333333	1.25	1.1489963489440715	0.65		3.220104847563152	3.220104847563152						2.5647560680703645	0.3327351634145076	1.0650636026822564	12.957888638092294					5.565663015610737	5.565663015610737	5.399331710637852	4.799197663320787	5.565663015610737									
DD16-37																						0.3944281011150309	0.5410982238532659		12.35					1.9959805277492064	1.9959805277492064												
DD16-38			1.6	1.6				1.6	1.6				3.3266342129153434		4.1	4.1						5.166666666666666	1.5481428736298544	5.166666666666666	13.0					4.1	4.1	4.1	4.0	4.1									
DD16-39			5.32894404357201	3.8			1.7464847872907103	4.2989975659567765	5.32894404357201						16.153839666382876	16.153839666382876						7.7843583292016945	5.110534558739712		38.31833911464121					8.788960670180701	8.788960670180701	15.603966073019429	15.859281692840266	17.478412541286005									
DD16-4			28.08333333333333	28.08333333333333			12.841980527654224	28.08333333333333	28.08333333333333	8.59879649498118	24.0	6.1586471943208885	11.9639241868278	2.6666666666666665	15.733333333333334	15.733333333333334						36.97319176298669	18.913399245653526	35.80302987918609	46.78212070295408					41.01300913587277	43.763513359567355	43.0531384279058	35.49918826485524	41.67317146043992									
DD16-40							15.593294446250065			0.9979902638746032			0.6		6.236036878463597	6.236036878463597						0.4759751407652154	0.8548969862138769	2.6907532044008766	24.942575129783226					5.826634212915344	5.826634212915344	5.826634212915344	3.7449958906154586	5.826634212915344									
DD16-41			0.9979958273515688				3.720889398840036	0.9979958273515688	0.9979958273515688	1.7670043722495627	1.3991976633207863				1.0	1.0						12.5	12.5	13.005332646764991	18.275059909380687					8.159297634206878	8.159297634206878	8.159297634206878	8.733962373703678	8.491295728655826									
DD16-42			5.6633227858305135	4.0			1.9959853957762856	5.6633227858305135	5.6633227858305135																2.0					4.406667623098087	4.406667623098087	4.371096609384448	2.945877562169004	4.1220974312613565									
DD16-43							12.0					2.6666666666666665	5.465061993308238									7.212034877613237	1.3596938814727322	6.666666666666666	18.87440283484515					12.0	12.0	12.0	3.6	12.0									
DD16-44			4.2977940609379575	3.2			2.387128855144381	4.2977940609379575	4.2977940609379575	1.5	0.6	1.8296577418415192	3.0		5.564152393620561	5.564152393620561							0.8102634523345226	0.8077628772711907	9.581993509249736					4.825989519469231	4.825989519469231	4.706252059254673	4.565136055102013	5.8141170637793245									
DD16-45							0.6843393282783775			2.7319935092497354		1.0	5.0	0.8981940122648578	2.7961858988191115	2.7961858988191115						0.4989963489440715	1.86731514672681	1.25	10.288961998937756						0.2489991781230917												
DD16-46			13.5	13.5			4.759924890122166	13.5	13.5						3.0630836682209406	3.0630836682209406						6.1017623705536685	4.5553552494435445	5.5	20.85994308085212					2.326652515923716	2.326652515923716	3.393137048261852	2.924782167392177	2.966281760506757									
DD16-47			1.708502186124781	1.2			5.9927814580459655	1.708502186124781	1.708502186124781	1.8980929494095558	1.0833333333333333	1.7585021861247814	4.4750681956030895	1.0906637818883511	7.8563566675678995	7.8563566675678995						5.6660149991432665	4.958084849123791	4.720397244449996	8.708500130750139					7.267577403911543	7.267577403911543	7.153956980287763	7.3971819003854975	7.189601705074008									
DD16-48			2.6666666666666665	2.6666666666666665				2.6666666666666665	2.6666666666666665			2.9979902638746028	1.9959853957762856									9.0	1.271789322789271	9.0	12.3					1.6	1.6	1.6	1.6	1.6									
DD16-49			3.0	3.0			3.0	3.0	3.0	1.5	0.7484945234161072			0.4277124974363866	1.5	1.5						9.197609654655801	10.424845551629698	9.0	12.497990263874605					9.75	9.75	9.75	9.75	9.75									
DD16-5			3.66533008794237	3.0			4.167077201946362	3.66533008794237	3.66533008794237	5.7963880245297155			0.7983953266415728		4.8	4.8						5.462382345141043	7.1286463830542806	3.333333333333333	8.333333333333332					6.798395326641573	6.798395326641573	6.997992697888143	6.570283329915182	6.997992697888143									
DD16-50			17.5	17.5			20.0	17.5	17.5	8.5	4.25	8.832663421291535	6.666666666666668	4.34116601308326	20.82263537406102	20.82263537406102						15.15044976888124	7.913661218812879	16.108009022791332	25.08909029593453					20.915665844789764	20.915665844789764	20.666666666666668	20.5	20.666666666666668									
DD16-51			5.6	5.6			6.0	5.6	5.6	0.75	0.9979902638746032	2.416666666666667	1.5		6.5	6.5						0.8829361540967486	1.5524286131515947	0.8554249948727732	10.195281282271887					5.0	5.0	5.0	5.0	5.0									
DD16-52			3.953612817014851	2.0			1.9607321492355108	2.5702833299151817	3.953612817014851	9.070444220065939	6.6		3.0	1.6466885356809653	2.966741689470911	2.966741689470911						7.457300218963593	8.883092724880639	1.0	29.846581396016266					11.258907775785827	11.258907775785827	11.006529326198681	10.774828722743703	7.321222159311348									
DD16-53			37.03313749230916	35.75			39.0	37.03313749230916	37.03313749230916	14.498996348944072	8.245483570248323	31.164323191527142	23.584142897481858		39.58586871377649	39.58586871377649						38.3629721637541	39.66964729221888	36.999331710637854	40.3809898581938					42.292164803888674	42.292164803888674	42.292164803888674	40.19638948494354	42.17810880552547									
DD16-6			14.348623591915324	2.2			7.480662715123158	12.783487536813311	14.348623591915324														0.9844366307931234		22.448390351056585					32.62888836781393	36.97408170325886	32.92828515488713	23.864176383214673	33.15055709665796									
DD16-7			0.8989963489440715	0.4			0.5	0.8989963489440715	0.8989963489440715	7.1787865064219964	5.4	2.6666666666666665	2.0	5.44143856886495								10.954189247365413	10.759662372883673	1.1666666666666663						3.221332782713372	3.221332782713372	3.0	1.6666666666666663	3.221332782713372									
DD16-8			5.685141664957591	5.4			2.7959837731085075	5.685141664957591	5.685141664957591	9.727178886476343	2.3504685075406595	6.658627722165079	8.394512173455556	2.1813275637767027	11.19526411603416	11.19526411603416						21.330745925188275	12.591293591222565	20.35822381842153	29.568410256465643					11.545676033437898	11.809155572978964	11.608677030280877	11.291479122250161	11.667513431511829									
DD16-9			18.202427401836985	12.3			21.94388015717228	18.202427401836985	18.202427401836985	26.067977886312647	12.254989407429033	9.59639115399314	15.425904165812128	5.177690140328124	43.24796960655246	43.24796960655246						55.541709380974076	35.362407620169456	30.790945056568127	61.384117191825					70.4705952743643	70.4705952743643	70.70946066955638	57.40021132952853	61.8207192562426									
