topic	BASE_INDRI_50	DDTJU_EXPLORE	FifthIterBaseline	FirstIterBaseline	GU_RUN3_SIMI	GU_RUN4_SIMI	LDA_Indri73	SecondIterationBaseline	TenthIterBaseline	UL_BM25	UL_Kmeans	UL_LDA_200	UL_LDA_NE	UL_LDA_Psum	UPD_IA_BiQBDiJ	UPD_IA_BiQBFi	baseline	lm	lmrf	multir	okapi	rmit_lm_nqe	rmit_lm_psg.max	rmit_lm_rocchio.Rp.NRd.10	rmit_oracle.lm.1000	simti	simtir	simtir20	tfidf	ufmgHM2	ufmgHM3	ufmgHS2	ufmgXM2	ufmgXS2	ul_combi_roc.2	ul_lda_roc.10	ul_lda_roc.2	ul_lda_roc.3	uogTrEpsilonG	uogTrIL	uogTrRR	uogTrSI	uogTrxQuADRR
DD15-1	4.129888413919301	2.3723464462824206			13.397444779372272	13.3013802994264											6.900257234439192			12.143094226967929						13.275841788892508	13.275841788892508	10.1655985661587								1.2387283752783431		0.9958320048917904					
DD15-10		16.894549764396924			18.775712287000026	18.775712287000026											32.678009418945344	19.590643369957945	30.44777719455327	32.678009418945344	15.77517698795793					32.678009418945344	32.678009418945344	32.678009418945344	29.98191581338432						6.194569654526558	17.22563441159068	14.133243156908215	15.346588166144874	32.678009418945344	32.678009418945344	32.678009418945344	32.678009418945344	18.775712287000026
DD15-100		5.8445663035354105			19.606944091842774	19.736731832985093											13.509946808227305	21.565689147878018	41.26562548772597	14.640207576625516						10.696720724507568	12.778005152077393	11.52994072226052	11.602766084219205						7.164521137895276	12.724928873197124	7.164521137895276	11.546286020757625		2.023320641359501			2.0735112362433323
DD15-101		21.93941652357778			34.068288604934146	27.423729560750928											34.153025859550056	40.26862552809498	51.86682644897647	19.977517085663663	9.033539449165623					19.153217926772022	19.153217926772022	14.94911008895631	8.203972185916081						4.730272685535779	7.778511209460294	8.672507887432612	11.27287738462646	2.5972331526088834	8.0	19.985901572996603	27.14353306724373	1.7649703611302594
DD15-102		4.652798286312937			8.431407343235692	8.105837723099619											8.314682355364711			4.0917537458693305						5.950577434055504	5.950577434055504	6.150352143510706							1.226933783556264	0.3660530937409561	0.34444860299113433	1.5174143494248575					
DD15-103		15.688570481618669			56.74621683071542	56.64964711167635											49.89323546783924	12.934568232171998	65.18947941866108	35.423205955480164						33.123224030419514	33.123224030419514	33.2537026015819								0.32048288772318057						10.682570053360783	2.3236080114141777
DD15-104		23.78420410338594			25.46265275325892	25.18786844012973											28.150767867592364	2.8590321482430263	25.493587224394307	20.052046913503307	10.315544982346774					17.413943714560038	17.413943714560038	20.41948790253885	5.544317561017321														0.3370900905634459
DD15-105		13.1302116379201			21.645782672606167	13.959609561516034											18.329986663755623			8.508120312266438						15.049622079254188	15.149030954406154	15.049622079254188							5.737405789863738	21.989223863089823	23.675406036734966	30.825313228805705				5.5111776478581485	5.075455515379437
DD15-106		1.8817257062464352			3.680379682174225	3.680379682174225											5.438411570888498	1.7718483274489236	3.7321061874819126	5.438411570888498	1.1496728800117648					5.438411570888498	5.438411570888498	5.438411570888498	1.7718483274489236						3.0	3.308349349893092	3.1217872204865937	3.34735571011142	0.9516479091336444	1.4295160741215132	1.5647470335992015	1.3237277708476949	1.3100917072957932
DD15-107		1.0637390883072817															1.1212447115561444	4.72492887319713	3.3524782735712413	1.1212447115561444						1.1212447115561444	1.4356296932863664	1.1212447115561444	8.0						4.0	2.362464436598565	1.9060214321620168	1.6762391367856206					
DD15-108		29.631254940946413			38.666997321505974	38.018027492324244											40.50406018837264	13.029625973466668	16.674204485493508	26.84925079138789	4.0					24.687667513046822	24.687667513046822	26.84925079138789	5.906021432162018						2.3502583421291674	2.0863293781322687	1.5838097554546575	1.7649703611302594		6.258988134396808	9.349728482232036	6.652210437356214	12.603559719038065
DD15-109		49.52197337614224			106.50558720991829	95.07767590455208											67.24182265476637	64.20621049662357	83.07886573555069	74.9843981410099	36.174507300922606					13.699627351949115	13.699627351949115	45.03475484399682	19.30877166444169						4.971815778860057	3.00931428323646		2.6555520130447743	7.707404474271621	1.9060214321620168	7.707404474271621	6.718161264005407	4.337090289758847
DD15-11		36.383967538687756			54.50143361255818	54.98366150674608											65.19623610876073	39.989020261187854	39.77733939209836	64.24139430668748	42.952966230372404					64.58444558005918	64.58444558005918	65.81368668841087	42.500177634712095						32.82438812016988	45.97533913176228	31.592971679822945	45.477515726431896	42.44074518264182	28.449857746394247	42.44074518264182	42.44074518264182	29.222856123827054
DD15-110					11.913549937629252	11.913549937629252											15.214616588987756	12.865644667093616	10.347055920105882	11.913549937629252						15.562776421609328	15.466813754198387	15.562776421609328								7.555043456400611							
DD15-111		5.939286582954966			5.261971576282441	5.261971576282441											9.816378010126924	7.1475803706075665	5.748364400058825	9.249655661891463	7.1475803706075665					9.355006393223684	9.355006393223684	9.355006393223684	8.859241637244619										3.654808768224356				
DD15-112		8.344168389223617			38.05551914205416	47.54432141707202											20.196245534510904	64.72373781367844	92.7826926019148	14.502794073000928						4.953010716081009	13.671749723594164	4.953010716081009							7.085743561550082	2.2993457600235296	2.8590321482430263	2.8590321482430263					9.081858348750266
DD15-113		3.0			4.651610775158415	4.17757733163618											6.682960253597631	1.7718483274489236	3.967667633668455	5.597488086807121						4.65267503918525	4.65267503918525	5.3440930897821834	2.0236279392637253						2.2965626991184496	0.9530107160810086	0.9530107160810086	1.1812322182992825	0.4853551868643908	0.6409657754463611	0.6344319394224296	0.7447669085376669	1.0767222699647747
DD15-114					6.258988134396808	6.258988134396808											4.306889079859099	5.718064296486053	12.0	4.306889079859099						4.306889079859099	4.306889079859099	4.306889079859099											4.209577261025953			4.209577261025953	
DD15-115					24.163465764980412	8.371947668566044											7.811642890134085	19.640100778888183	28.671872048693434	6.852945940633662	15.924271799463394					6.83127511776888	6.83127511776888	9.203189598430763	18.107203605539166													0.2964737589188135	
DD15-116					4.894402712067818	5.041683031261639											1.9129085564052355			1.9129085564052355						1.8173847705970665	1.8173847705970665	1.9129085564052355								1.8302654687047808	1.8302654687047808	1.9797621943183217		2.0252973836155306	3.1803063712683968		
DD15-117					1.3237277708476949	1.3237277708476949											6.177728305922591			6.265562451793553	4.134312764047489					4.6761831852190685	4.6761831852190685	5.140972687800925	7.0						5.667209937396509	5.488647087229623	4.955277014797711	9.041919236600464		1.8605539308824381	1.7783300029468418		
DD15-118					29.63353018656753	34.129108786184375											49.88503167176446	4.896885495380952	17.627606193282173	48.261760951383906	29.895103649455066					49.44825618361378	49.44825618361378	49.470925748563346	29.616892282387198						2.2993457600235296	4.896885495380952	25.296042506014672	4.681872550226052	10.912840548134218	18.58370896357967	24.47509467268323	44.718064296486034	2.7985279885613914
DD15-12					271.5456888159251	238.06668154621727											266.0387020092112			317.45931360757226						361.8376130265946	373.5826008576128	293.73722467166226							17.15419288945815	12.628731783077855		14.864740503340121	11.156712557173275			10.673055321077284	
DD15-13					4.796498421610265	4.814532461150916											5.6536522218984855			4.015708555903202						7.521377247614565	7.565367266571562	6.323680844164826											1.5838097554546575	1.2003878732212745	1.1920804392828623	1.7649703611302594	
DD15-14					23.85639480342964	19.6160572560538											42.83620049460301	1.53289717334902	1.53289717334902	40.12813902605559	3.810482071165912					26.53261506870311	29.744332288767236	40.20723850562383							2.0863293781322687	14.34347007028348	17.939681798800372	21.216109041284014		0.5058301603398753		1.6045681550673203	
DD15-15					165.45690185071	165.45690185071											180.51451150056442	133.8653199540778	161.9680667553159	165.82615094734817	120.7028507544816					185.37250197196164	185.37250197196164	182.3835122952298	115.50032368388895						12.389139309053116	27.53071037931648	26.0	87.5456472944539	133.8653199540778	57.21312035873993	133.8653199540778	133.8653199540778	53.19889490999206
DD15-16					21.780828564719414	21.780828564719414											41.26579341869749	41.0	41.0	41.0	15.712196026827455					41.253394997024934	41.253394997024934	41.24750076074585	15.712196026827455						17.181451152052613	24.21526047513529	19.53671967966068	41.0	41.0	41.0	41.0	41.0	18.090946201585158
DD15-17					77.27705695642072	78.06161076835261											44.18163160823269	14.945747440152946	23.034028256836013	43.73714052595126	39.0					37.47895546007109	41.25659218615244	41.80247685046414	23.034028256836013						39.0	39.0	18.58370896357967	23.034028256836013	46.12401633133889	23.034028256836013	46.12401633133889	46.12401633133889	23.939652481702318
DD15-18					6.4682598611552535	6.4682598611552535											6.239682072280598			8.04708235870803						7.557748849397438	7.557748849397438	7.153845814263513											4.315272021197758		3.098461868945072	4.477831838884746	
DD15-19	0.8186017092333413	0.8186017092333413			17.03299384978748	17.001271233049046											28.239429668387604	12.96877708598814	19.45638756051973	28.566843695426417	12.626444832660727					25.69722373632784	23.924238925513983	27.499550555241946	12.626444832660727						16.45579379297316	18.578317485597367	16.919349515025267	24.327554091521392	13.41555726085577	7.0	13.41555726085577	13.41555726085577	8.629263664329615
DD15-2					28.2582291759923	27.95302512183927											10.882020406115501	2.6724700188365267	5.958963234900768	19.226585565248183	2.0					7.14648418598017	6.9551341652794125	9.981815611171244	1.1812322182992825						1.9133384057811949	3.0267281792041767	3.9564588024138194	4.159206854002652	1.0	0.4765053580405043	1.0	1.0	0.5215823445330672
DD15-20					32.431730143679445	32.615987658068924											24.039693737055348			17.96486561041043						13.554608710713296	20.939078889112007	16.90678608281607											3.4650106504418736			7.320994256194599	
DD15-21					49.22645948125857	49.22645948125857											86.71848327448923	56.442476240270594	70.75251153132524	86.71848327448923	70.75251153132524					86.71848327448923	86.71848327448923	86.71848327448923	52.2492403314429														
DD15-22					175.84800507813046	169.56839119498545											81.19766352178273			57.24187983685678						25.174134743876976	31.1167167387345	42.68097466603575											13.828972878481373	13.626012128061776	13.828972878481373	13.828972878481373	9.250268870338193
DD15-23					99.31865446529602	108.37801389752156											60.568316982837544			55.39209131390884						70.92173953553234	70.90908647784062	78.99838720385732							16.103352073900176	54.55254390775154	44.235564673963005	68.12254858872579	14.438398036192375	2.6474555416953893	14.438398036192375	2.2993457600235296	6.853546472066733
DD15-24					54.56318439925729	54.47807966632814											24.306556531312136	25.60977491451807	24.64221666132101	48.05150973292729						44.56847203956638	50.642288158667746	42.06538603817781											7.8155186640529966	3.0926218509797243	6.247791730407228	9.209145320608522	8.382060858650826
DD15-25					5.206004565237941	5.206004565237941											4.313926936740783			4.363748545261578						4.2822043200023465	4.326440705799572	4.363748545261578								2.8063848406839687		3.3032756674089154	2.2491795279852544			2.3717900713505085	
DD15-27					126.78131828877814	126.18896667020016											79.63274405382673	39.07343935932136	61.73981887626582	78.23348005954603	118.25864401318502					59.313735866884	60.12322431892378	90.62070089734249	80.8561435885492						50.94729513191135	133.095544235179	117.63359714282028	112.15759421046397	119.15453128466378	60.343154901283185	119.15453128466378	119.53775557800104	73.19540392688228
DD15-28					217.3592989868781	182.56407156105166											194.94887976954544	33.69342523391893	128.00037751989942	232.53134505207169	105.13666736722016					252.01178324775262	251.98673859441743	232.4720951845839	74.92043424747973						35.72654125147051	125.97471713865463	122.975398635908	198.96494156447102	25.808205049961785	9.868157331893718	25.808205049961785	25.808205049961785	19.37082934387516
DD15-29					305.9854596687469	305.11923594533346											273.0793526082023	69.0	117.44340986995344	253.46274691405202	171.65361286073562					164.21163809470022	156.2664812183281	206.01257331837607	75.06089731024157						87.25573410407463	52.80653295833206	93.77827861810623	54.66997848300787	147.03291869032353	111.5243598587742	147.03291869032353	168.49347911720983	88.34817509403686
DD15-3					222.08667183426977	214.30627108396772											37.903576109026886			36.492790191151926	21.852796038536724					65.64899933553778	43.87435230053932	48.60719965181786	14.179298853478436										5.260583826293012			7.939770182430808	21.121833734220328
DD15-30					3.1294940671984035	3.1294940671984035											6.0	2.5143587051784317	2.2993457600235296	6.929726046431108	2.5143587051784317					7.323727770847695	7.323727770847695	6.929726046431108	2.8590321482430263						2.2993457600235296	4.57704246387125	4.423779181842226	3.8380864760261257	6.0	6.0	6.0	6.0	3.1294940671984035
DD15-31					6.900454052210429	6.900454052210429											11.953080545748206	8.771538057767646	8.449018640035295	11.953080545748206	7.698071772549293					11.953080545748206	11.953080545748206	11.953080545748206	8.771538057767646						5.977751009180473	7.231666449033046	6.3838471433465624	7.241628768112745	11.095298920982023	9.0	11.095298920982023	11.382526790202522	5.801448781247864
DD15-32					11.383767388536905	11.195438678016293											5.07778782181026			5.170051792205894	1.1496728800117648					4.415410573112215	4.522623333943519	5.879749698064449	3.029027680038139						4.1496728800117655	2.8051941364223265	4.323727770847695	2.527675355344381	2.752604350190195	0.9739624322283312	1.868022761690478	1.3237277708476949	0.8409335336671082
DD15-33																	151.23511845991968	21.074398961030067	91.37991786574379	163.32889272248374	35.248171457296145					181.81324199485599	201.99359098416105	223.3291193044465	53.79328454760226						43.11321062734542	63.44645763355585	33.52695850510159	70.76172817068877					8.824851805651296
DD15-34					94.3676670772644	86.54048654073803											25.217374981196752			40.23056680066768						32.25202339837369	36.34141259452448	43.2606973862066							10.716838450723033	12.6831503555155	11.71098817593219	26.78202657736348	1.5495434107185104			1.4823687945940676	
DD15-35					282.4910968563922	282.41373788593984											221.1062702723949	53.850143270523354	245.42740191242905	209.91269799071236	52.06833456788458					207.25557113672508	207.3408735395145	207.7898345314324	58.221062450870676						137.25382256572016	152.27246755911918	140.23235766772123	197.79926920901653	22.82447215806239	10.347055920105882	22.82447215806239	48.516858941496324	39.21268619156681
DD15-36					80.54583383583623	75.82932281388548											55.274479415219524	1.53289717334902	20.41667071998368	44.96345852022365						33.78451932623618	35.03411877570253	43.14429355985454							9.646280280725119	3.8953616099475847	5.906021432162018	3.438918605511037	4.72492887319713	4.72492887319713	4.72492887319713	4.72492887319713	3.529940722260519
DD15-37					79.28051636902622	79.28051636902622											152.0	152.0	89.77364859074547	152.0	152.0					152.0	152.0	152.0	58.250092587262756						63.69708719785358	58.250092587262756	63.69708719785358	89.77364859074547	152.0	89.77364859074547	152.0	152.0	79.28051636902622
DD15-38					14.840615940945685	15.16413258673022											1.964462094801844			5.945051173891717						11.437062106326533	12.065196899680915	11.437062106326533															
DD15-39					16.608899475571206	16.608899475571206											19.60630497988457	9.933995353664573	16.54917274593646	19.46018331625881	9.296389960595938					18.667705186941213	18.089048791622485	19.67686708864705	9.913165667258683						16.351295787714008	12.554488258545911	10.523994123880184	14.613191426098352	0.8258189168522289	2.0	6.792709002296848	8.887006069745583	5.06144448533483
DD15-4					9.584714703705323	9.568496067233133											17.466421331426893	7.124016331338887	8.100591086688574	17.0	7.124016331338887					17.0	17.0	17.0	17.0						7.124016331338887	17.0	10.040473855543901	8.100591086688574	17.0	17.0	17.0	17.0	7.501124034803603
DD15-40					72.27778773306797	91.67388467957092											101.36860236414014	145.96739898097738	141.2148996318309	122.3645798615172	174.48582745390985					145.36868929867376	145.49755070005858	134.82548733069842	135.90001643222843						73.23245193404792	84.29638885363147	128.8578933683444	129.73045136040778	136.75198015479594	117.2152604751353	136.75198015479594	136.75198015479594	82.83215423657064
DD15-41					30.601328051308442	30.710881083636817											29.259506306433487	20.53289717334902	20.67623913678562	34.074791913892						35.39641615328964	34.944206521164716	30.820162449361														0.9746156715264948	
DD15-42					10.923288508029867	11.478403805657287											10.653753074772444	1.4295160741215132	3.4534979150349514	30.44598194363741	1.7718483274489236					20.799754554191853	21.54356851261505	21.36392162066077	3.0						1.7222430149556716	2.1963185624457364	2.6474555416953893	2.6474555416953893	1.4295160741215132	1.033345808973403	1.4295160741215132	1.4295160741215132	1.1878573165909931
DD15-43					43.76378802816369	43.84883798356361											48.21303633901698			42.96121202931141						48.56849345043225	52.56158004489549	44.04890388040175								17.785703252631745	23.22893412504612	20.619843117302672	14.771666099255636	16.16905268052508	14.771666099255636	14.771666099255636	19.53536979861481
DD15-44					4.4532218380460975	4.4532218380460975											7.771848327448922	7.257179352589215	5.29934576002353	7.771848327448922	5.514358705178431					7.771848327448922	7.771848327448922	7.771848327448922	4.286207032627353						3.2163644979585717	3.547704514151833	5.108443688497049	4.641855936120716	7.771848327448922	7.429516074121512	7.771848327448922	7.771848327448922	4.212202575294591
DD15-45					339.3648032664524	317.012823757964											295.1149216889758	167.51039436541438	394.93895680766303	326.4979028838868	161.3766556634264					257.11692374646543	272.74093397800203	324.0110365855632	133.20756108971716						62.73996540573097	215.99074152553746	225.26091546872863	288.9882090319812	154.79893348911963	82.33418489374836	154.79893348911963	154.79893348911963	110.2647847140466
DD15-46					35.9303992257212	35.72437592727823											34.48566656579428	17.225057347043133	14.528963741482112	33.902518983944624	16.367275722276954					37.97804626125548	36.88294019798735	35.21536598969001	21.87257907347189						4.72492887319713	7.2787026178895475	8.041297213041798	11.396686461564505	15.901414341108	3.3524782735712413	15.901414341108	15.154621881134712	13.155154266372902
DD15-47					172.17563136941058	170.25005265353298											155.20733110438678			105.90261315862949						69.72957607311929	90.54872459461076	111.49392352803166								50.080523594771044	51.12234741536547	68.87285507406895	1.3777944119645371	1.0631736747899647	1.119265697244535	1.3777944119645371	0.9533728827523298
DD15-48					13.238914952205697	13.238914952205697											12.1869604697736	4.72492887319713	3.8120428643240345	12.1869604697736	3.8120428643240345					10.385885448465196	10.524357480191977	12.1869604697736	4.72492887319713						8.0	3.8120428643240345	8.0	3.8120428643240345	8.0	4.72492887319713	8.0	8.0	3.529940722260519
DD15-49					11.636949727150393	12.35286307623651											31.859079214635702			23.851058768118488						17.334966848052293	16.20647399183862	22.529474263831826							4.603947742051363	0.9930225447168894							
DD15-5					130.3085208511917	127.29916305222187											114.42336886633808	68.10943724724861	71.78745957645938	87.7085645386298	31.686084829842766					129.7645932705849	146.05999841073182	119.19761194210872	38.397643142705455						8.732074755940673	16.32511981369931	16.15254599593063	19.190528350809785	4.209577261025953	2.8475885573516817	2.912131121186345	6.258988134396808	30.068929065315565
DD15-50					50.09671691121746	44.07488815895855											29.420154717084518	28.349573239182767	93.93665863082823	60.960428353288						62.37032166168689	65.76189390262381	64.03279870653276															0.7150296620642473
DD15-51					74.96599242717521	74.96599242717521											111.8407481738018	44.14788500619482	54.195433782233785	157.23291616931675	15.660607969511574					146.88437516997377	149.10538622085218	130.59840631019298	30.765053580405045						4.765053580405043	128.23573283262436	131.62810824666454	247.03666734202525	1.1858950356752542	1.53289717334902	3.4641237900968065	1.7649703611302594	1.5838097554546575
DD15-52					12.248480821151595	12.191918510786893											23.90970946037819	2.4426877234601307	6.7451713612672926	23.2679319634724	13.384424007636303					20.277639433226604	20.30273473066852	24.552612935364298	3.2005840049913754						14.25235189785307	9.877369230270387	9.877369230270387	12.15711292810272	15.920043307746894	8.402798632808071	15.920043307746894	15.920043307746894	4.138558140822775
DD15-53					133.47558336128387	134.76910452573705											127.72229012637185	2.362464436598565	4.0	157.033265154048	2.362464436598565					85.96230892858976	95.12667360363632	101.08998376350401	1.6762391367856206						2.4859078894300284	2.4859078894300284	2.4859078894300284	4.3624644365985645	72.94714617995817	31.721596971121482	72.94714617995817	58.888893709668075	24.307854432730803
DD15-54					24.51804143428584	55.38480878062876											12.342571512452253			22.144764813945585						59.75851966468134	59.75851966468134	33.28383383921501											1.20752632586564			0.2980201098207156	0.4688371444527021
DD15-55					18.213218350757547	18.213218350757547											69.80478599291659	9.298648256888796	9.86920201243448	46.03459237220397						31.782520067244374	26.281020169784426	26.451149695048752	9.215467226709805						11.360372629514869	19.38132372541609	17.206320536798366	18.376730294100962					
DD15-56																	9.652910384792024			9.19424943235948						9.548622826884381	10.080115175439095	9.141981826758183							9.256200006966774	0.7447669085376669							
DD15-57					22.394817899133397	22.50276993656313											4.9549135011133725	5.718064296486053	5.718064296486053								24.2125762565532																
DD15-58					1.0431646890661344	1.0431646890661344											10.79842208803349	0.8381195683928103	0.8381195683928103	15.225929079604185	5.382526790202521					2.577951573725016	2.5718498293117573	11.816461821168547	21.841299053853163						1.916121466686275								
DD15-59					34.16751142624289	37.47186184949867											13.885539419702035			5.1907616133712775						13.629863820967211	16.71878048135891	12.210007092321115							3.895942653872913	5.718239436176669	6.34951012529867	9.152779241827645	2.1808871714701605	1.4182853787433003	2.6733403838791125	0.4727617929144335	0.5529234885115207
DD15-6					7.502376150993997	7.502376150993997											4.715123106243847			3.651384017936565	1.6762391367856206					5.087013711222932	5.294408849226824	4.950000594241006							1.5838097554546575	1.9060214321620168	1.6762391367856206	1.9060214321620168	1.53289717334902	1.4356296932863664	1.53289717334902	1.5838097554546575	1.7649703611302594
DD15-60					67.33911703692239	67.33911703692239											12.871307865597839			15.849523359182225						13.842116323447886	14.425437573693076	12.871307865597839								6.198173642874043			130.44808746423456	54.37026547295522	130.44808746423456	81.60315299532479	69.02889790151104
DD15-61					177.57057355563015	165.4594948243358											219.24467214727417	83.352072220986	105.10250764744629	211.53808796132503	1.53289717334902					165.55520903066682	188.47176994421082	207.6599293971676	79.25362227978476						9.719416686744024	81.23919934716038	78.69556194384876	81.05666706982662	13.341319151346607	17.245093200176473	64.26732454076915	64.29722388589185	66.95664878189889
DD15-62																	2.8063848406839687			8.061469811136812						4.418137959876165	5.8963656516325145	4.6554370063221375															
DD15-63																	6.519822716256398			11.642140160425516						8.176484831623512	9.097257618803454	8.645765810890744	1.53289717334902						2.362464436598565				1.3277760065223871	0.9044192642498446	0.9707103737287816	1.1245897639926272	1.4642123749638245
DD15-64					67.93720079419687	67.93720079419687											111.52602118270343			112.82463775900787						110.20125479342836	126.22572529112013	122.82430982687565											10.150911030758873	12.26317738679216	85.50605202066791	12.26317738679216	66.74280110228426
DD15-65					103.7612768380013	103.7612768380013												87.68874133733505	162.25444990977977		37.637843955566176								51.23161676694986						67.12152069301078	155.35495836376703	119.44280527114351	168.52186318421582				111.10157051471698	60.95713893960225
DD15-66					3.1294940671984035	3.1294940671984035											4.288548222364538	13.737566862399836	16.31523471266549	8.377732881701808						6.766004972921225	6.766004972921225	6.024517408320707	6.0														2.8549437274009333
DD15-67					135.6949179950514	139.23748436174293											98.64184938578552	102.7210707838308	95.94622878651087	133.29027840888585	1.1496728800117648					140.63913500755072	136.16567213059508	133.80585286610238	67.57969458215827						51.33227975839765	111.86243306381306	78.2146818857497	80.63588365497286	45.15507994630721	11.711252501698567	45.15507994630721	59.97150087713661	62.46951027019541
DD15-68					37.529365477004674	39.17029548258914											51.536505761376254	10.9596232349316	44.970000969034864	50.61671741309011	9.63837503651732					52.69897382228157	70.1269762287431	60.85620397538784							9.106906093864279					4.5285211930735665	9.815405251093338	1.20752632586564	7.367367155065487
DD15-69					24.873659995531238	41.244678097058376											26.663351730822438	9.115157742296658	32.45221370787171	34.328867230420926	9.571600746733203					39.57082309347207	39.014099241802576	38.91056850246638	7.477622178895223							0.5318695441536407						2.0	22.422796076463285
DD15-7					20.36561215423562	20.28286441650268											47.069912157553844	23.70039942759035	42.40578611479169	46.122701003937216	28.494053129994644					44.10634195839033	44.359257038560266	47.47577162785893	27.807827830181694						27.807827830181694	24.54705126164417	18.369442413887587	40.402066871135176	31.355879178556275	27.624085728648076	31.355879178556275	31.355879178556275	19.07533809063704
DD15-70					14.685822655984378	14.685822655984378											6.104529488081247			34.39549622356035						80.73317521494229	81.44507235428023	68.94641755718837	1.1496728800117648						1.033345808973403	8.433052554648526						1.1284928562136725	3.9890215811523055
DD15-71					163.09067452650348	175.79257353831196											133.3957513947172	15.927753287246006	159.3777499565111	114.89090096487669	35.763092019097336					26.9197848759337	30.60070825836621	61.834212855596896	27.85971129322341													19.07979833504756	49.36520127282518
DD15-72					16.26551106096125	16.26551106096125											19.22091569738807	16.61750047060578	31.423375751873998	20.28465478569534						20.868672976747305	23.406924281626555	21.32084499029969	14.099259980414155						45.54206074959369	30.002198737196608	42.52008277840092	34.75341147644478	5.9294751783762685	6.888972059822687	11.732862969117106	13.576281072015266	7.178148466431832
DD15-73					31.131666293709745	31.116782434176553											20.605050511766507	7.0	18.788787286434808	64.44538867677322	20.468899263405078					53.43864376803493	53.26443065773639	42.48424060451556	20.468899263405078						14.52884929310678	27.313557413087548	20.53676071671126	37.43071239690252	14.013407265894472	4.083091369386601	14.013407265894472	18.7875381003408	15.542190769017516
DD15-74					18.42989145335799	18.42989145335799											6.258988134396808	12.0	16.369689555774332	6.258988134396808						40.011807621592034	39.99367196963236	34.472705789776576														8.943654613029402	
DD15-75					45.74495020182388	45.58095117655597											12.0	29.974322782526016	28.746171109974927	27.433809153965267						37.16999786041546	42.67062993052746	31.97479182132335							20.039240639172142	29.04067149365577	25.82116855946991	42.17104577329261	12.034261163004905	4.758239545668221	12.034261163004905	23.85924163724462	14.44237402223448
DD15-76					41.030400800909945	41.71524037326656											9.539057277982387			16.053114365359427						17.885145871522838	24.772332778173965	18.330074154462075								26.54661401258329	20.547058002435037	38.492962130907365	3.557685107025762	9.559366169758487	11.234197666345745		10.597377782181734
DD15-77					18.689433353512424	18.652688180490863											18.58324606594012	22.140993168675447	16.331591010639492	18.685142173336715						18.472676435351808	18.4934628861448	18.56426691490411	20.096758933460464						2.5143587051784317	6.0	2.2993457600235296	6.0				31.75984979393609	23.62121545404152
DD15-78																	15.046192676819247			18.107203605539166						18.107203605539166	18.107203605539166	18.639073149692805														14.735629149117	19.050138315115515
DD15-79					3.736404578879008	3.736404578879008											4.140937862339198	5.0	1.916121466686275	4.140937862339198	4.102753425759971					4.517827579347409	4.517827579347409	4.140937862339198	1.916121466686275						1.916121466686275	3.9472738238017233	4.0512398269710745	3.660045954581228	2.9530805457482057	1.916121466686275	2.9530805457482057	5.0	3.3940702680038166
DD15-8					47.49433884032256	47.61311090998167											61.189083010979395	21.266627059062518	29.31557113694115	68.25400008078533	21.972122062759016					62.66084389147258	58.77323610187433	64.03550745184401	30.36484403407147						9.77494843120934	42.56043930867891	33.26424622684338	50.57697777450901	31.800475239337484	19.13431276404749	31.800475239337484	31.800475239337484	21.256133513301087
DD15-80					15.27802158665116	14.845101582940702											27.82825890433864			27.803312766268625						33.120297748150065	29.905038383958072	28.00213973792341															0.4664213314268986
DD15-81					3.0483140032486107	3.0561633001720736											10.459669925961936	1.0	7.989701193655662	6.8838658626119695						5.485614458671373	6.0589630530125325	5.485614458671373														1.3728030778207487	0.6888972059822687
DD15-82					30.251662538039426	28.41974487111265											32.38994648134708	20.872089115448915	20.91476533907152	32.38994648134708	21.194608533181267					27.90652644909615	22.499725269696487	33.94507990852958	21.53928197624586						7.172547714113518	19.162512261271708	20.965110351513523	21.52600969639855	0.8894212767564404	1.2571793525892154	14.50521481652091	4.771848327448923	12.341765255800276
DD15-83																																				0.7321061874819123	0.7321061874819123	15.821091820830992	0.2726123106224847	0.34444860299113433	0.7404010418547986	2.009675893346046	1.0589063921206503
DD15-84																	25.252271653383108	8.608216634171416	28.623766459798127	23.84106239508339						22.524443385523323	25.45968526095615	31.04126508520894							10.988718944466212	4.66478446051941	3.971183312543084						9.262055288824806
DD15-85					51.08247039294282	51.05371205374539											28.096454569348463			52.30079616948603	12.580607333431375					37.48012792158456	42.44757242994877	36.45522857422184	17.76540272874103						11.46355800519081							13.684482278461532	12.595811790663323
DD15-86					22.4742707906618	22.4742707906618											22.72863426453236	3.56873266420817	11.98029109529131	27.487285835390693	6.543626825230651					23.282979284886444	22.59698258364573	22.227944887284547	6.372070500277414							4.086329378132269	2.5314189478047693	6.1447689282911515	0.4129094584261144	0.5906161091496412	2.9759315469706507	3.603870651932587	3.4086576161725204
DD15-87					14.17571976588776	14.386959874711973											16.165995110968062			14.100315713739894						11.666369038651045	11.601475133073995	11.926770797050429								13.913989961936565	16.059733771585535	13.188372230557134	1.8224102707713183			3.582260568947638	1.3777944119645371
DD15-88					297.5258942360456	297.77667095736086											441.2170679179741	154.94789941508552	450.78983999644737	501.5248887567509	154.94789941508552					424.40241156612336	442.5503127772623	442.5292528447683	154.94789941508552						54.5224982406865	166.2635680429014	98.08535841575454	265.9733473244137	20.694111840211765	16.009582981615928	20.694111840211765	166.94789941508552	111.74106980221492
DD15-9					85.3070281808978	89.68358877852785											101.664583242794	31.844307135429396	73.6603365495564	103.87000319997247	24.269416233925533					100.12049983723273	100.1775767242297	103.74907748918356	37.14050321065246						23.35933729959488	36.944008341126136	40.97700162738293	49.48595080234693	34.317004994825204	16.08151704153235	34.317004994825204	40.06536939488403	26.17315345563393
DD15-90					13.763195546538173	13.820657130766143											12.723688026319687			12.541240516386752	5.315544982346771					12.189833566330755	12.189833566330755	12.723688026319687	3.7715380577676467						6.8912132448733185	13.291683452856836	13.966255396529398	13.10821041665848	2.1840983408897587	2.8549437274009333	2.987496014675372	2.8549437274009333	2.6682638302693213
DD15-91					27.980110316892475	28.062780526662003											25.216764828984623			25.216764828984623						21.698579569802565	28.884429144243303	26.62250203397541							22.12546472597092	21.916108512416876	24.94943966262569	21.429042688929773	13.0	7.678009418945336	13.0	7.678009418945336	5.736153673673344
DD15-92					22.868022207384442	23.674661510494598											20.485474453926408	14.670724713878474	13.277680882078464	22.16070445144515						17.12114153422241	17.12114153422241	22.070039718256396															3.971183312543084
DD15-93					9.858089525251144	9.682090238621074											9.262450227806859			4.531418947804768						7.54758048757737	7.54758048757737	6.985173972601308							6.822577081822221	5.742026165775868	5.620664250345682	6.2838633815242995		2.0	2.2290113371942133		2.3250509700428066
DD15-94					16.558110770705937	16.558110770705937											16.449741299643332	9.963831626768627	12.389139309053116	19.18507120897587						24.665213965004114	24.665213965004114	23.614380807694435							10.294763410455273	10.735645919078976		9.120750732222898	3.7612665695717	5.367822959539487	4.75869021863243	6.194569654526558	
DD15-95					18.11182919149688	18.15619681435798											28.41021254306772	4.0	1.53289717334902	26.026051664501995	1.6762391367856206					19.794849059388735	19.794849059388735	27.96071533998912	1.6762391367856206						22.53350741160072	2.928424749927649	2.928424749927649	5.181578555964976				11.812042864324036	7.3402782671738525
DD15-96					12.584246410056114	12.601611150118215											10.837897214270923	21.0	8.047710160082357	10.572103795573431						10.572103795573431	10.572103795573431	10.572103795573431														1.5647470335992015	1.413812360528221
DD15-97					30.31837997961205	29.84508415636293											23.873422095473146	3.06579434669804	3.8120428643240345	2.928424749927649	3.8120428643240345					6.4861098569534095	12.364835074577401	6.119642014849492	4.72492887319713							2.1259693942188584						2.0735112362433323	
DD15-98																																										0.7587452405098128	
DD15-99					64.73137175925632	62.65574549138708											86.31897681291862	60.799701932724716	73.26020915691669	78.55785144963673	79.76416081234001					91.83821742897516	91.83821742897516	85.33397687486277	53.92335749788122						37.338535878406475	85.59913391018742	58.758476414345395	65.2137530885619	0.6884932548911052	1.033345808973403	1.1878573165909931	76.52735408303602	17.846910139190786
DD16-1			37.768055988343576	12.865644667093616			86.28507734067861	37.768055988343576	37.768055988343576			27.17389975151935	42.39032042574403	2.0863293781322687								17.605645256404042	5.883952228427056	47.38369018483439	113.25342415484087					130.7373931429847	134.64662264491437	58.59735360950077	95.8005973935804	128.97016986601903									
DD16-10			6.990755061704223	3.8953616099475847			2.6292498528666286	6.990755061704223	6.990755061704223	6.135159875822589	3.4808020837095963	3.9450016563233574	4.150046776996681	5.7051989910750125	12.677544100755426	12.677544100755426						21.19641166352046	15.43205000430521	12.153773506329074	39.94225852133975					12.552231165066898	22.72168461509552	8.75045236261346	12.499701376552784	13.759399712878206									
DD16-11			14.791527923480912	9.67623913678562			6.2578260465461515	14.791527923480912	14.791527923480912	3.529940722260519		12.175446149895127	6.037317786290478	2.3502583421291674	24.66139848347364	24.66139848347364						23.321224219784266	30.16425039489551	28.840487252214327	83.7038516583593					22.343338833927728	22.343338833927728	46.56164850819996	37.37104878704103	29.75875816610077									
DD16-12							0.7321061874819123							6.00103284649949	2.0	2.0						0.6198173642874043	2.6001939366106366		47.39260517081029						2.3155258369656515	2.5073770640299577	2.041682415225731	2.5073770640299577									
DD16-13			24.52306373343322	24.52306373343322			18.0	24.52306373343322	24.52306373343322	21.335537506283533	21.300140353633765	10.47630571987056	11.902567156056767		28.72028771790941	28.72028771790941						43.0150735732004	38.71684435948991	40.60097228547002	56.53567293667386					29.65975743222053	29.65975743222053	29.65975743222053	29.40143690353316	30.71565043901104									
DD16-14			30.41964890162748	30.41964890162748			31.477254332688084	30.41964890162748	30.41964890162748	24.38890131846103	9.755606413835892	10.257179352589215	25.57087947970889	9.488652505815946	35.82452223364195	35.82452223364195						36.435812298882986	32.513061773658364	53.361162410994396	92.29438091611617					51.01332236889631	69.71732169722245	51.689801311147725	39.25175695280536	47.79784201239977									
DD16-15			22.025950759753666	11.436128592972105			11.436128592972105	22.025950759753666	22.025950759753666	30.68201809651277	26.563874922462496		6.13158869339608	45.54306131258983	41.54674456161188	41.54674456161188						125.87140798889679	115.04710179132867	127.67808105226624	191.87317769793282					137.81047424287377	165.70402870030398	168.83934501550942	108.44279712731048	166.7674214424409									
DD16-16			11.54310241448328	3.06579434669804			3.1812322182992823	7.840221831910707	11.54310241448328	2.2865527056633264	3.116986094085751	2.063717398864412		1.3288780285565878								70.93677454472522	30.110093078158968	24.012930965747234	129.73472142795902					68.25773565858374	94.08781404802534	66.35353356679879	32.770204049465015	38.68698664435778									
DD16-17			73.5273079772077	26.556292573200768			107.66248646490831	58.93537337049183	73.5273079772077	2.0		10.2664138876772	40.75825081176427	3.0	178.53472406579968	178.53472406579968						24.33756307681407	39.30747083076364	41.38598617408656	124.38315956056485					147.6586359962914	168.4279560155957	101.31946630023472	13.103420249508288	176.30725996964546									
DD16-18			31.19629942598445	21.830150423968348			12.176297780964424	31.19629942598445	31.19629942598445	41.80845955683189	34.03810283169386	17.258108647942027	42.94743332230115	53.42473009694172	361.1898846903469	361.1898846903469						349.7231581134791	269.4280891937109	282.62903158899087	418.2524151521215					394.8756153635263	394.8756153635263	295.17493272416044	373.4870229425823	374.87162262469434									
DD16-19										10.395607785324056	11.478634341361929	12.595455583305323	3.8537022371358094	3.921820613420299	17.532521302402056	17.532521302402056						16.685629016136744	16.305899903211156		84.3475915265123																		
DD16-2			20.20866316340979	12.158163256089935			4.705671382454615	20.20866316340979	20.20866316340979	21.069441494715786	19.704705923622747	20.595675439422862	12.697418311244295	3.750765080627151	26.506012393267497	26.506012393267497						135.17605190059152	116.81923892674186	55.29980803781617	193.37850807311463					123.23410180272087	155.9551120839431	140.5959481244008	81.09436792537856	105.76889855673654									
DD16-20			37.94747244922624	37.94747244922624			50.61309303435814	37.94747244922624	37.94747244922624	70.96263543876552	65.34874692989584	95.2521404499509	88.70301892251102		22.009610784974555	22.009610784974555						125.13330497422932	75.90846744702678	158.7878918842406	198.38443039466392					167.89274672414754	167.89274672414754	187.85639378351158	78.95614523189472	123.54854897533389									
DD16-21			5.563048441589942	5.563048441589942			9.719459302755519	5.563048441589942	5.563048441589942	4.363287264274727	1.791130284473819	3.8537022371358094	19.281162542147282	15.241091629230974	6.984987696772915	6.984987696772915						46.51443107883189	30.494260775492574	47.028840800453345	63.32405277302409					19.952778523935358	23.109644525166512	19.278581052450658	48.82325070171203	37.51351077178081									
DD16-22			37.04835487526268	33.49584639160222			50.99076981088621	37.04835487526268	37.04835487526268	36.61209210370754	5.149045206544232	3.928455966368496	6.537408571686536	5.78353048931758	58.150495324705105	58.150495324705105						79.69232257504594	92.03825398410471	42.27207047490976	106.46361520273558					73.22491951242608	73.22491951242608	73.39850030538071	68.37406539758904	75.10046860201217									
DD16-23							46.520736042064726			63.79241333419714	6.070883817791178	3.1404515117494447	18.231356179351767	6.6510126589631025	83.36395556313066	83.36395556313066						104.81429059895096	71.27497732420926	67.41950870701058	128.32258971339735					29.17502280853889	90.02074673849613	37.149114349111755	27.39709966841745	79.28713936406281									
DD16-24			45.17982963404597	45.17982963404597			48.8796967100953	45.17982963404597	45.17982963404597	48.158793158789074	40.52198400909532	41.687754828011855	30.39201552226501	27.726304474400358	92.50583870551293	92.50583870551293						159.31652392157542	152.10893385500745	158.05638730645884	180.78549017182					185.29207577875115	185.29207577875115	186.5044302233325	184.39508358897305	181.05237732448018									
DD16-25			1.6045681550673203	1.6045681550673203			1.9476808049737928	1.6045681550673203	1.6045681550673203	3.992350810294286	1.6762391367856206	1.6762391367856206	3.992350810294286		2.9686409038146047	2.9686409038146047						13.864387557594247	9.627486236149297	12.862674800715533						13.12804264184557	13.12804264184557	11.176028940033508	9.68840964047906	11.790238496128735									
DD16-26							1.6788985458668024			4.946801301718919	3.5436966548978472	2.8590321482430263	10.572033195627725	2.8381195683928104								10.266576811458997	8.074665052389967		148.4091292067653																		
DD16-27			38.650143541584676	17.010123407552882			36.85202102531512	33.257472056494024	38.650143541584676	9.095463816911133	6.432386407227564	10.785328005122139	9.582180316197293	2.1963185624457364	47.257459744117696	47.257459744117696						34.97051284826481	38.68903984045455	55.165149015004815	85.59766782439759					131.24423858172278	131.24423858172278	122.2532934601182	114.84960291164856	137.80692925448065									
DD16-28			8.955008781078169	2.0			10.506853391222686	8.955008781078169	8.955008781078169			0.5906161091496412	3.8120428643240345		21.20581682818328	21.20581682818328						20.37809774217293	22.51763158181864	19.79614522284905	33.142060205897764					17.470033882523005	18.36409421198515	20.08945071257328	13.931183149385586	16.729655121488584									
DD16-29			2.8590321482430263	2.8590321482430263			6.0	2.8590321482430263	2.8590321482430263						17.46680716989598	17.46680716989598						8.23447390269235	2.4774567505566862	6.0	54.29898817453279					3.5436966548978472	3.5436966548978472	3.5436966548978472	3.5436966548978472	3.5436966548978472									
DD16-3							0.383224293337255																		13.734894128295762							0.9344918029591816	1.2303163341132368	1.3106560883637393									
DD16-30							4.557578871148329			2.2310220056571275		0.9530107160810086	1.033345808973403		0.8381195683928103	0.8381195683928103						7.972570543555803	3.8381195683928095	4.328878028556588	10.494910533627293					1.0981592812228682	1.0981592812228682												
DD16-31			9.106745096487787	9.106745096487787			15.319436212111704	9.106745096487787	9.106745096487787			2.362464436598565	5.748364400058825			0.7178148466431832						26.299783001135026	17.72583014095009	23.116576824690828	34.708207562540586					20.521435006952885	20.521435006952885	22.79130796029344	18.438548966333926	21.89209850873248									
DD16-32							11.015881551061172				1.809613275740644		1.9476808049737928	1.0431646890661344								10.804821196144124	8.083160997166313		36.46269264561471					21.622259751175818	23.570184615632485	21.622259751175818	18.79125730020626	25.29592708817892									
DD16-33							2.8549437274009333			5.315544982346771	5.801448781247864		0.9530107160810086		42.103773704045466	42.103773704045466						9.669312984884193	10.200630029646591	1.0112702716903377	95.908940255332						1.9032958182672888												
DD16-34			3.1167069288036773	1.53289717334902			1.1858950356752542	3.1167069288036773	3.1167069288036773	2.362464436598565	2.362464436598565	4.0	2.9616041674191944		3.992350810294286	3.992350810294286						2.4990391235206815	2.0863293781322687		9.22149658484159																		
DD16-35			2.362464436598565	2.362464436598565			9.374332845783623	2.362464436598565	2.362464436598565	5.732698243724406	3.2091363101346406	3.1427647730947967	3.348780116584917	1.5838097554546575								6.304309498657585	8.419624329400015	6.0334562298908425	14.365879647734545					10.194135738391848	10.194135738391848	8.268485868760582	8.268485868760582	8.268485868760582									
DD16-36			2.0193517866920927	2.0193517866920927			9.719459302755519	2.0193517866920927	2.0193517866920927	1.6577375763397868	1.6002920024956877	2.067993551436045	1.185508370870915		5.272580234201928	5.272580234201928						6.8947358632833575	1.1552423998339405	1.7788296329332374	22.30878735799163					7.460976631563674	7.460976631563674	7.310597638480457	6.910831737973081	7.460976631563674									
DD16-37																						1.5947605121849473	1.7881206589242935		15.056304098405962					3.1294940671984035	3.1294940671984035												
DD16-38			3.06579434669804	3.06579434669804				3.06579434669804	3.06579434669804				5.215823445330671		7.256392188662093	7.256392188662093						8.002640706288087	5.265807299460957	8.002640706288087	13.906161091496413					7.256392188662093	7.256392188662093	7.256392188662093	7.184721206943793	7.256392188662093									
DD16-39			11.272884355777284	7.2812615734078445			2.888474804446896	8.379420854630714	11.272884355777284						30.979217112864948	30.979217112864948						16.30837058819257	16.11249337838804		47.23848725032467					19.600736060429444	19.600736060429444	27.51689570564536	28.340968355361795	32.52600695961681									
DD16-4			30.26895599565837	30.26895599565837			20.061328494818405	30.26895599565837	30.26895599565837	12.623985909563096	24.0	12.005920608378274	21.48493162563242	2.9530107160810086	20.192894179235704	20.192894179235704						51.229477264790354	36.832935939406006	46.69047145693858	76.6667296230573					64.79733357454195	76.88686006391504	73.16512370222793	47.39348971185666	72.95310522543713									
DD16-40							19.867669582898888			1.5647470335992015			1.1496728800117648		15.099756211528266	15.099756211528266						1.7089181266451927	2.1905433158003382	6.658057974676182	40.72730419034675					9.406421287294725	9.406421287294725	9.406421287294725	7.510037858270018	9.406421287294725									
DD16-41			2.41114022093794				4.77527853949385	2.41114022093794	2.41114022093794	3.4700876237807248	2.2214209518488417				1.4295160741215132	1.4295160741215132						13.496777200646054	13.496777200646054	14.849023986711664	24.907331333851577					11.547957690696848	11.547957690696848	11.547957690696848	13.62512751523875	12.300286261505963									
DD16-42			7.954111609291214	4.72492887319713			3.529940722260519	7.954111609291214	7.954111609291214																2.0					8.030549941758219	8.030549941758219	7.99284173484842	4.8742549664355295	7.328953731587225									
DD16-43							12.724928873197124					3.8120428643240345	8.748330893349934									10.304258475278274	3.748611368645963	8.536971737521164	24.960853666933797					12.724928873197124	12.724928873197124	12.724928873197124	6.41827262026928	12.724928873197124									
DD16-44			5.669240891151117	3.383224293337255			6.24122483995962	5.669240891151117	5.669240891151117	1.7718483274489236	1.1496728800117648	4.0265840311505166	3.0		11.404283470632762	11.404283470632762							2.1804485572424754	2.3958248791246657	13.906111911021714					7.137807139450133	7.137807139450133	6.1206913785887584	6.858779155940457	9.241980017013557									
DD16-45							1.4808020837095972			4.192140065943166		1.916121466686275	5.0	1.6743900582924585	5.0542290899078255	5.0542290899078255						0.8824851805651297	3.883041686434476	2.095298920982026	14.047636750113748						0.6638880032611936												
DD16-46			14.496777200646054	14.496777200646054			10.176978111360064	14.496777200646054	14.496777200646054						6.9304493725205365	6.9304493725205365						8.360160909630824	8.1578500116005	6.4967772006460525	26.44462632615685					4.992972042058222	4.992972042058222	7.280393123188166	6.1838147121735325	6.2279988079316775									
DD16-47			2.4896784289330096	1.3832242933372547			13.152587163233163	2.4896784289330096	2.4896784289330096	3.117730654103554	1.4861812513865509	2.52551391979216	6.812363009656607	2.0692790704113877	14.182126059266679	14.182126059266679						15.502478623166056	10.430361307628855	10.486891051896658	20.469553691671923					17.938540695137988	17.938540695137988	17.801332671598235	17.929368770316753	18.051388086664463									
DD16-48			3.8120428643240345	3.8120428643240345				3.8120428643240345	3.8120428643240345			4.917225307170444	3.529940722260519									9.67623913678562	4.119967671640404	9.67623913678562	14.162997252461908					3.06579434669804	3.06579434669804	3.06579434669804	3.06579434669804	3.06579434669804									
DD16-49			3.0	3.0			4.288548222364538	3.0	3.0	1.7718483274489236	1.3237277708476949			1.033345808973403	1.7718483274489236	1.7718483274489236						9.797238522832071	11.617141348855693	9.0	13.76611143516964					10.257179352589215	10.257179352589215	10.257179352589215	10.257179352589215	10.257179352589215									
DD16-5			5.50291594834801	4.0387035733841845			6.9247938556165805	5.50291594834801	5.50291594834801	7.348780116584918			1.5838097554546575		5.532897173349018	5.532897173349018						7.938625002347507	9.384196912611547	4.268485868760582	9.944725005546204					7.946274192053223	7.946274192053223	8.127434797728824	7.740258848563101	8.127434797728824									
DD16-50			17.83811956839281	17.83811956839281			20.543696654897847	17.83811956839281	17.83811956839281	10.040473855543901	7.124016331338887	10.562056200076967	9.281823304987855	5.757198986467418	24.036554980372486	24.036554980372486						19.149002663426863	15.169275630335019	20.4325045696812	45.00548286088666					22.160595374240046	22.160595374240046	21.49670737097885	21.381816223290656	21.49670737097885									
DD16-51			6.1496728800117655	6.1496728800117655			6.429516074121512	6.1496728800117655	6.1496728800117655	1.2571793525892154	1.5647470335992015	3.639706142791737	1.7718483274489236		6.7718483274489225	6.7718483274489225						2.7585893372989907	3.962655215400135	2.066691617946806	14.114064829330818					5.0	5.0	5.0	5.0	5.0									
DD16-52			8.595776449747884	3.3524782735712413			4.2578747859809045	4.730272685535779	8.595776449747884	14.403117147295985	8.06579434669804		3.0	2.9981178291401527	5.984828309969251	5.984828309969251						17.742743956316378	23.15284181559315	1.4295160741215132	64.98346832436303					23.539983770780324	23.539983770780324	23.4192256376902	23.121185277647573	13.601187416298744									
DD16-53			42.24496633810932	39.144928911189105			43.57826808758403	42.24496633810932	42.24496633810932	22.107242540138365	15.467912112660734	31.925649869631272	33.31422828522818		47.09964004660325	47.09964004660325						44.65156191200504	45.48395025349865	40.977177958519604	46.1572726435915					47.82635677126999	47.82635677126999	47.82635677126999	45.0212975619529	47.723349099524924									
DD16-6			29.070093679854864	4.215467226709805			15.525154158175807	25.21131452391441	29.070093679854864														3.6371827084000383		47.35077232216792					56.14153473557054	69.95350058003855	56.41062884167491	39.315815111914155	56.406893576786565									
DD16-7			1.6489337672396398	0.76644858667451			0.8381195683928103	1.6489337672396398	1.6489337672396398	12.10557363132973	6.6726096781709225	2.9530107160810086	2.0	10.104012186510696								23.643846857685947	27.58848108868211	1.791130284473819						3.815664157721712	3.815664157721712	3.1812322182992823	2.134242934380291	3.815664157721712									
DD16-8			9.089531555829103	8.400634349846836			5.083438926445114	9.089531555829103	9.089531555829103	14.061884690156155	3.679742700022196	9.211998850477816	12.839724576615787	4.138558140822775	21.192508676769414	21.192508676769414						35.435606107993934	30.45101311588488	28.933041862499103	59.67348985491199					24.300871608343204	25.36385630545263	24.37949264114121	23.636355618140005	24.35187087399817									
DD16-9			30.974069159047623	18.092571970762233			36.99004829082129	30.974069159047623	30.974069159047623	36.260935975901106	18.240468359808485	17.96748663141602	21.73656986606622	10.94526909873698	90.31242418746496	90.31242418746496						117.55364966014812	78.49660753788008	52.929382094000864	141.0270636691397					174.73051801482185	174.73051801482185	173.477262242987	146.13852616755042	153.68144247880426									
