topic	indri_all	indri_last	lm_all	lm_last	okapi_all	okapi_last	qcm_indri	qcm_lm	qcm_okapi	qcm_tfidf	tfidf_all	tfidf_last
ST2011-1	0.19938409153460376	0.19938409153460376	0.16168654099065846	0.16168654099065846	1.192640607202066	1.192640607202066	0.19938409153460376	0.19938409153460376	0.19938409153460376	0.19938409153460376	1.192640607202066	1.192640607202066
ST2011-10	2.8515859903383065	2.8515859903383065	2.9706791455332437	2.9706791455332437	2.6724010662778848	2.6724010662778848	2.8515859903383065	2.8515859903383065	2.8515859903383065	2.8515859903383065	3.0025110908167796	3.0025110908167796
ST2011-11	0.2173913043478261	0.2173913043478261					0.2173913043478261	0.2173913043478261	0.2173913043478261	0.2173913043478261		
ST2011-12					0.5251820115503641	0.5251820115503641					0.10559113225227157	0.10559113225227157
ST2011-13	4.157547698074265	4.157547698074265	4.157547698074265	4.157547698074265	3.1575476980742656	3.1575476980742656	4.157547698074265	4.157547698074265	4.157547698074265	4.157547698074265	3.1575476980742656	3.1575476980742656
ST2011-14	0.09862928635505468	0.09862928635505468	0.12100907317685515	0.12100907317685515	0.05198603607840385	0.05198603607840385	0.09862928635505468	0.09862928635505468	0.09862928635505468	0.09862928635505468	0.05198603607840385	0.05198603607840385
ST2011-15	4.0454335682693525	4.0454335682693525	4.0032116028167275	4.0032116028167275	4.115325732621642	4.115325732621642	0.016665915014058896	0.016665915014058896	0.016665915014058896	0.016665915014058896	4.115325732621642	4.115325732621642
ST2011-16	4.0454335682693525	4.0454335682693525	4.0032116028167275	4.0032116028167275	4.115325732621642	4.115325732621642					4.115325732621642	4.115325732621642
ST2011-17	3.238035642302413	3.238035642302413	2.6905893253651003	2.6905893253651003	3.5396231697723786	3.5396231697723786	3.238035642302413	3.238035642302413	3.238035642302413	3.238035642302413	3.6323656865239013	3.6323656865239013
ST2011-18	0.050364023100728385	0.050364023100728385	0.061750106704184425	0.061750106704184425			0.050364023100728385	0.050364023100728385	0.050364023100728385	0.050364023100728385	0.02111098272631164	0.02111098272631164
ST2011-19	4.157547698074265	4.157547698074265	4.157547698074265	4.157547698074265	3.9649070908721993	3.9649070908721993	4.157547698074265	4.157547698074265	4.157547698074265	4.157547698074265	2.664304441093902	2.664304441093902
ST2011-2	1.5	1.5	1.5	1.5	1.5	1.5	1.7173913043478262	1.7173913043478262	1.7173913043478262	1.7173913043478262	1.5	1.5
ST2011-22	1.5787738490371328	1.5787738490371328	2.039536251257039	2.039536251257039	1.995562503606661	1.995562503606661	1.5787738490371328	1.5787738490371328	1.5787738490371328	1.5787738490371328	2.014354239706675	2.014354239706675
ST2011-24	0.7058984114579058	0.7058984114579058	2.2195448089325445	2.2195448089325445	0.7976840362779841	0.7976840362779841	0.7058984114579058	0.7058984114579058	0.7058984114579058	0.7058984114579058	2.1747852352889434	2.1747852352889434
ST2011-25	0.3629014275823318	0.3629014275823318	0.3538574899521899	0.3538574899521899	2.217391304347826	2.217391304347826	1.0915738898584724	1.0915738898584724	1.0915738898584724	1.0915738898584724	2.5	2.5
ST2011-26	3.0	3.0	2.0	2.0	4.095797591370081	4.095797591370081	3.0	3.0	3.0	3.0	4.070615579819717	4.070615579819717
ST2011-27	0.3353158326497129	0.3353158326497129	0.3353158326497129	0.3353158326497129	0.3353158326497129	0.3353158326497129	0.3353158326497129	0.3353158326497129	0.3353158326497129	0.3353158326497129	0.3353158326497129	0.3353158326497129
ST2011-28	1.1575476980742656	1.1575476980742656	1.1575476980742656	1.1575476980742656	1.1575476980742656	1.1575476980742656	0.02518201155036419	0.02518201155036419	0.02518201155036419	0.02518201155036419	1.1575476980742656	1.1575476980742656
ST2011-3	2.738502287074138	2.738502287074138	2.1705431405266697	2.1705431405266697	2.072649492830801	2.072649492830801	2.191654123252982	2.191654123252982	2.191654123252982	2.191654123252982	2.3131172814349803	2.3131172814349803
ST2011-35	2.2449768992804446	2.2449768992804446	2.208511934211275	2.208511934211275	1.8065942838823392	1.8065942838823392	2.2449768992804446	2.2449768992804446	2.2449768992804446	2.2449768992804446	2.3745534304298066	2.3745534304298066
ST2011-36	2.3305074913372144	2.3305074913372144	2.9829467874106417	2.9829467874106417	0.8907366696030601	0.8907366696030601	2.3305074913372144	2.3305074913372144	2.3305074913372144	2.3305074913372144	0.8650222591087551	0.8650222591087551
ST2011-37	1.8089651942062983	1.8089651942062983	2.1504053830623437	2.1504053830623437	0.9517214780585748	0.9517214780585748	1.8089651942062983	1.8089651942062983	1.8089651942062983	1.8089651942062983	0.8861332418350667	0.8861332418350667
ST2011-38	2.580379650445497	2.580379650445497	2.580379650445497	2.580379650445497	2.8418773633713594	2.8418773633713594	2.580379650445497	2.580379650445497	2.580379650445497	2.580379650445497	2.8629883460976715	2.8629883460976715
ST2011-39	3.9116377129582567	3.9116377129582567	1.9446940673222164	1.9446940673222164	1.0803796504454979	1.0803796504454979	3.9116377129582567	3.9116377129582567	3.9116377129582567	3.9116377129582567	1.0803796504454979	1.0803796504454979
ST2011-4	2.1543360952575363	2.1543360952575363	2.1543360952575363	2.1543360952575363	3.924736407256542	3.924736407256542	3.924736407256542	3.924736407256542	3.924736407256542	3.924736407256542	3.924736407256542	3.924736407256542
ST2011-40	3.8901764742319696	3.8901764742319696	2.5032116028167293	2.5032116028167293	1.1831963543963542	1.1831963543963542	3.8901764742319696	3.8901764742319696	3.8901764742319696	3.8901764742319696	1.3686813878993995	1.3686813878993995
ST2011-41	1.3424581476616344	1.3424581476616344	2.6250668433138085	2.6250668433138085	0.705826220015691	0.705826220015691	1.3424581476616344	1.3424581476616344	1.3424581476616344	1.3424581476616344	0.8654403148262603	0.8654403148262603
ST2011-42	4.11125470379759	4.11125470379759	4.157547698074265	4.157547698074265	4.136436715347953	4.136436715347953	3.912649811653136	3.912649811653136	3.912649811653136	3.912649811653136	4.157547698074265	4.157547698074265
ST2011-43	1.9614855486843552	1.9614855486843552	1.969848093112357	1.969848093112357	1.9396381608064959	1.9396381608064959	1.9614855486843552	1.9614855486843552	1.9614855486843552	1.9614855486843552	1.9396381608064959	1.9396381608064959
ST2011-44	1.5143542397066752	1.5143542397066752	1.8613825446893064	1.8613825446893064	0.4563249058265681	0.4563249058265681	1.5143542397066752	1.5143542397066752	1.5143542397066752	1.5143542397066752	0.4563249058265681	0.4563249058265681
ST2011-45	2.0787738490371326	2.0787738490371326	2.0787738490371326	2.0787738490371326	2.0787738490371326	2.0787738490371326	2.0787738490371326	2.0787738490371326	2.0787738490371326	2.0787738490371326	2.0787738490371326	2.0787738490371326
ST2011-46	4.157547698074265	4.157547698074265	4.157547698074265	4.157547698074265	4.157547698074265	4.157547698074265	4.157547698074265	4.157547698074265	4.157547698074265	4.157547698074265	4.157547698074265	4.157547698074265
ST2011-47	2.0264375569587543	2.0264375569587543	2.039536251257039	2.039536251257039	1.078773849037133	1.078773849037133	2.0264375569587543	2.0264375569587543	2.0264375569587543	2.0264375569587543	1.078773849037133	1.078773849037133
ST2011-48	3.9557792481955283	3.9557792481955283	4.0528751139175085	4.0528751139175085	3.9557792481955283	3.9557792481955283	3.9557792481955283	3.9557792481955283	3.9557792481955283	3.9557792481955283	3.5788549074417624	3.5788549074417624
ST2011-49	1.2826572703315828	1.2826572703315828	2.052875113917508	2.052875113917508	2.7586660179408886	2.7586660179408886	1.2826572703315828	1.2826572703315828	1.2826572703315828	1.2826572703315828	1.94015639372644	1.94015639372644
ST2011-5	5.345968981114598	5.345968981114598	5.492863530723978	5.492863530723978	5.004872610988528	5.004872610988528	5.345968981114598	5.345968981114598	5.345968981114598	5.345968981114598	4.979690599438165	4.979690599438165
ST2011-50	1.3222318654245526	1.3222318654245526	1.5396231697723786	1.5396231697723786	1.6575476980742656	1.6575476980742656	1.3222318654245526	1.3222318654245526	1.3222318654245526	1.3222318654245526	1.6575476980742656	1.6575476980742656
ST2011-51	4.136436715347953	4.136436715347953	4.136436715347953	4.136436715347953	4.095797591370081	4.095797591370081	4.136436715347953	4.136436715347953	4.136436715347953	4.136436715347953	4.095797591370081	4.095797591370081
ST2011-52	4.157547698074265	4.157547698074265	4.157547698074265	4.157547698074265	4.157547698074265	4.157547698074265	1.041142052665404	1.041142052665404	1.041142052665404	1.041142052665404	4.157547698074265	4.157547698074265
ST2011-53	4.11125470379759	4.11125470379759	4.157547698074265	4.157547698074265	3.136436715347953	3.136436715347953	1.078773849037133	1.078773849037133	1.078773849037133	1.078773849037133	4.132365686523901	4.132365686523901
ST2011-54	2.0787738490371326	2.0787738490371326	2.0787738490371326	2.0787738490371326	2.0264375569587543	2.0264375569587543	2.0787738490371326	2.0787738490371326	2.0787738490371326	2.0787738490371326	2.0787738490371326	2.0787738490371326
ST2011-55	4.157547698074265	4.157547698074265	4.157547698074265	4.157547698074265	2.157547698074266	2.157547698074266	1.1575476980742656	1.1575476980742656	1.1575476980742656	1.1575476980742656	2.105211405995887	2.105211405995887
ST2011-56	4.0528751139175085	4.0528751139175085	4.0528751139175085	4.0528751139175085	4.157547698074265	4.157547698074265	4.0528751139175085	4.0528751139175085	4.0528751139175085	4.0528751139175085	4.157547698074265	4.157547698074265
ST2011-57	2.0016058014083646	2.0016058014083646	2.0227167841346763	2.0227167841346763	2.0535918374867683	2.0535918374867683	0.5535918374867687	0.5535918374867687	0.5535918374867687	0.5535918374867687	2.0787738490371326	2.0787738490371326
ST2011-58	0.3836812731064779	0.3836812731064779	0.3836812731064779	0.3836812731064779	0.19112172430904106	0.19112172430904106	0.4623682036282711	0.4623682036282711	0.4623682036282711	0.4623682036282711		
ST2011-59	2.4869160327748396	2.4869160327748396	3.82911265291714	3.82911265291714	0.7227650893786135	0.7227650893786135	0.6724010662778851	0.6724010662778851	0.6724010662778851	0.6724010662778851	0.7227650893786135	0.7227650893786135
ST2011-6	4.157547698074265	4.157547698074265	4.157547698074265	4.157547698074265	1.2066723873359146	1.2066723873359146	4.157547698074265	4.157547698074265	4.157547698074265	4.157547698074265	0.4121999538746605	0.4121999538746605
ST2011-60	4.157547698074265	4.157547698074265	4.157547698074265	4.157547698074265	4.157547698074265	4.157547698074265	3.6575476980742656	3.6575476980742656	3.6575476980742656	3.6575476980742656	4.157547698074265	4.157547698074265
ST2011-61	4.157547698074265	4.157547698074265	4.157547698074265	4.157547698074265	2.4401563937264394	2.4401563937264394	4.157547698074265	4.157547698074265	4.157547698074265	4.157547698074265	2.6575476980742656	2.6575476980742656
ST2011-62	0.6179245283018868	0.6179245283018868	0.9311428942762041	0.9311428942762041	0.6642175225785626	0.6642175225785626	0.6179245283018868	0.6179245283018868	0.6179245283018868	0.6179245283018868	0.6378668841351484	0.6378668841351484
ST2011-63	1.078773849037133	1.078773849037133	2.0040577701369537	2.0040577701369537	0.6790384070569621	0.6790384070569621	1.078773849037133	1.078773849037133	1.078773849037133	1.078773849037133	0.6790384070569621	0.6790384070569621
ST2011-64	4.157547698074265	4.157547698074265	4.157547698074265	4.157547698074265	3.3749390024220918	3.3749390024220918	4.157547698074265	4.157547698074265	4.157547698074265	4.157547698074265	4.722765089378613	4.722765089378613
ST2011-65	3.763100297157532	3.763100297157532	3.763100297157532	3.763100297157532	5.387467800102772	5.387467800102772	4.043579483653944	4.043579483653944	4.043579483653944	4.043579483653944	5.387467800102772	5.387467800102772
ST2011-66	2.9546992136470784	2.9546992136470784	0.9214973797287166	0.9214973797287166	0.3824935274156184	0.3824935274156184	2.074482333433184	2.074482333433184	2.074482333433184	2.074482333433184	0.13751662813517335	0.13751662813517335
ST2011-68	3.1575476980742656	3.1575476980742656	3.1575476980742656	3.1575476980742656	2.6575476980742656	2.6575476980742656	3.1575476980742656	3.1575476980742656	3.1575476980742656	3.1575476980742656	2.6575476980742656	2.6575476980742656
ST2011-7	5.063403655124964	5.063403655124964	3.8487482459095466	3.8487482459095466	5.847369679645383	5.847369679645383	5.063403655124964	5.063403655124964	5.063403655124964	5.063403655124964	5.7889579771629105	5.7889579771629105
ST2011-70	0.03087505335209222	0.03087505335209222	0.1179245283018868	0.1179245283018868	0.02518201155036419	0.02518201155036419	0.03087505335209222	0.03087505335209222	0.03087505335209222	0.03087505335209222	0.2173913043478261	0.2173913043478261
ST2011-72	1.314291768438741	1.314291768438741	1.3213471649353228	1.3213471649353228	0.4097479851460718	0.4097479851460718	1.314291768438741	1.314291768438741	1.314291768438741	1.314291768438741	0.3882867464197852	0.3882867464197852
ST2011-73	0.1308114876385662	0.1308114876385662			0.17967463500607125	0.17967463500607125	0.1308114876385662	0.1308114876385662	0.1308114876385662	0.1308114876385662	0.07471607890017934	0.07471607890017934
ST2011-74	4.149217637371484	4.149217637371484	4.195812070592375	4.195812070592375	3.0725648091938496	3.0725648091938496	2.9184091830510184	2.9184091830510184	2.9184091830510184	2.9184091830510184	3.089289898049852	3.089289898049852
ST2011-75	1.7673566861022456	1.7673566861022456	1.3533702562612804	1.3533702562612804	0.6270523709785581	0.6270523709785581	1.7673566861022456	1.7673566861022456	1.7673566861022456	1.7673566861022456	0.6270523709785581	0.6270523709785581
ST2011-8	3.005744629949948	3.005744629949948	3.545819717420926	3.545819717420926	2.4821962162350966	2.4821962162350966	3.005744629949948	3.005744629949948	3.005744629949948	3.005744629949948	2.636517773752583	2.636517773752583
ST2011-9	4.157547698074265	4.157547698074265	4.157547698074265	4.157547698074265	4.157547698074265	4.157547698074265	2.157547698074266	2.157547698074266	2.157547698074266	2.157547698074266	4.157547698074265	4.157547698074265
ST2012-1	2.0	2.0	2.1179245283018866	2.1179245283018866	1.960849320735246	1.960849320735246					2.0355653996354253	2.0355653996354253
ST2012-10	3.5589329494592614	3.5589329494592614	3.7830811861597993	3.7830811861597993	1.7303740491622597	1.7303740491622597	3.5589329494592614	3.5589329494592614	3.5589329494592614	3.5589329494592614	1.4933388531250422	1.4933388531250422
ST2012-11	3.4356319788177614	3.4356319788177614	3.4356319788177614	3.4356319788177614	2.4833648431281468	2.4833648431281468	3.9258354244667615	3.9258354244667615	3.9258354244667615	3.9258354244667615	2.3880701804455966	2.3880701804455966
ST2012-12	1.6785717622852376	1.6785717622852376	2.3006837081829263	2.3006837081829263	2.1927275257174057	2.1927275257174057	1.6785717622852376	1.6785717622852376	1.6785717622852376	1.6785717622852376	1.1234610419054438	1.1234610419054438
ST2012-13	3.3790425149713634	3.3790425149713634	3.3267062228929847	3.3267062228929847	2.396947944324732	2.396947944324732	3.387739043243432	3.387739043243432	3.387739043243432	3.387739043243432	2.3506549500480562	2.3506549500480562
ST2012-14	1.039623169772379	1.039623169772379	0.8901910119720202	0.8901910119720202	4.008115540273908	4.008115540273908	4.157547698074265	4.157547698074265	4.157547698074265	4.157547698074265	4.157547698074265	4.157547698074265
ST2012-15	2.157547698074266	2.157547698074266	2.115325732621643	2.115325732621643	4.157547698074265	4.157547698074265	3.1575476980742656	3.1575476980742656	3.1575476980742656	3.1575476980742656	4.157547698074265	4.157547698074265
ST2012-16	3.1575476980742656	3.1575476980742656	2.157547698074266	2.157547698074266	2.7043073371226662	2.7043073371226662	1.1575476980742656	1.1575476980742656	1.1575476980742656	1.1575476980742656	3.1575476980742656	3.1575476980742656
ST2012-19	0.02111098272631164	0.02111098272631164	0.04222196545262327	0.04222196545262327	1.0211109827263116	1.0211109827263116	0.02111098272631164	0.02111098272631164	0.02111098272631164	0.02111098272631164	1.0211109827263116	1.0211109827263116
ST2012-2	1.7908385791525163	1.7908385791525163	1.8006026497782972	1.8006026497782972	1.6210090731768552	1.6210090731768552	1.1123346165848091	1.1123346165848091	1.1123346165848091	1.1123346165848091	1.6210090731768552	1.6210090731768552
ST2012-20	0.3613825446893068	0.3613825446893068	0.5787738490371328	0.5787738490371328	0.1687419374872406	0.1687419374872406	0.3613825446893068	0.3613825446893068	0.3613825446893068	0.3613825446893068	0.1687419374872406	0.1687419374872406
ST2012-21					0.1571621260819805	0.1571621260819805						
ST2012-22	2.14888650016932	2.14888650016932	2.174068511719683	2.174068511719683	1.9088632846568416	1.9088632846568416	3.5787738490371326	3.5787738490371326	3.5787738490371326	3.5787738490371326	1.3604978442000772	1.3604978442000772
ST2012-23			0.02111098272631164	0.02111098272631164								
ST2012-24	4.097199117567861	4.097199117567861	4.097199117567861	4.097199117567861	0.5733329315782548	0.5733329315782548	3.0919594618507578	3.0919594618507578	3.0919594618507578	3.0919594618507578	0.4869160327748399	0.4869160327748399
ST2012-25	0.07847519556018738	0.07847519556018738			0.20295161451183732	0.20295161451183732	0.07847519556018738	0.07847519556018738	0.07847519556018738	0.07847519556018738		
ST2012-26	0.7343301737107485	0.7343301737107485	0.13506465940658466	0.13506465940658466	0.06441960933045787	0.06441960933045787						
ST2012-29	0.3613825446893068	0.3613825446893068	1.078773849037133	1.078773849037133	0.07344727480469049	0.07344727480469049	0.3613825446893068	0.3613825446893068	0.3613825446893068	0.3613825446893068	0.07344727480469049	0.07344727480469049
ST2012-3	1.986988224217055	1.986988224217055	2.0235467398855898	2.0235467398855898	2.0688440363697724	2.0688440363697724	1.986988224217055	1.986988224217055	1.986988224217055	1.986988224217055	2.0228980197417448	2.0228980197417448
ST2012-30	0.24345801638742	0.24345801638742	0.3613825446893068	0.3613825446893068	0.2173913043478261	0.2173913043478261	0.3613825446893068	0.3613825446893068	0.3613825446893068	0.3613825446893068	0.19509257593065488	0.19509257593065488
ST2012-34	0.3921574208389601	0.3921574208389601	1.3507358191196102	1.3507358191196102	1.2300386581067997	1.2300386581067997	0.3921574208389601	0.3921574208389601	0.3921574208389601	0.3921574208389601	1.2300386581067997	1.2300386581067997
ST2012-35	0.7676485181620902	0.7676485181620902	0.7395373457026313	0.7395373457026313	1.2671229406352498	1.2671229406352498	1.0	1.0	1.0	1.0	1.3415271073713848	1.3415271073713848
ST2012-36	0.5747160789001793	0.5747160789001793	0.5462929942766758	0.5462929942766758	1.37861120056676	1.37861120056676	0.5747160789001793	0.5747160789001793	0.5747160789001793	0.5747160789001793	1.7416290169208413	1.7416290169208413
ST2012-38	5.194099581658775	5.194099581658775	5.172988598932463	5.172988598932463	1.3863012187550356	1.3863012187550356	5.194099581658775	5.194099581658775	5.194099581658775	5.194099581658775	1.3863012187550356	1.3863012187550356
ST2012-39	2.132365686523902	2.132365686523902	2.132365686523902	2.132365686523902	3.086072692247225	3.086072692247225	2.132365686523902	2.132365686523902	2.132365686523902	2.132365686523902	1.8979344282738158	1.8979344282738158
ST2012-4	4.080379650445498	4.080379650445498	4.0622530353917154	4.0622530353917154	4.0860726922472255	4.0860726922472255	4.080379650445498	4.080379650445498	4.080379650445498	4.080379650445498	4.101490633171808	4.101490633171808
ST2012-40	2.1180114468172264	2.1180114468172264	2.057662866310821	2.057662866310821	2.082844877861185	2.082844877861185	2.1180114468172264	2.1180114468172264	2.1180114468172264	2.1180114468172264	2.082844877861185	2.082844877861185
ST2012-41	2.1180114468172264	2.1180114468172264	2.1180114468172264	2.1180114468172264	2.0787738490371326	2.0787738490371326					2.1180114468172264	2.1180114468172264
ST2012-42	2.0969004640909152	2.0969004640909152	2.1180114468172264	2.1180114468172264	3.0787738490371326	3.0787738490371326	0.5264375569587539	0.5264375569587539	0.5264375569587539	0.5264375569587539	3.0787738490371326	3.0787738490371326
ST2012-43	1.078773849037133	1.078773849037133	1.0998848317634446	1.0998848317634446	0.5787738490371328	0.5787738490371328	0.7908385791525167	0.7908385791525167	0.7908385791525167	0.7908385791525167	0.24345801638742	0.24345801638742
ST2012-44	0.5855305920567695	0.5855305920567695	0.19509257593065488	0.19509257593065488	1.0324808547604571	1.0324808547604571	0.5855305920567695	0.5855305920567695	0.5855305920567695	0.5855305920567695	0.9660889764523486	0.9660889764523486
ST2012-45	3.0016058014083646	3.0016058014083646	3.0324808547604567	3.0324808547604567	2.4397383380089344	2.4397383380089344	0.1556432431889554	0.1556432431889554	0.1556432431889554	0.1556432431889554	2.599884831763444	2.599884831763444
ST2012-46	6.236321547111398	6.236321547111398	6.236321547111398	6.236321547111398	6.236321547111398	6.236321547111398	0.05254084813020765	0.05254084813020765	0.05254084813020765	0.05254084813020765	6.236321547111398	6.236321547111398
ST2012-47	6.236321547111398	6.236321547111398	6.236321547111398	6.236321547111398	6.236321547111398	6.236321547111398					6.236321547111398	6.236321547111398
ST2012-48	6.236321547111398	6.236321547111398	6.236321547111398	6.236321547111398	6.236321547111398	6.236321547111398					6.236321547111398	6.236321547111398
ST2012-5	4.101490633171808	4.101490633171808	4.087435046942081	4.087435046942081	3.1760407806973334	3.1760407806973334	3.1785717622852374	3.1785717622852374	3.1785717622852374	3.1785717622852374	3.2429913716156955	3.2429913716156955
ST2012-50	6.236321547111398	6.236321547111398	6.236321547111398	6.236321547111398	6.236321547111398	6.236321547111398					6.236321547111398	6.236321547111398
ST2012-51	6.236321547111398	6.236321547111398	6.236321547111398	6.236321547111398	6.236321547111398	6.236321547111398					6.236321547111398	6.236321547111398
ST2012-52					0.181045741519216	0.181045741519216					0.181045741519216	0.181045741519216
ST2012-54	0.6268186255115629	0.6268186255115629	1.3761208880022409	1.3761208880022409	1.3519235648104702	1.3519235648104702	0.7070432322550751	0.7070432322550751	0.7070432322550751	0.7070432322550751	1.3593292173070268	1.3593292173070268
ST2012-55	0.7070432322550751	0.7070432322550751	0.678610106121168	0.678610106121168	0.959127130555132	0.959127130555132	0.7070432322550751	0.7070432322550751	0.7070432322550751	0.7070432322550751	0.9380161478288204	0.9380161478288204
ST2012-56	0.9032751685302556	0.9032751685302556	0.3623135849795567	0.3623135849795567	3.659931867085324	3.659931867085324	0.9032751685302556	0.9032751685302556	0.9032751685302556	0.9032751685302556	3.5357703131799307	3.5357703131799307
ST2012-57	1.3811571129356746	1.3811571129356746	0.03923759778009368	0.03923759778009368	0.12705237097855818	0.12705237097855818					0.1179245283018868	0.1179245283018868
ST2012-58	0.4621564686666654	0.4621564686666654	0.4309311593145981	0.4309311593145981	0.8924367881031533	0.8924367881031533	0.4621564686666654	0.4621564686666654	0.4621564686666654	0.4621564686666654	1.3282233101955194	1.3282233101955194
ST2012-59			0.06333294817893491	0.06333294817893491	0.20949841816035936	0.20949841816035936					0.3006026497782972	0.3006026497782972
ST2012-6	5.964272658513582	5.964272658513582	5.9333976051614865	5.9333976051614865	2.3415416451114357	2.3415416451114357	5.943161675787271	5.943161675787271	5.943161675787271	5.943161675787271	2.565689881811973	2.565689881811973
ST2012-60							3.7690580836552887	3.7690580836552887	3.7690580836552887	3.7690580836552887		
ST2012-61	0.9617340212244756	0.9617340212244756	0.9617340212244756	0.9617340212244756	0.98691603277484	0.98691603277484	0.5837295783504151	0.5837295783504151	0.5837295783504151	0.5837295783504151	1.0120980443252041	1.0120980443252041
ST2012-62	0.98691603277484	0.98691603277484	1.4034429561171493	1.4034429561171493	1.2974484952204974	1.2974484952204974	0.9251659260706554	0.9251659260706554	0.9251659260706554	0.9251659260706554	1.542504407360258	1.542504407360258
ST2012-63	1.6729885989324635	1.6729885989324635	6.1436963870551216	6.1436963870551216								
ST2012-64	4.042449200596823	4.042449200596823	4.20654936648014	4.20654936648014	0.7438760721049251	0.7438760721049251	0.2425733158981903	0.2425733158981903	0.2425733158981903	0.2425733158981903	4.092907601963912	4.092907601963912
ST2012-65	4.157547698074265	4.157547698074265	4.157547698074265	4.157547698074265	4.157547698074265	4.157547698074265	0.5787738490371328	0.5787738490371328	0.5787738490371328	0.5787738490371328	3.1951794944459944	3.1951794944459944
ST2012-66	1.8348173858170176	1.8348173858170176	2.3692785055202155	2.3692785055202155	0.605809945202907	0.605809945202907	1.8348173858170176	1.8348173858170176	1.8348173858170176	1.8348173858170176	0.605809945202907	0.605809945202907
ST2012-67	3.788556193601313	3.788556193601313	3.788556193601313	3.788556193601313	0.2780710220563969	0.2780710220563969	3.788556193601313	3.788556193601313	3.788556193601313	3.788556193601313	0.4347826086956522	0.4347826086956522
ST2012-68	2.101256887704814	2.101256887704814	2.917611401077129	2.917611401077129	3.02195063972374	3.02195063972374	3.9630780914056207	3.9630780914056207	3.9630780914056207	3.9630780914056207	3.5852835879026745	3.5852835879026745
ST2012-69	1.604840561076727	1.604840561076727	2.7227650893786133	2.7227650893786133	3.132378945211	3.132378945211	1.604840561076727	1.604840561076727	1.604840561076727	1.604840561076727	2.699782922213988	2.699782922213988
ST2012-7	1.041925668615297	1.041925668615297	3.025928386951406	3.025928386951406	0.4410025610466635	0.4410025610466635	1.041925668615297	1.041925668615297	1.041925668615297	1.041925668615297	0.8415416451114346	0.8415416451114346
ST2012-70	5.539623169772379	5.539623169772379	5.6266726447221735	5.6266726447221735	3.926201892036046	3.926201892036046	2.2396229003369066	2.2396229003369066	2.2396229003369066	2.2396229003369066	3.926201892036046	3.926201892036046
ST2012-71	1.1687419374872403	1.1687419374872403	0.3090462526109279	0.3090462526109279	1.078773849037133	1.078773849037133	0.02765545944629881	0.022823788997314232	0.022823788997314232	0.019852099401813168	1.078773849037133	1.078773849037133
ST2012-72	1.1687419374872403	1.1687419374872403	0.3090462526109279	0.3090462526109279	1.078773849037133	1.078773849037133	1.1687419374872403	1.1687419374872403	1.1687419374872403	1.1687419374872403	1.078773849037133	1.078773849037133
ST2012-73	1.1687419374872403	1.1687419374872403	0.3090462526109279	0.3090462526109279	1.078773849037133	1.078773849037133					1.078773849037133	1.078773849037133
ST2012-74	2.07471607890018	2.07471607890018	2.07471607890018	2.07471607890018	1.1375166281351734	1.1375166281351734	2.07471607890018	2.07471607890018	2.07471607890018	2.07471607890018	2.0391049368524348	2.0391049368524348
ST2012-75	1.064419609330458	1.064419609330458	1.0855305920567695	1.0855305920567695	1.0915738898584724	1.0915738898584724	2.07471607890018	2.07471607890018	2.07471607890018	2.07471607890018	1.5734472748046904	1.5734472748046904
ST2012-76	0.09122363385849754	0.09122363385849754	0.10839335698083526	0.10839335698083526	0.05198603607840385	0.05198603607840385	0.09122363385849754	0.09122363385849754	0.09122363385849754	0.09122363385849754	0.7821420508804494	0.7821420508804494
ST2012-77	1.7524567887645308	1.7524567887645308	1.7595121852611126	1.7595121852611126	1.7795727254566147	1.7795727254566147	1.7524567887645308	1.7524567887645308	1.7524567887645308	1.7524567887645308	1.074249434128455	1.074249434128455
ST2012-78	1.2866664657891274	1.2866664657891274	1.5787738490371328	1.5787738490371328	1.3565269925784629	1.3565269925784629	1.2866664657891274	1.2866664657891274	1.2866664657891274	1.2866664657891274	0.7358490566037736	0.7358490566037736
ST2012-79	2.0094986875958316	2.0094986875958316	0.8043234226023748	0.8043234226023748	1.7055275665387457	1.7055275665387457					1.5	1.5
ST2012-8	6.236321547111398	6.236321547111398	6.236321547111398	6.236321547111398	3.5656898818119727	3.5656898818119727	6.236321547111398	6.236321547111398	6.236321547111398	6.236321547111398	3.5656898818119727	3.5656898818119727
ST2012-80	2.4920952190064987	2.4920952190064987	3.622413612843444	3.622413612843444	2.222601489808519	2.222601489808519	2.4920952190064987	2.4920952190064987	2.4920952190064987	2.4920952190064987	1.4855779462009848	1.4855779462009848
ST2012-81	0.02111098272631164	0.02111098272631164	0.02111098272631164	0.02111098272631164	0.03923759778009368	0.03923759778009368						
ST2012-82	0.3613825446893068	0.3613825446893068	0.5	0.5								
ST2012-83	1.0	1.0	1.0	1.0	0.5523362920783789	0.5523362920783789	1.0	1.0	1.0	1.0	0.12705237097855818	0.12705237097855818
ST2012-84	0.23893360147874199	0.23893360147874199	0.24497689928044505	0.24497689928044505	1.5	1.5	0.09582706162649098	0.09582706162649098	0.09582706162649098	0.09582706162649098	1.5	1.5
ST2012-86	0.2173913043478261	0.2173913043478261			1.0	1.0	0.2173913043478261	0.2173913043478261	0.2173913043478261	0.2173913043478261	1.0	1.0
ST2012-87	2.0787738490371326	2.0787738490371326	2.0787738490371326	2.0787738490371326	0.5787738490371328	0.5787738490371328					0.24345801638742	0.24345801638742
ST2012-88					0.050364023100728385	0.050364023100728385					0.10365720711055157	0.10365720711055157
ST2012-89	0.050364023100728385	0.050364023100728385	0.04222196545262327	0.04222196545262327	0.4347826086956522	0.4347826086956522	0.050364023100728385	0.050364023100728385	0.050364023100728385	0.050364023100728385	0.4347826086956522	0.4347826086956522
ST2012-9	6.236321547111398	6.236321547111398	6.236321547111398	6.236321547111398	3.5656898818119727	3.5656898818119727	6.236321547111398	6.236321547111398	6.236321547111398	6.236321547111398	3.5656898818119727	3.5656898818119727
ST2012-90	0.7569275556048652	0.7569275556048652	0.6390030273029784	0.6390030273029784	3.057662866310821	3.057662866310821	0.7569275556048652	0.7569275556048652	0.7569275556048652	0.7569275556048652	3.057662866310821	3.057662866310821
ST2012-91	3.393863399449764	3.393863399449764	3.0296931677719434	3.0296931677719434	3.0787738490371326	3.0787738490371326	3.393863399449764	3.393863399449764	3.393863399449764	3.393863399449764	3.0787738490371326	3.0787738490371326
ST2013-1	1.0617501067041843	1.0617501067041843	1.0422219654526232	1.0422219654526232	0.4159186811534243	0.4159186811534243	0.5784751955601873	0.5784751955601873	0.5784751955601873	0.5784751955601873	0.4159186811534243	0.4159186811534243
ST2013-10	0.8305074913372145	0.8305074913372145	0.7474288680090336	0.7474288680090336	1.026437556958754	1.026437556958754	0.8305074913372145	0.8305074913372145	0.8305074913372145	0.8305074913372145	1.026437556958754	1.026437556958754
ST2013-11	0.960849320735246	0.960849320735246	0.8402715619629949	0.8402715619629949	1.026437556958754	1.026437556958754	0.960849320735246	0.960849320735246	0.960849320735246	0.960849320735246	1.026437556958754	1.026437556958754
ST2013-12	1.0603485805064052	1.0603485805064052	1.0	1.0	0.3565269925784633	0.3565269925784633	1.0603485805064052	1.0603485805064052	1.0603485805064052	1.0603485805064052	0.3565269925784633	0.3565269925784633
ST2013-13	0.2125829630353277	0.2125829630353277	0.18310943588101453	0.18310943588101453	0.5053265742324423	0.5053265742324423	0.2125829630353277	0.2125829630353277	0.2125829630353277	0.2125829630353277	0.5053265742324423	0.5053265742324423
ST2013-14	0.061750106704184425	0.061750106704184425	0.2358490566037736	0.2358490566037736	0.02111098272631164	0.02111098272631164	0.061750106704184425	0.061750106704184425	0.061750106704184425	0.061750106704184425		
ST2013-16	0.2781711992588357	0.2781711992588357	0.1687419374872406	0.1687419374872406	1.0184252685307276	1.0184252685307276	0.09529466268255007	0.09529466268255007	0.09529466268255007	0.09529466268255007	1.0184252685307276	1.0184252685307276
ST2013-17	0.02111098272631164	0.02111098272631164	0.2173913043478261	0.2173913043478261			0.5	0.5	0.5	0.5	0.03087505335209222	0.03087505335209222
ST2013-18	0.07471607890017934	0.07471607890017934	1.0	1.0	0.02111098272631164	0.02111098272631164	1.0	1.0	1.0	1.0	0.5	0.5
ST2013-19	0.5	0.5	1.0	1.0	0.05233629207837885	0.05233629207837885	1.0	1.0	1.0	1.0	0.2173913043478261	0.2173913043478261
ST2013-2	2.6522211238418234	2.6522211238418234	2.374852083906752	2.374852083906752	2.205826220015691	2.205826220015691	2.6522211238418234	2.6522211238418234	2.6522211238418234	2.6522211238418234	2.631110141115512	2.631110141115512
ST2013-20					0.02111098272631164	0.02111098272631164					0.02111098272631164	0.02111098272631164
ST2013-21					0.02111098272631164	0.02111098272631164					0.02111098272631164	0.02111098272631164
ST2013-23	3.4352139231002563	3.4352139231002563	3.4311428942762037	3.4311428942762037	3.4648201723568595	3.4648201723568595	3.4352139231002563	3.4352139231002563	3.4352139231002563	3.4352139231002563	3.4648201723568595	3.4648201723568595
ST2013-24	3.4396381608064948	3.4396381608064948	3.440906964901984	3.440906964901984	3.4648201723568595	3.4648201723568595	3.4396381608064948	3.4396381608064948	3.4396381608064948	3.4396381608064948	3.4648201723568595	3.4648201723568595
ST2013-25	1.4620179476282962	1.4620179476282962	1.926889722508185	1.926889722508185	1.3696256868767485	1.3696256868767485	1.926889722508185	1.926889722508185	1.926889722508185	1.926889722508185	1.2235156605541584	1.2235156605541584
ST2013-26	0.9623682036282712	0.9623682036282712	0.9409069649019844	0.9409069649019844	1.4047922558327894	1.4047922558327894	1.0986292863550546	1.0986292863550546	1.0986292863550546	1.0986292863550546	1.4047922558327894	1.4047922558327894
ST2013-27	0.7023684592071333	0.7023684592071333	0.6179245283018868	0.6179245283018868	1.2514195905460102	1.2514195905460102	0.7023684592071333	0.7023684592071333	0.7023684592071333	0.7023684592071333	1.2514195905460102	1.2514195905460102
ST2013-28	1.0	1.0	1.0	1.0	1.0	1.0	1.0	1.0	1.0	1.0	1.0251820115503645	1.0251820115503645
ST2013-29	1.0	1.0	1.0	1.0	1.0	1.0	1.0	1.0	1.0	1.0	1.0251820115503645	1.0251820115503645
ST2013-3	1.5395362512570392	1.5395362512570392	1.5395362512570392	1.5395362512570392	1.691471980309016	1.691471980309016	1.9744515208803501	1.9744515208803501	1.9744515208803501	1.9744515208803501	1.726317885282722	1.726317885282722
ST2013-30	0.02518201155036419	0.02518201155036419	0.02518201155036419	0.02518201155036419	0.03923759778009368	0.03923759778009368	0.02518201155036419	0.02518201155036419	0.02518201155036419	0.02518201155036419	0.03923759778009368	0.03923759778009368
ST2013-31	0.03087505335209222	0.03087505335209222	0.03087505335209222	0.03087505335209222	0.05233629207837885	0.05233629207837885	0.03087505335209222	0.03087505335209222	0.03087505335209222	0.03087505335209222	0.05233629207837885	0.05233629207837885
ST2013-32											0.02518201155036419	0.02518201155036419
ST2013-33	0.7328112908177234	0.7328112908177234	1.4869160327748396	1.4869160327748396	0.2065396652336247	0.2065396652336247	4.157547698074265	4.157547698074265	4.157547698074265	4.157547698074265	0.15897786686145998	0.15897786686145998
ST2013-34	1.888083439132696	1.888083439132696	1.8196929781806244	1.8196929781806244	2.2358165728785533	2.2358165728785533	2.2358165728785533	2.2358165728785533	2.2358165728785533	2.2358165728785533	2.2317455440545007	2.2317455440545007
ST2013-35	1.6055911322522716	1.6055911322522716	1.5771680476287682	1.5771680476287682	1.6894997113313657	1.6894997113313657	1.9272208597103508	1.9272208597103508	1.9272208597103508	1.9272208597103508	1.077518303628743	1.077518303628743
ST2013-36					0.060348580506405326	0.060348580506405326					0.060348580506405326	0.060348580506405326
ST2013-37					0.08321134543047108	0.08321134543047108					0.08321134543047108	0.08321134543047108
ST2013-38	0.07471607890017934	0.07471607890017934	0.05233629207837885	0.05233629207837885	0.03087505335209222	0.03087505335209222	1.0392375977800936	1.0392375977800936	1.0392375977800936	1.0392375977800936	0.03923759778009368	0.03923759778009368
ST2013-39	0.07471607890017934	0.07471607890017934	0.05233629207837885	0.05233629207837885	1.0	1.0	1.0392375977800936	1.0392375977800936	1.0392375977800936	1.0392375977800936	0.056057064902456405	0.056057064902456405
ST2013-4	2.014354239706675	2.014354239706675	2.014354239706675	2.014354239706675	2.057662866310821	2.057662866310821	1.9744515208803501	1.9744515208803501	1.9744515208803501	1.9744515208803501	2.0324808547604567	2.0324808547604567
ST2013-40	1.8564268153760248	1.8564268153760248	1.8353158326497128	1.8353158326497128	0.7223470336611082	0.7223470336611082	1.4265394665082105	1.4265394665082105	1.4265394665082105	1.4265394665082105	0.7223470336611082	0.7223470336611082
ST2013-41	1.5478987956850403	1.5478987956850403	1.8305074913372144	1.8305074913372144	1.5535918374867683	1.5535918374867683	1.5478987956850403	1.5478987956850403	1.5478987956850403	1.5478987956850403	1.809046252610928	1.809046252610928
ST2013-43	0.07471607890017934	0.07471607890017934	0.03923759778009368	0.03923759778009368	0.05233629207837885	0.05233629207837885	0.07471607890017934	0.07471607890017934	0.07471607890017934	0.07471607890017934	0.1179245283018868	0.1179245283018868
ST2013-44							0.12705237097855818	0.12705237097855818	0.12705237097855818	0.12705237097855818		
ST2013-45	1.5747160789001793	1.5747160789001793	1.5747160789001793	1.5747160789001793	1.3353158326497128	1.3353158326497128	1.3353158326497128	1.3353158326497128	1.3353158326497128	1.3353158326497128	1.1270523709785578	1.1270523709785578
ST2013-46					0.19264060720206616	0.19264060720206616						
ST2013-47	1.5	1.5	1.5	1.5	1.2173913043478262	1.2173913043478262					1.2173913043478262	1.2173913043478262
ST2013-48	1.9550561017310792	1.9550561017310792	1.9611995767352208	1.9611995767352208	1.887301868728117	1.887301868728117	0.4085130286568672	0.4085130286568672	0.4085130286568672	0.4085130286568672	1.6602466709569488	1.6602466709569488
ST2013-49	3.988273361643084	3.988273361643084	3.823218349373637	3.823218349373637	4.00973460036937	4.00973460036937	3.988273361643084	3.988273361643084	3.988273361643084	3.988273361643084	4.00137205594137	4.00137205594137
ST2013-5	1.9744515208803501	1.9744515208803501	1.8402715619629952	1.8402715619629952	2.0086611979049467	2.0086611979049467	1.9744515208803501	1.9744515208803501	1.9744515208803501	1.9744515208803501	2.0086611979049467	2.0086611979049467
ST2013-50	0.14943215780035868	0.14943215780035868	0.14943215780035868	0.14943215780035868	0.07847519556018738	0.07847519556018738	0.14943215780035868	0.14943215780035868	0.14943215780035868	0.14943215780035868	0.07847519556018738	0.07847519556018738
ST2013-51					0.02111098272631164	0.02111098272631164						
ST2013-52	1.8295054341527388	1.8295054341527388	1.8576166066121984	1.8576166066121984	1.406790838476753	1.406790838476753	1.8295054341527388	1.8295054341527388	1.8295054341527388	1.8295054341527388	1.406790838476753	1.406790838476753
ST2013-53	1.3500203283563628	1.3500203283563628	1.0944968807086601	1.0944968807086601	1.2602332861802477	1.2602332861802477	1.3500203283563628	1.3500203283563628	1.3500203283563628	1.3500203283563628	1.2733319804785328	1.2733319804785328
ST2013-54	2.0535918374867683	2.0535918374867683	2.0535918374867683	2.0535918374867683	2.057662866310821	2.057662866310821	1.896429711404788	1.896429711404788	1.896429711404788	1.896429711404788	2.057662866310821	2.057662866310821
ST2013-55	1.179038407056962	1.179038407056962	1.24462664328047	1.24462664328047	0.4731827167848613	0.4731827167848613	0.5928294352668623	0.5928294352668623	0.5928294352668623	0.5928294352668623	0.4731827167848613	0.4731827167848613
ST2013-56	4.073447274804692	4.073447274804692	1.7673566861022456	1.7673566861022456	3.6533239965626567	3.6533239965626567	0.1705431405266703	0.1705431405266703	0.1705431405266703	0.1705431405266703	3.32810390795496	3.32810390795496
ST2013-58	0.1179245283018868	0.1179245283018868	0.08321134543047108	0.08321134543047108	0.2949096079765692	0.2949096079765692					0.10559113225227157	0.10559113225227157
ST2013-59	1.8150895504126308	1.8150895504126308	1.9801445626820784	1.9801445626820784	0.9265394665082104	0.9265394665082104	0.22224685645866948	0.22224685645866948	0.22224685645866948	0.22224685645866948	0.16628996875865187	0.16628996875865187
ST2013-6	0.8444436753263843	0.8444436753263843	1.0885379196629137	1.0885379196629137	0.3440934193264093	0.3440934193264093	0.8444436753263843	0.8444436753263843	0.8444436753263843	0.8444436753263843	0.3873018687281168	0.3873018687281168
ST2013-60	0.24497689928044505	0.24497689928044505	0.7137515899283777	0.7137515899283777	0.02111098272631164	0.02111098272631164	0.24497689928044505	0.24497689928044505	0.24497689928044505	0.24497689928044505		
ST2013-61	0.10098770448427813	0.10098770448427813	0.10935024891227957	0.10935024891227957	0.10098770448427813	0.10098770448427813	0.10098770448427813	0.10098770448427813	0.10098770448427813	0.10098770448427813	0.10098770448427813	0.10098770448427813
ST2013-62	1.3790395015025538	1.3790395015025538	1.3970659393538971	1.3970659393538971	1.352588685856701	1.352588685856701	1.3790395015025538	1.3790395015025538	1.3790395015025538	1.3790395015025538	1.6351973815088747	1.6351973815088747
ST2013-63	0.19165412325298195	0.19165412325298195	0.07847519556018738	0.07847519556018738	0.5273685972490039	0.5273685972490039	0.15503660725748608	0.15503660725748608	0.15503660725748608	0.15503660725748608	0.2420181463537104	0.2420181463537104
ST2013-64	0.050364023100728385	0.050364023100728385	0.04222196545262327	0.04222196545262327			0.050364023100728385	0.050364023100728385	0.050364023100728385	0.050364023100728385		
ST2013-65	1.3861332418350667	1.3861332418350667	1.6687419374872403	1.6687419374872403	0.2178226187524304	0.2178226187524304	1.3861332418350667	1.3861332418350667	1.3861332418350667	1.3861332418350667	0.3873018687281168	0.3873018687281168
ST2013-66	1.3861332418350667	1.3861332418350667	1.6687419374872403	1.6687419374872403	0.2178226187524304	0.2178226187524304	1.3861332418350667	1.3861332418350667	1.3861332418350667	1.3861332418350667	0.3873018687281168	0.3873018687281168
ST2013-67	3.2803807448910898	3.2803807448910898	3.5763086216214446	3.5763086216214446	3.4941485463887783	3.4941485463887783	3.2803807448910898	3.2803807448910898	3.2803807448910898	3.2803807448910898	3.892949106942893	3.892949106942893
ST2013-68	0.2566289021279198	0.2566289021279198	0.1571621260819805	0.1571621260819805	0.13903551102819844	0.13903551102819844	0.2566289021279198	0.2566289021279198	0.2566289021279198	0.2566289021279198	0.07471607890017934	0.07471607890017934
ST2013-69	1.3613825446893066	1.3613825446893066	1.7655554830628155	1.7655554830628155	1.3613825446893066	1.3613825446893066	1.3613825446893066	1.3613825446893066	1.3613825446893066	1.3613825446893066	1.3613825446893066	1.3613825446893066
ST2013-7	0.8444436753263843	0.8444436753263843	1.0885379196629137	1.0885379196629137	0.3440934193264093	0.3440934193264093	0.8444436753263843	0.8444436753263843	0.8444436753263843	0.8444436753263843	0.3873018687281168	0.3873018687281168
ST2013-70	1.0560570649024563	1.0560570649024563	1.2385022870741378	1.2385022870741378	1.263684298624502	1.263684298624502	1.0560570649024563	1.0560570649024563	1.0560570649024563	1.0560570649024563	1.2425733158981904	1.2425733158981904
ST2013-71	0.1971650221107441	0.1971650221107441	0.20914816216038434	0.20914816216038434	0.2838642410605637	0.2838642410605637					0.2838642410605637	0.2838642410605637
ST2013-75	0.3552581884829745	0.3552581884829745	0.4170082951871589	0.4170082951871589	0.2178226187524304	0.2178226187524304	0.3552581884829745	0.3552581884829745	0.3552581884829745	0.3552581884829745	0.15792742433065038	0.15792742433065038
ST2013-76	0.5972316012930803	0.5972316012930803	0.5761206185667687	0.5761206185667687	0.4283552072876899	0.4283552072876899	0.5972316012930803	0.5972316012930803	0.5972316012930803	0.5972316012930803	0.7109639029398638	0.7109639029398638
ST2013-77	0.8412749830285349	0.8412749830285349	1.0238529273025063	1.0238529273025063	0.24826635769991834	0.24826635769991834	0.21248278583288893	0.21248278583288893	0.21248278583288893	0.21248278583288893	0.2064394880311859	0.2064394880311859
ST2013-78	1.2921073832480054	1.2921073832480054	1.7317249551353158	1.7317249551353158	0.3353158326497129	0.3353158326497129	1.735637321642168	1.735637321642168	1.735637321642168	1.735637321642168	0.2566289021279198	0.2566289021279198
ST2013-79	2.21782261875243	2.21782261875243	2.362220034380192	2.362220034380192	1.2777398848542314	1.2777398848542314	2.21782261875243	2.21782261875243	2.21782261875243	2.21782261875243	2.2908385791525165	2.2908385791525165
ST2013-8					0.5519860360784038	0.5519860360784038					0.5519860360784038	0.5519860360784038
ST2013-80	0.3092963314084641	0.3092963314084641	1.0560570649024563	1.0560570649024563	0.15757716833067542	0.15757716833067542	1.0	1.0	1.0	1.0	0.12543331088309434	0.12543331088309434
ST2013-81	1.0224830386676809	1.0224830386676809	1.0056635715453184	1.0056635715453184	3.003220280446069	3.003220280446069	1.4174396095917627	1.4174396095917627	1.4174396095917627	1.4174396095917627	3.0089133222477966	3.0089133222477966
ST2013-82							0.03923759778009368	0.03923759778009368	0.03923759778009368	0.03923759778009368		
ST2013-84			0.03087505335209222	0.03087505335209222	0.02518201155036419	0.02518201155036419	0.143106539852251	0.143106539852251	0.143106539852251	0.143106539852251	0.02111098272631164	0.02111098272631164
ST2013-85											0.05233629207837885	0.05233629207837885
ST2013-86	0.5	0.5	0.5	0.5	0.03087505335209222	0.03087505335209222	0.5	0.5	0.5	0.5	0.03087505335209222	0.03087505335209222
ST2013-87	1.051986036078404	1.051986036078404	1.0211109827263116	1.0211109827263116	1.0392375977800936	1.0392375977800936	0.835315832649713	0.835315832649713	0.835315832649713	0.835315832649713	1.0392375977800936	1.0392375977800936
ST2013-9	1.5	1.5	1.2173913043478262	1.2173913043478262	0.3604978442000771	0.3604978442000771	0.5775183036287429	0.5775183036287429	0.5775183036287429	0.5775183036287429	0.643106539852251	0.643106539852251
ST2014-1	0.5	0.5	0.03923759778009368	0.03923759778009368	0.2173913043478261	0.2173913043478261	0.5	0.5	0.5	0.5		
ST2014-10	0.7930806085099906	0.7930806085099906	0.7930806085099906	0.7930806085099906	3.3132183659743166	3.3132183659743166	0.4413382793065888	0.4413382793065888	0.4413382793065888	0.4413382793065888	3.292107383248005	3.292107383248005
ST2014-11	0.1308114876385662	0.1308114876385662	0.1308114876385662	0.1308114876385662	0.1531912744603667	0.1531912744603667	0.1308114876385662	0.1308114876385662	0.1308114876385662	0.1308114876385662	0.1531912744603667	0.1531912744603667
ST2014-12	2.0653544907565133	2.0653544907565133	2.0653544907565133	2.0653544907565133	2.153036541852687	2.153036541852687	2.0653544907565133	2.0653544907565133	2.0653544907565133	2.0653544907565133	2.153036541852687	2.153036541852687
ST2014-13	2.654686351257511	2.654686351257511	2.660379393059239	2.660379393059239	2.2350954719594185	2.2350954719594185	2.6046931730759426	2.6046931730759426	2.6046931730759426	2.6046931730759426	2.2350954719594185	2.2350954719594185
ST2014-14	0.03923759778009368	0.03923759778009368	0.07471607890017934	0.07471607890017934			0.03923759778009368	0.03923759778009368	0.03923759778009368	0.03923759778009368		
ST2014-16	0.03923759778009368	0.03923759778009368	0.08123907645282061	0.08123907645282061	0.02518201155036419	0.02518201155036419	0.10935024891227957	0.10935024891227957	0.10935024891227957	0.10935024891227957	0.02111098272631164	0.02111098272631164
ST2014-17	0.613953676680273	0.613953676680273	0.41003191154989227	0.41003191154989227	0.3604978442000771	0.3604978442000771	1.462368203628271	1.462368203628271	1.462368203628271	1.462368203628271	0.3604978442000771	0.3604978442000771
ST2014-18	2.1046725841567566	2.1046725841567566	2.1494321578003586	2.1494321578003586	2.124768189836863	2.124768189836863	2.1046725841567566	2.1046725841567566	2.1046725841567566	2.1046725841567566	2.0523362920783788	2.0523362920783788
ST2014-19					0.5	0.5					0.5	0.5
ST2014-2	2.0787738490371326	2.0787738490371326	2.0787738490371326	2.0787738490371326	2.0787738490371326	2.0787738490371326	1.9871999591786604	1.9871999591786604	1.9871999591786604	1.9871999591786604	2.0787738490371326	2.0787738490371326
ST2014-23	2.1046725841567566	2.1046725841567566	2.1494321578003586	2.1494321578003586	2.124768189836863	2.124768189836863	2.1046725841567566	2.1046725841567566	2.1046725841567566	2.1046725841567566	2.0523362920783788	2.0523362920783788
ST2014-25	1.192640607202066	1.192640607202066	1.7173913043478262	1.7173913043478262	1.0462929942766759	1.0462929942766759	1.5	1.5	1.5	1.5	1.0462929942766759	1.0462929942766759
ST2014-26	1.6350646594065843	1.6350646594065843	1.6481633537048697	1.6481633537048697	0.3010339641829014	0.3010339641829014	1.6350646594065843	1.6350646594065843	1.6350646594065843	1.6350646594065843	0.3150895504126309	0.3150895504126309
ST2014-27	1.7520912285321428	1.7520912285321428	2.662689962056198	2.662689962056198	3.4347826086956523	3.4347826086956523					3.4347826086956523	3.4347826086956523
ST2014-28	0.6390355110281984	0.6390355110281984	0.5603485805064053	0.5603485805064053	0.3262159757332656	0.3262159757332656	0.6390355110281984	0.6390355110281984	0.6390355110281984	0.6390355110281984	0.21321919098443687	0.21321919098443687
ST2014-29	0.9347826086956522	0.9347826086956522	0.9347826086956522	0.9347826086956522	0.9347826086956522	0.9347826086956522	0.6494321578003587	0.6494321578003587	0.6494321578003587	0.6494321578003587	0.9347826086956522	0.9347826086956522
ST2014-3	1.9788757585865893	1.9788757585865893	1.982946787410642	1.982946787410642	1.0535918374867688	1.0535918374867688	1.9788757585865893	1.9788757585865893	1.9788757585865893	1.9788757585865893	1.0535918374867688	1.0535918374867688
ST2014-30					0.03923759778009368	0.03923759778009368					0.03923759778009368	0.03923759778009368
ST2014-31	2.1828440528510646	2.1828440528510646	1.0172566416376774	1.0172566416376774	1.5251687528632651	1.5251687528632651	0.9063131842711284	0.9063131842711284	0.9063131842711284	0.9063131842711284	1.5475485396850657	1.5475485396850657
ST2014-32	1.3613825446893066	1.3613825446893066	1.4819603034615576	1.4819603034615576	1.3793764988154298	1.3793764988154298	0.2026957185114321	0.2026957185114321	0.2026957185114321	0.2026957185114321	1.3793764988154298	1.3793764988154298
ST2014-33	1.9054284837818989	1.9054284837818989	1.8997354419801709	1.8997354419801709	1.7222468564586697	1.7222468564586697	1.8029218964045959	1.8029218964045959	1.8029218964045959	1.8029218964045959	1.6954428319306298	1.6954428319306298
ST2014-34	2.217391304347826	2.217391304347826	2.217391304347826	2.217391304347826	2.217391304347826	2.217391304347826	2.217391304347826	2.217391304347826	2.217391304347826	2.217391304347826	2.217391304347826	2.217391304347826
ST2014-36	1.3006026497782972	1.3006026497782972	1.3622200343801911	1.3622200343801911	1.057231551906217	1.057231551906217	1.3006026497782972	1.3006026497782972	1.3006026497782972	1.3006026497782972	1.431142894276204	1.431142894276204
ST2014-37	0.03087505335209222	0.03087505335209222	0.03087505335209222	0.03087505335209222			0.03087505335209222	0.03087505335209222	0.03087505335209222	0.03087505335209222		
ST2014-38	2.2449636405933457	2.2449636405933457	2.6746009106636235	2.6746009106636235	2.0349328234890454	2.0349328234890454	1.6966983773390196	1.6966983773390196	1.6966983773390196	1.6966983773390196	1.9265394665082105	1.9265394665082105
ST2014-39	1.7655554830628155	1.7655554830628155	1.865022259108755	1.865022259108755	1.2734483692502827	1.2734483692502827	1.7655554830628155	1.7655554830628155	1.7655554830628155	1.7655554830628155	1.2734483692502827	1.2734483692502827
ST2014-4	1.3613825446893066	1.3613825446893066	1.4819603034615576	1.4819603034615576	1.3793764988154298	1.3793764988154298					1.3793764988154298	1.3793764988154298
ST2014-40	1.0462929942766759	1.0462929942766759	1.0308750533520925	1.0308750533520925	1.0603485805064052	1.0603485805064052	1.0462929942766759	1.0462929942766759	1.0462929942766759	1.0462929942766759	1.0462929942766759	1.0462929942766759
ST2014-42	0.07471607890017934	0.07471607890017934	0.07471607890017934	0.07471607890017934	0.13903551102819844	0.13903551102819844	0.07471607890017934	0.07471607890017934	0.07471607890017934	0.07471607890017934	0.09582706162649098	0.09582706162649098
ST2014-43	0.6390355110281984	0.6390355110281984	0.5603485805064053	0.5603485805064053	0.3262159757332656	0.3262159757332656	0.6390355110281984	0.6390355110281984	0.6390355110281984	0.6390355110281984	0.21321919098443687	0.21321919098443687
ST2014-44	3.1294987367212497	3.1294987367212497	2.8931283581792795	2.8931283581792795	3.7326920779102384	3.7326920779102384	1.6101354977462152	1.6101354977462152	1.6101354977462152	1.6101354977462152	3.733848800130549	3.733848800130549
ST2014-45	1.982946787410642	1.982946787410642	2.0053265742324418	2.0053265742324418	1.0535918374867688	1.0535918374867688	1.982946787410642	1.982946787410642	1.982946787410642	1.982946787410642	1.0535918374867688	1.0535918374867688
ST2014-47	0.03923759778009368	0.03923759778009368	0.08123907645282061	0.08123907645282061	0.02518201155036419	0.02518201155036419	0.10935024891227957	0.10935024891227957	0.10935024891227957	0.10935024891227957	0.02111098272631164	0.02111098272631164
ST2014-48	0.02518201155036419	0.02518201155036419			0.02518201155036419	0.02518201155036419	0.02518201155036419	0.02518201155036419	0.02518201155036419	0.02518201155036419	0.02518201155036419	0.02518201155036419
ST2014-49	0.17026082038026566	0.17026082038026566	0.5308750533520922	0.5308750533520922	0.143106539852251	0.143106539852251	0.17026082038026566	0.17026082038026566	0.17026082038026566	0.17026082038026566	0.143106539852251	0.143106539852251
ST2014-50	2.7961651533849587	2.7961651533849587	3.2961651533849587	3.2961651533849587	2.3233194339129732	2.3233194339129732	2.273866424967788	2.273866424967788	2.273866424967788	2.273866424967788	2.3917098948650453	2.3917098948650453
ST2014-51	0.03923759778009368	0.03923759778009368	0.08123907645282061	0.08123907645282061	0.02518201155036419	0.02518201155036419	0.10935024891227957	0.10935024891227957	0.10935024891227957	0.10935024891227957	0.02111098272631164	0.02111098272631164
ST2014-52	2.778303921361126	2.778303921361126	2.490002183907224	2.490002183907224	2.273918027490817	2.273918027490817	2.778303921361126	2.778303921361126	2.778303921361126	2.778303921361126	1.4212777391110865	1.4212777391110865
ST2014-53	2.691121724309041	2.691121724309041	2.7343301737107484	2.7343301737107484	0.960849320735246	0.960849320735246	2.691121724309041	2.691121724309041	2.691121724309041	2.691121724309041	0.8613825446893066	0.8613825446893066
ST2014-54	0.1402253022643718	0.1402253022643718	0.2111822645045431	0.2111822645045431	0.2140228330690373	0.2140228330690373	0.1402253022643718	0.1402253022643718	0.1402253022643718	0.1402253022643718	0.2056602886410358	0.2056602886410358
ST2014-55					0.02111098272631164	0.02111098272631164						
ST2014-56	1.0308750533520925	1.0308750533520925	1.0308750533520925	1.0308750533520925	1.0603485805064052	1.0603485805064052	1.0308750533520925	1.0308750533520925	1.0308750533520925	1.0308750533520925	1.0462929942766759	1.0462929942766759
ST2014-57	1.113953676680273	1.113953676680273	2.060348580506405	2.060348580506405	0.18803717943407272	0.18803717943407272	2.5958270616264905	2.5958270616264905	2.5958270616264905	2.5958270616264905	0.21321919098443687	0.21321919098443687
ST2014-59					1.0	1.0					1.0	1.0
ST2014-6	1.6350646594065843	1.6350646594065843	1.6481633537048697	1.6481633537048697	0.3010339641829014	0.3010339641829014	1.6350646594065843	1.6350646594065843	1.6350646594065843	1.6350646594065843	0.3150895504126309	0.3150895504126309
ST2014-61	3.856945048295968	3.856945048295968	3.884099328823983	3.884099328823983	2.605561661995861	2.605561661995861	3.856945048295968	3.856945048295968	3.856945048295968	3.856945048295968	2.7953276636940743	2.7953276636940743
ST2014-62	2.261883284918148	2.261883284918148	2.261883284918148	2.261883284918148	2.664304441093902	2.664304441093902	2.261883284918148	2.261883284918148	2.261883284918148	2.261883284918148	2.664304441093902	2.664304441093902
ST2014-63	0.29759916330795805	0.29759916330795805	0.33963533401388585	0.33963533401388585			0.8499354553863371	0.8499354553863371	0.8499354553863371	0.8499354553863371		
ST2014-64	0.6390355110281984	0.6390355110281984	0.5603485805064053	0.5603485805064053	0.3262159757332656	0.3262159757332656	0.6390355110281984	0.6390355110281984	0.6390355110281984	0.6390355110281984	0.21321919098443687	0.21321919098443687
ST2014-65	0.07716804762876804	0.07716804762876804	0.15223438252892238	0.15223438252892238	0.07716804762876804	0.07716804762876804	0.07716804762876804	0.07716804762876804	0.07716804762876804	0.07716804762876804	0.07716804762876804	0.07716804762876804
ST2014-66	2.4394043541648687	2.4394043541648687	0.6835274915985198	0.6835274915985198	0.8077449647902192	0.8077449647902192	2.515637581542214	2.515637581542214	2.515637581542214	2.515637581542214	0.5554630219250825	0.5554630219250825
ST2014-68	3.910118830065232	3.910118830065232	3.910118830065232	3.910118830065232	3.8662778045171446	3.8662778045171446	3.910118830065232	3.910118830065232	3.910118830065232	3.910118830065232	3.8662778045171446	3.8662778045171446
ST2014-7	0.09529466268255007	0.09529466268255007	0.09529466268255007	0.09529466268255007	0.5251820115503641	0.5251820115503641	0.0701126511321859	0.0701126511321859	0.0701126511321859	0.0701126511321859	0.05198603607840385	0.05198603607840385
ST2014-70	0.2936283116863443	0.2936283116863443	0.2280400754628363	0.2280400754628363	0.30672700598462943	0.30672700598462943	0.2936283116863443	0.2936283116863443	0.2936283116863443	0.2936283116863443	0.30672700598462943	0.30672700598462943
ST2014-71					0.03923759778009368	0.03923759778009368	0.1391356882306372	0.1391356882306372	0.1391356882306372	0.1391356882306372	0.03923759778009368	0.03923759778009368
ST2014-72	1.091522287335443	1.091522287335443	1.0647182628074032	1.0647182628074032	1.0871363934651344	1.0871363934651344	0.3090462526109279	0.3090462526109279	0.3090462526109279	0.3090462526109279	1.1180114468172266	1.1180114468172266
ST2014-73	1.2645689991137314	1.2645689991137314	0.6877717964041238	0.6877717964041238	1.2393869875633672	1.2393869875633672	0.05233629207837885	0.05233629207837885	0.05233629207837885	0.05233629207837885	0.4045909940910142	0.4045909940910142
ST2014-74	1.8330835045387541	1.8330835045387541	2.784513150537484	2.784513150537484	1.850820692089636	1.850820692089636	1.8330835045387541	1.8330835045387541	1.8330835045387541	1.8330835045387541	1.8297097093633248	1.8297097093633248
ST2014-75	0.1308114876385662	0.1308114876385662	0.1308114876385662	0.1308114876385662	0.1531912744603667	0.1531912744603667	0.1308114876385662	0.1308114876385662	0.1308114876385662	0.1308114876385662	0.1531912744603667	0.1531912744603667
ST2014-76	2.051619568509118	2.051619568509118	2.051619568509118	2.051619568509118	2.1059281295651475	2.1059281295651475	2.051619568509118	2.051619568509118	2.051619568509118	2.051619568509118	2.084817146838836	2.084817146838836
ST2014-77			0.02518201155036419	0.02518201155036419								
ST2014-78	1.9871999591786604	1.9871999591786604	1.9409069649019848	1.9409069649019848	1.7866664657891274	1.7866664657891274	1.0143542397066752	1.0143542397066752	1.0143542397066752	1.0143542397066752	1.7434580163874198	1.7434580163874198
ST2014-8	2.3749522611091907	2.3749522611091907	2.1489655130286343	2.1489655130286343	2.544564172012536	2.544564172012536	2.3749522611091907	2.3749522611091907	2.3749522611091907	2.3749522611091907	2.534932823489046	2.534932823489046
ST2014-80	0.05233629207837885	0.05233629207837885	0.5	0.5			0.1179245283018868	0.1179245283018868	0.1179245283018868	0.1179245283018868		
ST2014-82							0.05233629207837885	0.05233629207837885	0.05233629207837885	0.05233629207837885		
ST2014-83	1.6494321578003586	1.6494321578003586	1.2677553274485545	1.2677553274485545	2.4284896638058395	2.4284896638058395	1.6494321578003586	1.6494321578003586	1.6494321578003586	1.6494321578003586	2.770098441345365	2.770098441345365
ST2014-84	3.645964873200196	3.645964873200196	3.712853630752049	3.712853630752049	3.584214766496011	3.584214766496011					3.4347826086956523	3.4347826086956523
ST2014-85	0.2358490566037736	0.2358490566037736	0.099586178286499	0.099586178286499	0.4347826086956522	0.4347826086956522	0.13926841033292747	0.13926841033292747	0.13926841033292747	0.13926841033292747	0.4347826086956522	0.4347826086956522
ST2014-86	0.5216292156462556	0.5216292156462556	0.500518232919944	0.500518232919944	1.5213468954998508	1.5213468954998508	3.082394444658772	3.082394444658772	3.082394444658772	3.082394444658772	1.3284350451571252	1.3284350451571252
ST2014-87	0.2949096079765692	0.2949096079765692	0.34689564405497303	0.34689564405497303	0.912834136278456	0.912834136278456	0.18310943588101453	0.18310943588101453	0.18310943588101453	0.18310943588101453	1.1167559014088366	1.1167559014088366
ST2014-88							0.1179245283018868	0.1179245283018868	0.1179245283018868	0.1179245283018868		
ST2014-89	3.2961651533849587	3.2961651533849587	3.2961651533849587	3.2961651533849587	2.215590290641472	2.215590290641472	2.29199304002157	2.29199304002157	2.29199304002157	2.29199304002157	2.171616542991094	2.171616542991094
ST2014-9	0.19264060720206616	0.19264060720206616	0.2178226187524304	0.2178226187524304	0.3132183659743171	0.3132183659743171	0.19264060720206616	0.19264060720206616	0.19264060720206616	0.19264060720206616	0.3132183659743171	0.3132183659743171
ST2014-90	0.6092175879846209	0.6092175879846209	1.306992925228648	1.306992925228648	0.6988192088654429	0.6988192088654429	0.2887389119692166	0.2887389119692166	0.2887389119692166	0.2887389119692166	0.6947481800413903	0.6947481800413903
ST2014-91	2.3047930808429093	2.3047930808429093	2.817408797038929	2.817408797038929	2.273918027490817	2.273918027490817	2.3047930808429093	2.3047930808429093	2.3047930808429093	2.3047930808429093	1.4212777391110865	1.4212777391110865
ST2014-92	1.9992022180261104	1.9992022180261104	2.0306096703221432	2.0306096703221432	2.365554658052696	2.365554658052696	1.9992022180261104	1.9992022180261104	1.9992022180261104	1.9992022180261104	2.344443675326384	2.344443675326384
ST2014-93	0.1308114876385662	0.1308114876385662	0.1308114876385662	0.1308114876385662	0.1531912744603667	0.1531912744603667	0.1308114876385662	0.1308114876385662	0.1308114876385662	0.1308114876385662	0.1531912744603667	0.1531912744603667
ST2014-94	1.0	1.0	1.0	1.0	1.0	1.0	1.0	1.0	1.0	1.0	1.0	1.0
ST2014-95	2.2449636405933457	2.2449636405933457	2.6746009106636235	2.6746009106636235	2.0349328234890454	2.0349328234890454	1.6966983773390196	1.6966983773390196	1.6966983773390196	1.6966983773390196	1.9265394665082105	1.9265394665082105
ST2014-96	2.2449636405933457	2.2449636405933457	2.6746009106636235	2.6746009106636235	2.0349328234890454	2.0349328234890454	1.6966983773390196	1.6966983773390196	1.6966983773390196	1.6966983773390196	1.9265394665082105	1.9265394665082105
ST2014-97	1.7791414110520103	1.7791414110520103	0.8856798557504414	0.8856798557504414	1.7791414110520103	1.7791414110520103	1.7791414110520103	1.7791414110520103	1.7791414110520103	1.7791414110520103	1.7791414110520103	1.7791414110520103
ST2014-98			0.02111098272631164	0.02111098272631164	0.03087505335209222	0.03087505335209222					0.03923759778009368	0.03923759778009368
ST2014-99	0.9648201723568598	0.9648201723568598	0.9955625036066618	0.9955625036066618	0.9620179476282958	0.9620179476282958	0.9648201723568598	0.9648201723568598	0.9648201723568598	0.9648201723568598	0.9396381608064956	0.9396381608064956
