topic	clip_addwords	clip_baseline	clip_filter	dqn_5_actions	dqn_semantic_state	galago_baseline	ictnet_div_qe	ictnet_emulti	ictnet_fom_itr1	ictnet_params1_s	ictnet_params2_ns
dd17-1	0.0	10.81843552425442	0.0	10.128297354652126	10.194959756473	10.302088719885392	9.932098693493806	9.932098693493806	10.543534424797171	10.116534531111887	10.126439301175314
dd17-10	12.4133167296181	10.653061089816052	12.256199621473145	10.175491715554783	12.503503601376428	12.762245414373623	11.11402145991442	11.11402145991442	12.736499591053054	11.144919255711148	11.14575663307312
dd17-11	14.340818980260265	15.008183614051607	14.313905073185039	14.142478631320436	14.957153850978182	14.900235823465161	13.694022104609505	13.694022104609505	14.484839849376016	13.585170233547805	13.601277645369745
dd17-12	4.432566085800783	7.546329646779696	4.518788837768948	4.305058958797502	8.49726829779044	8.96402672931235	7.0872536504612995	7.0872536504612995	7.200584004991375	7.0872536504612995	7.0872536504612995
dd17-13	4.771848327448923	8.380520782436319	4.771848327448923	7.805932556637758	8.314973902816718	8.292922424855309	7.634376231684523	7.634376231684523	6.2994472693284935	7.634376231684523	7.656808604295174
dd17-14	4.046156173158131	7.984466884457773	3.4690650094967284	9.009615337846187	9.633708690459317	10.024714781874248	7.966266178598193	7.966266178598193	2.5339014266290283	7.6535561722670415	7.711783063342907
dd17-15	10.951331032309888	10.827319460771328	10.832298965833811	11.333249158634606	11.395315813349226	10.7065447864389	10.038427076464805	10.038427076464805	10.073312858064655	10.356729815122707	10.356729815122707
dd17-16	0.7824335739683995	0.06624893536244368	0.38305881719904106	0.6906492409144862	0.1513448961078987	0.015272498102196025	0.5591465139006105	0.5591465139006105	1.66586220075632	0.5591465139006105	0.5941973385017196
dd17-17	0.0	8.443144117768677	0.0	6.038288759881771	7.369474141394478	6.89890587848744	4.115914198773306	4.115914198773306	4.701936028217951	4.115914198773306	4.723799174835611
dd17-18	11.46971366817402	8.594492830086743	11.473361361839359	10.701219474721084	9.9595298781776	11.016214178642185	10.450702866399672	10.450702866399672	9.764477566586727	10.450702866399672	10.457561877815506
dd17-19	8.696081264794625	8.152165086287932	8.278672798564624	8.990886608261457	7.768941462845214	7.325681362718423	8.644484814823207	8.644484814823207	8.241248818660944	8.673493506487251	8.735848274102135
dd17-2	0.0	8.28669500449157	0.0	10.130428740023044	7.2153164474881155	1.7797624025871968	9.436166410199718	9.436166410199718	8.35124115391023	9.57689510015858	9.57689510015858
dd17-20	0.0	11.135239089940958	0.0	6.711623263562587	10.77342096911962	11.289539584731727	10.19431021349827	10.19431021349827	5.038516298224131	10.216361691459678	10.229023783085237
dd17-21	15.208695148583072	14.637430647396545	14.211253147950854	15.657500388647987	13.97580336776382	15.069682215019238	14.901423452295713	14.901423452295713	13.344584458009924	14.888285665437405	14.925241306063445
dd17-22	0.0	11.366119527581954	0.0	11.256223449095168	10.680709498710863	11.626131323314588	11.93680620955389	11.93680620955389	12.447390057960167	11.366890575905314	11.41587508161802
dd17-23	0.0	5.0039255153787146	0.0	2.4528856179084237	10.390688842819324	10.188983390438091	7.930717784386134	7.930717784386134	11.279140001556172	7.9560178828455	7.959817337779598
dd17-24	0.0	11.168559669019682	0.0	6.511785347106431	5.9931921891789885	10.60312126610708	9.572671942267322	9.572671942267322	7.264696939469031	9.620497825459728	9.81394153927624
dd17-25	2.2988205214996222	14.005565194707	2.7005707547784805	13.087748506891652	10.964363077643833	12.156243610915315	13.524707199142444	13.524707199142444	10.841136695210373	13.524707199142444	13.573604858416743
dd17-26	0.0	7.314538597951031	0.0	6.608377182744317	7.351037281582202	7.8997763931464275	6.985697273606522	6.985697273606522	6.067264102615843	6.988187026137767	6.988187026137767
dd17-27	2.8381195683928104	5.621174704798106	2.8381195683928104	4.455451700030508	5.248884799849702	5.479736369472456	4.9958959942609615	4.9958959942609615	2.774198983242329	4.9958959942609615	5.56070995541646
dd17-28	0.0	14.014669924857273	0.0	15.668525096701384	15.195664034619346	14.449128834535305	15.099807528549215	15.099807528549215	10.863556902731702	14.974123656373456	14.981277203910205
dd17-29	12.54568050576582	12.865792768079386	10.315324744485222	14.605702910207837	14.23712515427882	13.970112490212227	13.215398464877536	13.215398464877536	13.349515216537855	13.349515216537855	13.390384930943485
dd17-3	0.0	0.2942110945525728	0.0	1.697890011325199	1.0603287289506549	0.6787217949052801	1.689419509338594	1.689419509338594	4.736416193388875	1.689419509338594	1.7570187729312463
dd17-30	10.636996642506798	8.960296774788652	9.865092129552018	6.875702964593242	8.483969133407918	10.927664321619673	7.128171047124959	7.128171047124959	10.219500166693152	7.174175928743463	7.270237345289514
dd17-31	8.995493147106988	3.9781116274239534	5.129948491668914	5.086471215393524	8.371882904313956	7.6265684935966815	9.716119726682004	9.716119726682004	8.498379613522758	9.268148997247534	9.399516988069674
dd17-32	7.902995627558253	3.1763899570923977	4.3307396221728345	5.462882042957256	3.3077333542070297	2.5776997539798274	1.86402904805854	1.86402904805854	4.697366058957255	1.86402904805854	2.1295651283152397
dd17-33	0.0	10.929037421718524	0.0	10.679902960839119	10.739958947368123	10.811322876396916	8.725677234452032	8.725677234452032	9.403806348840344	8.999769977652537	9.085024764273498
dd17-34	8.44005394618753	5.459109667335238	7.507756294672471	6.2155141147919055	10.262780169971775	10.62024752976068	7.98217732274514	7.98217732274514	7.01120691268507	7.333560046219767	7.750896982551397
dd17-35	1.0	8.370205552489596	1.0	11.523960780386634	9.49651385173733	9.284073844988924	9.812439128231144	9.812439128231144	10.217182613052326	9.814008761471	9.837180572056338
dd17-36	0.0	0.1402032984044362	0.0	3.480033821726704	1.1496728800117648	1.216752829464098	0.0	0.0	0.0	0.0	0.013909449151503736
dd17-37	0.0	4.3624644365985645	0.0	3.582260568947638	4.766117634398082	4.766117634398082	4.672139066560098	4.672139066560098	7.200584004991375	4.672139066560098	4.672139066560098
dd17-38	5.244444138255244	4.3915627228013125	4.833893687340822	5.155905772881285	4.183344661750438	4.2842466955224685	3.9666309011006846	3.9666309011006846	5.04835011579769	4.2966339716199204	4.2978832660154485
dd17-39	7.400500242595947	5.767060166634022	6.8259120167973855	5.96999006131531	4.063685209431377	5.447214839173461	6.401461353354874	6.401461353354874	8.560270035442338	6.701108884830179	6.728575376498416
dd17-4	0.0	11.118567957892024	0.0	15.454119308716244	10.281937947962328	9.78401258321681	15.712244421053036	15.712244421053036	11.697902358899855	15.715067930611987	15.731831697972295
dd17-40	5.9161227746306695	5.101435651360261	6.442083340018357	5.469332616744912	5.513178569200591	5.600651331366173	7.044843761321277	7.044843761321277	7.4974505888202545	7.044843761321277	7.06727613393193
dd17-41	7.651153912763326	5.546373819090962	7.066998904600007	3.845736376122287	7.8624841110465935	8.171823387447521	6.782704103697728	6.782704103697728	6.061214960398622	6.408507356082871	6.552491205676446
dd17-42	14.348434273976324	13.335990312708851	14.64940866329983	13.967194380643775	14.098176834945965	14.305206367978222	13.073649779036556	13.073649779036556	12.5010185594094	13.06133602917014	13.103373717242091
dd17-43	8.539040763590501	12.111774638522437	7.965319386146679	15.621724951604795	13.655816737448529	12.61161738297312	13.240621633589582	13.240621633589582	13.385938550697167	13.917685691870663	14.000501029252028
dd17-44	0.0	6.949497598410328	0.0	7.342475254609476	6.8210306413712285	7.557089331712036	6.245945987158022	6.245945987158022	5.1996791226781385	6.245945987158022	6.2511928337940015
dd17-45	9.433391158211483	9.485190785049976	9.110896925240796	11.147133644182851	10.231614821396466	11.270976882327867	10.274831607502179	10.274831607502179	10.660878108185095	10.656651961090782	10.937666550779
dd17-46	9.571781432488653	8.83715566546216	7.477622178895223	7.913755253108798	5.845545975689786	8.747319996612116	11.624079362315626	11.624079362315626	10.59392774486612	11.559838832117428	11.576040574307553
dd17-47	11.707900483160346	9.783039277139123	8.325287633975275				10.630839792784363	10.630839792784363	12.498011567655535	10.497576805389839	10.534034607056725
dd17-48	0.0	5.047226347686765	0.0	6.365628814220934	5.3143397167117845	4.772618505734031	7.996730920734461	7.996730920734461	5.264207117851337	8.100023465564941	8.120180208200455
dd17-49	4.271165323884323	3.652385722481189	3.574588225798561	8.593045843135366	4.892713758281539	3.809129875067186	6.346904577839188	6.346904577839188	9.507929038432817	6.346904577839188	6.542448701382241
dd17-5	5.399718003331356	5.792949614816843	4.285270740036354	6.13750535577178	5.265811065289885	3.519702950711437	2.5112256564651045	2.5112256564651045	1.4744502441517766	2.5112256564651045	2.8850716241798686
dd17-50	2.3146249264333147	8.961539861781363	2.3146249264333147	11.124724529026864	10.016687133165584	10.662406650518417	9.957292602578727	9.957292602578727	11.160474242332445	9.561095664206187	9.64349643060174
dd17-51	0.0	0.562321600278848	0.0	2.984435650274793	0.5709743273860143	0.003522905239249715	1.6466640302376383	1.6466640302376383	3.791130284473819	1.6466640302376383	1.8374997139303064
dd17-52	2.0343156881050684	2.2087258868543493	2.059297953984662	4.801521525828785	3.5490900949343787	0.8272017219588764	6.6083326737889685	6.6083326737889685	8.305252407399411	6.089869885630818	6.148053175913052
dd17-53	8.519278746520229	7.339192866872662	7.2829153152667425	7.901573964939206	9.757897329783061	0.10648847266565477	9.260005261168832	9.260005261168832	5.6869463763710275	9.370855254888475	9.415919749872927
dd17-54	11.613298261753142	9.523504181774275	11.000217837943964	11.941314208257715	11.277290999142034	11.45179019952067	11.097345924018256	11.097345924018256	11.390958672616133	11.034196983159605	11.101312316152251
dd17-55	0.0	0.1402032984044362	0.0	3.0627517036915965	4.893419400721982	4.766117634398082	0.7661176343980821	0.7661176343980821	4.0	0.7661176343980821	0.7932007573946669
dd17-56	4.848594894126627	4.8686897000736185	4.2999266869605295	5.948132936395341	5.239605576435273	5.2547458754874965	5.19546462289767	5.19546462289767	3.587304904416495	5.2280993211675275	5.29406301395338
dd17-57	7.820303301185786	8.54323885158214	7.764114248499588	9.199138828940038	9.21108873475392	9.199138828940038	7.500804279678329	7.500804279678329	5.447463546343883	7.157870873644018	7.320199485838917
dd17-58	4.675411946472568	7.583638749748004	5.501318670856273	8.417830387804589	6.998194076919098	8.521156744514876	8.517786400216519	8.517786400216519	9.781393668128358	8.52476875271595	8.533552517952835
dd17-59	10.80803801129009	11.279603438052176	10.703057739665024	11.0210984769501	8.224992340834161	3.217127991392468	9.889405194738034	9.889405194738034	9.287044034483909	9.802462288954995	9.825125174812927
dd17-6	0.0	5.389383683676151	0.0	0.0	8.132786525642201	5.071291869173856	5.0240050150239215	5.0240050150239215	13.687325113282068	4.966691238982842	5.013115630254831
dd17-60	10.183874605654283	9.278397405513992	9.71854004818164	10.343865402762724	10.764844329156633	10.83643721384376	10.933447442519574	10.933447442519574	11.067208825171752	10.925115137599775	10.925115137599775
dd17-7	4.912724554925282	2.198733797231781	2.9697873225442337	6.8110278635621775	5.780204615786213	6.6083787437902775	3.0343924095957155	3.0343924095957155	5.891520700436889	2.8868440974563923	3.102148989448103
dd17-8	0.0	1.862911347156118	0.0	0.031086080450796645	1.854652790226627	1.4840861693050358	1.5208919786056982	1.5208919786056982	5.810622506997718	1.8013326512750716	1.833452916374172
dd17-9	6.599169366676081	5.054015871428146	6.503990731912818		0.0	0.0	5.835330690336115	5.835330690336115	7.834917001802848	5.847510351731351	5.8547097842857525
