topic	clip_addwords	clip_baseline	clip_filter	dqn_5_actions	dqn_semantic_state	galago_baseline	ictnet_div_qe	ictnet_emulti	ictnet_fom_itr1	ictnet_params1_s	ictnet_params2_ns
dd17-1	0.0	0.3696103937081092	0.0	0.39526055067315535	0.30023383074826543	0.4223031125743291	0.3458643520020331	0.3458643520020331	0.3937836144720312	0.3426909915322233	0.375243029654632
dd17-10	0.5704788470873725	0.4662376540928552	0.5587025727772321	0.582746458295048	0.4447450105345244	0.5388710145898137	0.5320304774432906	0.5320304774432906	0.7261362810029431	0.5370726876248734	0.5397669094790551
dd17-11	0.5596159111138621	0.6875794353892001	0.4915455783185909	0.6215223201803584	0.7456767211201971	0.7930578257401719	0.547928257494739	0.547928257494739	0.6301294335059133	0.5932145262500438	0.6111482473074162
dd17-12	0.25100568583419064	0.3835309178105368	0.2554763590177128	0.38658852776964303	0.3722434412103721	0.5299950335600254	0.29765295516130297	0.29765295516130297	0.31536611809936765	0.29765295516130297	0.29765295516130297
dd17-13	0.2480468431796473	0.6963429968307072	0.2480468431796473	0.5902914374095894	0.667373620531672	0.6648449849983711	0.5427901891480683	0.5427901891480683	0.6836731414075704	0.5427901891480683	0.5530949665025336
dd17-14	0.17149978893422715	0.3793869047738949	0.1538329893980416	0.6039595399242905	0.5154289728581367	0.4224536683090029	0.4146996711121019	0.4146996711121019	0.22233661406901628	0.4001744966525647	0.4827594366743601
dd17-15	0.8307630934279268	0.8167206776601025	0.826985022436822	0.8460091268057218	0.8634130545793972	0.8409871966215361	0.819787118586687	0.819787118586687	0.7512219880179087	0.8247502675116293	0.8247502675116293
dd17-16	0.0934375876063108	0.01079554189728534	0.04318216758914136	0.11798979072687847	0.018068041540373763	0.014127324132645369	0.0685981804841684	0.0685981804841684	0.06523317703238901	0.0685981804841684	0.08479149333009643
dd17-17	0.0	0.11079382171974717	0.0	0.08406695203258202	0.1296629639296483	0.17855935670019288	0.04151629263908086	0.04151629263908086	0.08345563400619853	0.04151629263908086	0.16022077613398505
dd17-18	0.6764261320003011	0.555617990393933	0.6864490021556854	0.6568358077293384	0.5722333555390543	0.6514321996855088	0.5090703583014385	0.5090703583014385	0.4578951614047943	0.5090703583014385	0.5676810546083682
dd17-19	0.4388643146793511	0.4603018711047005	0.3301285539529989	0.5640800701720844	0.4209808316959175	0.4949400953673725	0.4957856804761124	0.4957856804761124	0.3329118214598455	0.4806630995980963	0.6444746291031319
dd17-2	0.0	0.20507553050046945	0.0	0.3450392163897386	0.09102337316847224	0.03660149454712842	0.4603639577589629	0.4603639577589629	0.4937002327049857	0.4853209938930447	0.4853209938930447
dd17-20	0.0	0.3164703042801376	0.0	0.27671017841455897	0.2897134579292987	0.5821379931872989	0.2749983625275964	0.2749983625275964	0.2003019596686037	0.27730178504796754	0.29518731131759074
dd17-21	0.7641232311150313	0.6896245119717411	0.5129110028195425	0.8037416221651225	0.5613904587973866	0.6983976798908478	0.6703994866753326	0.6703994866753326	0.6746400800891535	0.6794084319594264	0.7133681505870957
dd17-22	0.0	0.4442378320708089	0.0	0.4576635261093309	0.4661947371824596	0.5417611059449488	0.4695068212839318	0.4695068212839318	0.5120990908311183	0.44440207835656215	0.5492333729040656
dd17-23	0.0	0.17338567749773312	0.0	0.4298954416016059	0.34443157760246845	0.43539940959782103	0.4936965326545247	0.4936965326545247	0.5326214928889659	0.4989295574259209	0.5296696945327221
dd17-24	0.0	0.6315210059907035	0.0	0.3921693505975117	0.3582376609663964	0.7059333491253336	0.5044237718523777	0.5044237718523777	0.4920799617396727	0.6049570832984235	0.7127114658982181
dd17-25	0.1391238540082249	0.741010920022088	0.14623533740441194	0.7632523398966138	0.622370446725091	0.671882029005353	0.7159813675392928	0.7159813675392928	0.6743998654547947	0.7159813675392928	0.7634844116725523
dd17-26	0.0	0.7518375071786257	0.0	0.7070232049573393	0.5763847231768996	0.7548626671516702	0.6487125677806691	0.6487125677806691	0.5518740630079089	0.6732078549289379	0.6732078549289379
dd17-27	0.054828505014604616	0.2621555639017615	0.054828505014604616	0.2968037976750427	0.1762001046221484	0.3915301046114674	0.1658844642303928	0.1658844642303928	0.0962599481965884	0.1658844642303928	0.4386572429036754
dd17-28	0.0	0.6655245698225237	0.0	0.6995118082331225	0.6275385327835666	0.5488867117366374	0.6773043618037758	0.6773043618037758	0.5753674502829575	0.6631133383118852	0.6658217921102855
dd17-29	0.2410747617442917	0.44431777861378496	0.124801914976838	0.471657435767922	0.5536254238644673	0.6001869457237193	0.4456242995451914	0.4456242995451914	0.4680104641180107	0.4680104641180107	0.5603037343247925
dd17-3	0.0	0.020291922026831388	0.0	0.4056710405239937	0.08297362608698723	0.024248593177916045	0.16357815756302246	0.16357815756302246	0.21213766062025352	0.16357815756302246	0.2261462984324024
dd17-30	0.35199921459770483	0.2921367903299633	0.2788483703637061	0.4660326151312286	0.3324768610495631	0.4291943179484637	0.3491346898624875	0.3491346898624875	0.4492235945284221	0.3581932625283126	0.5229617260880599
dd17-31	0.5468271514411662	0.18140296322030552	0.1867036651330804	0.4456304252852404	0.5572937830003791	0.4931600040256552	0.6282921140305449	0.6282921140305449	0.4701034785824343	0.5417568510679656	0.6661502245164289
dd17-32	0.4989243312724915	0.16231256556332918	0.15278656782358832	0.2308073132048921	0.11220573675725372	0.1620580627266285	0.09094043130795856	0.09094043130795856	0.291140564871034	0.09094043130795856	0.24777601212385594
dd17-33	0.0	0.8238165682599159	0.0	0.7992546150851159	0.8206849201457468	0.8646209702937807	0.6413776594271321	0.6413776594271321	0.6582063503741157	0.6273351765979015	0.6668990281960262
dd17-34	0.66715419478016	0.4194528401357969	0.3856733449226896	0.5099959425219175	0.4495418567788456	0.6019035645392871	0.5674831756807295	0.5674831756807295	0.4307927168052652	0.3712386959470849	0.59191560202809
dd17-35	0.013655002262424585	0.615927863854219	0.013655002262424585	0.7866539543102442	0.7224536471548886	0.7035153682417357	0.8333094566220429	0.8333094566220429	0.6971944389518067	0.8346327630689195	0.8525020506719613
dd17-36	0.0	0.11629378818494444	0.0	0.2373329087504069	0.07001583710612358	0.11441306991733215	0.0	0.0	0.0	0.0	0.14485130362991258
dd17-37	0.0	0.20889727709193026	0.0	0.3947987361347313	0.8034510657381932	0.8034510657381932	0.6903789954238045	0.6903789954238045	0.9373595766945588	0.6903789954238045	0.6903789954238045
dd17-38	0.5953165244186753	0.3223557165300541	0.4023108814714012	0.6351267814497241	0.4745792454599426	0.33997567805940665	0.3693609154913413	0.3693609154913413	0.444765336015205	0.38468328974729576	0.4115809951216447
dd17-39	0.25003408019502793	0.3873571081419068	0.2192349226143029	0.5262216185238658	0.22168987650901226	0.5393684296892821	0.5116224648021674	0.5116224648021674	0.4447475038353385	0.4409640401662032	0.4710856287725115
dd17-4	0.0	0.3527877656691108	0.0	0.5129116795018914	0.29863688683113265	0.4026877050557295	0.4556335957591886	0.4556335957591886	0.4446915674603581	0.4596530196768769	0.4970938998127489
dd17-40	0.7699615836684881	0.7263552696125773	0.7485579309662956	0.7782122234814652	0.738521674700385	0.7774029519819347	0.7295272869896373	0.7295272869896373	0.7642892632256151	0.7295272869896373	0.7344167131363601
dd17-41	0.22715920051509264	0.22474574188888852	0.19688085528991311	0.159980194587113	0.33068602516453577	0.3787989876958048	0.2087297058183556	0.2087297058183556	0.19961274017649533	0.20682129744572605	0.2841173632744584
dd17-42	0.7036948915490286	0.5946218100353532	0.6286905200451346	0.7007645078853711	0.7453428077665216	0.7725922385475104	0.6172851258819574	0.6172851258819574	0.6794065775674135	0.58627394112098	0.6372667903301741
dd17-43	0.022134172105203118	0.061474108432096414	0.016659833674058506	0.1338436119611298	0.08029956434193332	0.07175313737214349	0.04705747150581417	0.04705747150581417	0.0567557226571659	0.05709997775626111	0.07194045811150686
dd17-44	0.0	0.6661884607800227	0.0	0.6863551181980451	0.5344065462311981	0.5973365028417288	0.5772671627571505	0.5772671627571505	0.35793928127205393	0.5772671627571505	0.5928967462298789
dd17-45	0.41599169142269504	0.4718475287742601	0.3403609407135311	0.5388835351856324	0.5607865932240506	0.6021330415221534	0.4160668649958963	0.4160668649958963	0.33510697711573145	0.4507709726383301	0.6047228696746078
dd17-46	0.2519448480801793	0.5847130099639507	0.14365126597947214	0.6541453293020292	0.2545641826465055	0.6097586365909352	0.6248679875668341	0.6248679875668341	0.4525335072008245	0.6030185130254979	0.6288994743234326
dd17-47	0.4985709843469417	0.2400422690663024	0.24661628163528976				0.39137001197150334	0.39137001197150334	0.4182135111629154	0.4186701946923181	0.5015540807276819
dd17-48	0.0	0.2347227938894716	0.0	0.4923894403680362	0.3005459072986329	0.3349399017835911	0.6451171228342734	0.6451171228342734	0.7322153390708775	0.6325074521909352	0.6746779606802693
dd17-49	0.28933927158376643	0.2794596871649432	0.2620115237499281	0.6540903576823512	0.4764961685878224	0.338930446544242	0.5162018603602864	0.5162018603602864	0.6253197949899144	0.5162018603602864	0.595979460964703
dd17-5	0.407590383042603	0.3241132864074646	0.2372989266041854	0.33876056453373904	0.19833449132439612	0.3051192858437665	0.1123767023749212	0.1123767023749212	0.09528854415402424	0.1123767023749212	0.3317505791369124
dd17-50	0.061484425464273774	0.3337092311414985	0.061484425464273774	0.4618531682222921	0.3531434089187357	0.5404646876800561	0.34897030308707283	0.34897030308707283	0.366712390181096	0.3630182450652819	0.4755275873482527
dd17-51	0.0	0.0607957710363734	0.0	0.11411828769777947	0.1026934880256746	0.0076128762553786655	0.08459024646424708	0.08459024646424708	0.08462885611439447	0.08459024646424708	0.1800217651441892
dd17-52	0.048563526288602325	0.21825294724622016	0.0647513683848031	0.17291410953894448	0.1648762678326176	0.2176756028821187	0.28929741554863186	0.28929741554863186	0.3610448606561581	0.3398751388302059	0.4134461559781143
dd17-53	0.32125967113549664	0.2844888285181354	0.2495426984848144	0.5106243473206143	0.3741157500322214	0.01850723205561968	0.4177489012684591	0.4177489012684591	0.4097257510218133	0.3867932354708932	0.4947704983517325
dd17-54	0.5011159500022389	0.5223349331276327	0.4345755062877538	0.549472913677821	0.5300425001305564	0.6259052379411073	0.5531198493408306	0.5531198493408306	0.5655645641074409	0.5381262054382407	0.6190523306069798
dd17-55	0.0	0.06329990491855636	0.0	0.20213549664074434	0.3416953000245343	0.2953995562865963	0.08439987322474181	0.08439987322474181	0.12659980983711272	0.08439987322474181	0.16959415324252652
dd17-56	0.18665587491151212	0.19052848122605456	0.13290482527737998	0.30450975739639263	0.20043893666921234	0.31446363178815506	0.16387940939939574	0.16387940939939574	0.15465246272584546	0.1712095115807222	0.2873612182608058
dd17-57	0.8327514694034196	0.80982876720499	0.7949752928258491	0.8241869515139957	0.8310429173172502	0.8241869515139957	0.7588448072236299	0.7588448072236299	0.3910030667010907	0.7137437978153065	0.7571042333287613
dd17-58	0.18477950609019092	0.4737201289272883	0.19287494522180865	0.515761790209383	0.2899433307116052	0.4819969616023909	0.4226176558410791	0.4226176558410791	0.4483678221149827	0.4237294418169204	0.4556657068525031
dd17-59	0.8161935998198817	0.857844840656292	0.8443911997305048	0.8022660121999577	0.5654328104502025	0.3588167490021065	0.8941152046502691	0.8941152046502691	0.7551795936385084	0.8817037000648241	0.8860959583517788
dd17-6	0.0	0.2210389113552353	0.0	0.0	0.3858779304380087	0.27260482382618106	0.3809338320897973	0.3809338320897973	0.5381679902397649	0.3754742622299328	0.4632252618534064
dd17-60	0.5387595743036814	0.5346167584126461	0.4530417932230846	0.8049091832305679	0.5240623991781715	0.752841953599178	0.7688039803898951	0.7688039803898951	0.8071500186007594	0.7903700720615559	0.7903700720615559
dd17-7	0.214793761923198	0.09098416952991446	0.1000151308015475	0.3932372976890437	0.15322037785019152	0.2307305384118136	0.14080796864879042	0.14080796864879042	0.20743772733507826	0.08664081402571679	0.2563759676475433
dd17-8	0.0	0.2536726649656772	0.0	0.29359628658721715	0.5345566540847576	0.3010232901724433	0.3651769697619308	0.3651769697619308	0.5063338437253592	0.39975359532033095	0.4235723978155572
dd17-9	0.2058607705911372	0.24515596148055666	0.18494761836453366		0.0	0.0	0.3978611378721845	0.3978611378721845	0.3484213480688701	0.2988039652852034	0.3521130399766601
