topic	clip_addwords	clip_baseline	clip_filter	dqn_5_actions	dqn_semantic_state	galago_baseline	ictnet_div_qe	ictnet_emulti	ictnet_fom_itr1	ictnet_params1_s	ictnet_params2_ns
dd17-1	0.0	16.821252006825564	0.0	18.703512576304306	14.510703943510578	17.656860451214854	15.780422780191044	15.780422780191044	16.503945064532378	15.77558933775986	16.738898625517198
dd17-10	15.093877931124293	16.182836534040238	14.13391445787385	14.469310728490413	15.324179752860047	18.23793439445506	16.46995087058686	16.46995087058686	18.067118114908094	16.75769386654293	16.918631575407435
dd17-11	20.068977763402977	21.292975231368075	18.375193008250047	20.687627983250245	21.69834249861632	22.81625612432465	18.88320401649326	18.88320401649326	20.58100696332752	19.088268096340727	20.019914212904013
dd17-12	4.8986395975597885	8.3519152746514	5.058706467168948	7.606335821567324	8.316864050995404	10.40876955210012	6.714129391648303	6.714129391648303	6.968050649726792	6.714129391648303	6.714129391648303
dd17-13	4.771848327448923	8.53224663402656	4.771848327448923	7.048862882778675	7.980407791826093	7.818152682031755	6.761039880193148	6.761039880193148	7.021680665371318	6.761039880193148	7.1703122550030765
dd17-14	5.152346498176126	8.758313577536331	3.6732217059403847	13.904264006906926	12.751217064772833	14.790038167146294	8.143902027418147	8.143902027418147	4.062936053423615	7.695087556791222	9.409219022855304
dd17-15	12.678286218373545	12.380994865559149	12.45547259657811	14.046906446558484	13.742478702887798	12.87078101848417	11.599666338008532	11.599666338008532	9.986590134678554	12.764694831574314	12.764694831574314
dd17-16	2.457363111794321	0.372079168152256	0.9889225008319232	2.945350431468305	0.6217642995514234	0.3359565961353034	1.5572229120242964	1.5572229120242964	1.7899543098693198	1.5572229120242964	1.8253104925049084
dd17-17	0.0	11.59285440471675	0.0	7.6915968714353875	10.319534325144165	13.514881354989187	5.3334341384657575	5.3334341384657575	9.824444986497113	5.3334341384657575	12.888870419430654
dd17-18	14.4249771972859	10.636043641206477	12.587504387345767	12.938633775452368	11.139458285588297	13.487508843595426	9.964592266664543	9.964592266664543	8.813300256322432	9.964592266664543	10.713410135660443
dd17-19	15.070184604059286	14.489409628982857	11.435631873455641	19.128406776226687	13.305326393553743	16.21700040099335	15.898115962459569	15.898115962459569	13.192798984110295	15.493761110181776	18.91174226394505
dd17-2	0.0	13.388610834669251	0.0	19.892526961364386	6.4582467736290345	2.3994586643093028	23.58072100985413	23.58072100985413	22.44799402670084	22.77340174219384	22.77340174219384
dd17-20	0.0	12.473311544855106	0.0	7.443784851028996	10.686533580835194	16.786178059453327	11.695536735649927	11.695536735649927	8.675224412319096	11.85779184544426	12.558513182570984
dd17-21	20.530290449271774	20.072774601270172	16.829007597238267	22.332941971132414	17.15415334394767	21.568776647409873	18.476723498547674	18.476723498547674	18.130081149707813	18.74715656135149	19.732410728380227
dd17-22	0.0	20.30287821168754	0.0	21.612303401343013	17.607736235908767	23.97588575446901	20.282998685817468	20.282998685817468	23.04107619843635	19.64652623337917	22.642136974884682
dd17-23	0.0	6.5734494381935455	0.0	13.36413818303045	13.784540044737215	15.485065368681505	17.649267199677006	17.649267199677006	18.9160051799464	17.978793249869913	18.64392015193813
dd17-24	0.0	18.07313961429812	0.0	7.233375049073786	5.638312271672031	20.15090431823661	11.282248968565293	11.282248968565293	11.184546179745288	11.96474113844906	15.817748648903306
dd17-25	3.1162264681002707	15.639046862466419	3.4260061594633804	16.470441305619293	14.099942563810707	14.987502495085769	14.779918834565773	14.779918834565773	13.007148780102366	14.779918834565773	15.424284632443829
dd17-26	0.0	8.381320886123152	0.0	7.556270004335133	6.704154400745328	8.462336752027383	7.884644696373828	7.884644696373828	6.8353897720073356	7.921883561883308	7.921883561883308
dd17-27	2.6055862131282277	9.108556864424727	2.6055862131282277	9.112661639310296	6.399291146288168	11.193659725999924	5.637558209094037	5.637558209094037	4.004801393485296	5.637558209094037	12.510784605017662
dd17-28	0.0	17.642449992581586	0.0	21.613299301622558	20.0770653109128	18.26366099474884	20.066989259659067	20.066989259659067	16.144576886521147	19.745738157363906	19.960672658569266
dd17-29	18.72631176138601	19.031438534328736	11.041400737175834	25.922437940221077	27.08626715981978	28.76058830370793	21.08536637696569	21.08536637696569	23.28806974011907	23.28806974011907	26.80732314405601
dd17-3	0.0	1.0241406037534382	0.0	9.656321486970661	3.0019856054172847	1.242059878729892	4.861877966815447	4.861877966815447	6.902471063193388	4.861877966815447	6.8638661164490475
dd17-30	15.6705838022259	13.436252188191965	11.99795548532859	17.1031561123355	13.982441345967667	17.46677027085114	12.599693662299517	12.599693662299517	16.828632055425974	13.036347382666385	16.935087517630738
dd17-31	17.006599789903813	5.775360229844365	6.250992362246808	12.099067761609414	15.629891247609761	14.630023140553757	17.62636345855166	17.62636345855166	15.316901075232089	16.22924471576815	19.4802752427497
dd17-32	15.279042346424156	6.016928999753072	4.6919101813209645	8.873938824668057	4.40466610520008	5.243668030322119	3.514902498035399	3.514902498035399	11.768400871501882	3.514902498035399	7.88855923749175
dd17-33	0.0	17.098800473099136	0.0	16.256612573316442	15.96573889296351	17.107197702566232	10.353475856011878	10.353475856011878	11.73489052692822	10.440997560380877	11.884221570490293
dd17-34	12.481044627168595	8.277566295995435	8.47951157716015	10.529914033288675	10.17775482426364	12.966870545772178	11.437360612529126	11.437360612529126	9.285426481098737	7.722241721998904	11.263885752789779
dd17-35	1.0	11.082988596377096	1.0	15.765527521656132	13.349613702719454	12.529377610025122	15.471852923489626	15.471852923489626	15.594908184108064	15.529941527443636	16.057603953362804
dd17-36	0.0	1.0723503219224475	0.0	6.0282284879580095	0.7826331932846374	1.687787435658401	0.0	0.0	0.0	0.0	1.2082789204035915
dd17-37	0.0	4.3624644365985645	0.0	2.744069599605475	5.977845001663848	5.977845001663848	5.510742175012866	5.510742175012866	6.968050649726792	5.510742175012866	5.510742175012866
dd17-38	6.830957127668471	4.7611006508750116	5.110040150013526	6.633005929454559	4.6145415300353205	4.925450002176888	4.370474469140472	4.370474469140472	5.9266448534325065	4.895085515144988	5.119623845612709
dd17-39	7.477189370788977	11.007764869016931	5.993805619541093	12.838182774106972	6.235720332740139	14.378994949472801	11.490418545720049	11.490418545720049	12.161937325176293	11.613628560546324	13.02741315749465
dd17-4	0.0	17.16194530884891	0.0	24.4920134910238	16.184046080375545	21.000812939707867	24.46302117225246	24.46302117225246	23.16504733786529	25.758199742406607	27.399602270946694
dd17-40	10.086522850035868	8.625929928552397	9.56972242583476	9.93614457997285	9.204966115084607	10.464314752528805	10.925869208526036	10.925869208526036	11.156753497129767	10.925869208526036	11.335141583335965
dd17-41	10.49621884974426	9.432304273578676	7.3086019136409055	6.280324073179338	12.387299247539243	13.861123123793842	9.291942700301512	9.291942700301512	8.450502522817802	9.15753366922894	12.368524305700285
dd17-42	21.111532168619934	19.7725688193315	19.295724802598926	18.8526055971391	22.21336377624176	23.676505788654342	18.985732475631877	18.985732475631877	18.62356185591377	18.27265963389057	20.389332607339693
dd17-43	9.666229226465576	19.665555307402162	7.732992100437398	35.980228439529384	23.21296319984563	21.373811323369523	18.68651649658822	18.68651649658822	18.747640104565765	22.33558914926812	26.53693142242291
dd17-44	0.0	9.369450897146343	0.0	9.642111544928973	6.951115587387138	8.815306945761689	7.6518661453503825	7.6518661453503825	5.632690754070758	7.6518661453503825	7.954203916244742
dd17-45	12.924167266043856	15.306987228566475	10.225039950747203	16.645532335720567	15.692634155693526	19.4682489481298	12.824277565974574	12.824277565974574	10.734269488375649	13.664529943745794	18.41861465711889
dd17-46	10.395669573314738	16.096422250331518	6.150044960583558	16.06807130491219	6.435994985520284	17.003905342125506	18.07545777725709	18.07545777725709	13.15217146654317	17.264822108381708	18.05945402306788
dd17-47	20.094070455700567	10.860127261450476	9.672726830566177				14.772362011238801	14.772362011238801	17.19006178395209	15.891724523597816	17.899833383153165
dd17-48	0.0	5.705290938224543	0.0	9.987447241793904	8.844193382174607	7.833078673070745	11.340737388215196	11.340737388215196	10.050978503205712	11.048924993104556	11.748493837854689
dd17-49	8.36377236482371	5.385443806333195	4.483383751247884	16.156625346740785	8.440863270122911	6.7190891359582725	8.952543829442465	8.952543829442465	11.041157230413	8.952543829442465	13.209612982205654
dd17-5	10.375097120955957	8.546501696382249	6.305516842557018	8.641072055770861	6.104523950341535	6.902596874830732	3.4120282883592545	3.4120282883592545	2.6635038082559976	3.4120282883592545	7.750109318942281
dd17-50	1.9888105064654824	11.046074508820805	1.9888105064654824	14.94022280201062	12.36785704747193	16.79579421510885	11.28254987210094	11.28254987210094	12.797897298276196	11.387138722648213	13.456611342149053
dd17-51	0.0	1.9776421521366967	0.0	4.281951882438572	3.74126339972988	0.21977883364107967	3.443873778043851	3.443873778043851	3.3720347998027376	3.443873778043851	5.815106892551758
dd17-52	2.02504015234226	7.290745491277491	2.2000949270883785	6.388116835163487	5.686336937196121	5.295756852534744	10.274002800941783	10.274002800941783	12.938888336779954	10.067505365802257	11.775160718945456
dd17-53	12.927638806153526	11.463504975154093	9.541819411980084	16.096654091811686	13.208422778226865	0.9301815146560476	14.979665552935536	14.979665552935536	11.879503414579673	14.829510078123825	17.386800392873766
dd17-54	16.109869235262337	13.928434326065489	12.441596589795516	16.777489247868377	15.265417064977381	19.17566421066072	16.67703282164638	16.67703282164638	17.013515215366272	15.666257810203664	18.42028746293798
dd17-55	0.0	1.0723503219224475	0.0	5.366791540739987	7.443378536420567	5.977845001663848	1.9778450016638465	1.9778450016638465	4.0	1.9778450016638465	3.5797201996535746
dd17-56	7.504797511375973	8.340678241942639	5.601342450508485	11.484012889313545	8.963892254885128	11.383950557349918	7.481650035248463	7.481650035248463	6.608678853949205	7.8507889097389425	10.433731432730195
dd17-57	8.953994470754072	8.985923592630872	8.498574521914035	9.921497519688273	9.98554291523007	9.921497519688273	7.718103208960931	7.718103208960931	5.949486198900138	6.377815586855893	7.613230577984908
dd17-58	6.7024129810429764	10.67440524761761	7.496613909492573	10.775301248138902	7.082815840402348	12.589277579510453	12.560659155310967	12.560659155310967	12.61780762337736	12.641434859557796	13.289692411414132
dd17-59	13.737589012184973	14.643537969907804	12.804593585153976	15.317396857013076	7.35165598934279	4.022220162403932	14.507183999035385	14.507183999035385	13.131865199034452	13.354827888393984	13.810201750318878
dd17-6	0.0	9.148273698052623	0.0	0.0	15.885667082801126	11.385328919867424	13.69530209807042	13.69530209807042	22.067556804287683	14.200656956569636	17.590920613827347
dd17-60	16.927586954313025	16.477202593469595	12.483642440960374	23.617103506638326	17.8802483691974	23.328315898605545	23.60762026883323	23.60762026883323	24.51262566517085	23.78859914537503	23.78859914537503
dd17-7	12.467905443101005	5.4170693897510445	5.537066527811943	18.59006712681464	7.34618258611162	10.752155790304684	6.711223528695459	6.711223528695459	11.650176856124954	5.099495676675212	10.371676021816373
dd17-8	0.0	3.9869629675890654	0.0	2.31636941988653	6.737541474653487	4.401607811098478	4.034874146759258	4.034874146759258	6.0638937574391285	4.808032056860236	5.213349891297926
dd17-9	11.45781107335119	10.869530018973226	8.72769835407824		0.0	0.0	15.595464319730578	15.595464319730578	16.3538115770826	13.382794348646168	14.567409343657644
