topic	clip_addwords	clip_baseline	clip_filter	dqn_5_actions	dqn_semantic_state	galago_baseline	ictnet_div_qe	ictnet_emulti	ictnet_fom_itr1	ictnet_params1_s	ictnet_params2_ns
dd17-1	0.0	14.111275698070967	0.0	13.841577903459859	13.0483128461991	13.800309773843631	13.028980350171508	13.028980350171508	13.866935711509528	13.337818910851029	13.457231921308773
dd17-10	14.490870250495036	14.077768783584128	14.023153793848294	12.360716476180015	15.147801534785607	16.158621626717707	14.254161421144895	14.254161421144895	15.717405827285043	14.375025125171135	14.389465796607347
dd17-11	17.88204440392991	19.10823694710629	17.401828329861367	17.62148000341309	18.86419472788929	18.910897117288147	16.86501892003161	16.86501892003161	18.10598644473732	16.76127087881978	16.908479892581557
dd17-12	4.599119879164436	8.064162216040513	4.765784153376837	6.082378386807271	8.601513599221727	9.646303005361023	7.0872536504612995	7.0872536504612995	7.200584004991375	7.0872536504612995	7.0872536504612995
dd17-13	4.771848327448923	8.933863722066633	4.771848327448923	7.805932556637758	8.6299613361232	8.56287343008325	7.634376231684523	7.634376231684523	6.852790208958808	7.634376231684523	7.754611370923206
dd17-14	4.753112907966097	8.918780398322761	3.709434402495	11.656360657815092	12.019138630171769	12.966685525253473	8.58349937840925	8.58349937840925	3.6640805874024283	8.11054311007925	8.459221709908148
dd17-15	12.76229691824584	12.492020404315536	12.53492692079971	13.56079286707516	13.568049123474026	12.560062099115472	11.465647554552223	11.465647554552223	10.898620689597356	12.18483718344234	12.18483718344234
dd17-16	1.6878634708647529	0.19655625612255065	0.751954110285918	1.6250852789851868	0.36041320029409385	0.08611670262641777	1.1096068241310697	1.1096068241310697	2.030277184118387	1.1096068241310697	1.2279345454140052
dd17-17	0.0	10.17874015136115	0.0	7.528309008748024	9.264106557881208	9.357365542103112	5.187383443239744	5.187383443239744	7.481944786508166	5.187383443239744	7.614280469328675
dd17-18	13.457458340140267	9.902489381537585	12.845299209146598	11.772679801377466	10.506526572802509	12.45062429974149	10.810637540036929	10.810637540036929	10.124412240223984	10.810637540036929	10.89964249594825
dd17-19	12.199085115782525	11.455725702415473	10.6147765736815	13.141270285484055	11.104890194890453	10.989865649298636	12.08458013544127	12.08458013544127	10.729949425531254	12.03521808860485	12.585794996199287
dd17-2	0.0	11.03706349457952	0.0	14.132641597922001	7.2153164474881155	1.856169790456433	14.358280923381688	14.358280923381688	13.277055707688007	14.273011199839166	14.273011199839166
dd17-20	0.0	12.280085676286054	0.0	7.1268132062607625	11.326763908749935	13.281138795949898	11.342349026914908	11.342349026914908	7.031479198516887	11.409436932954858	11.519628787027841
dd17-21	18.87514319197155	18.077117180752992	16.660952540513144	19.930292061813574	16.35519540466079	18.756296193284065	17.759958011939062	17.759958011939062	16.488795052117137	17.768785470096034	17.99769501148445
dd17-22	0.0	15.999999541882616	0.0	15.697136393819255	13.978361211760946	16.685654825406154	16.04424951916348	16.04424951916348	17.289642556941864	15.272311709415613	15.731836468851313
dd17-23	0.0	5.646871214702274	0.0	6.263794692685678	12.693293040907873	12.860243987750987	12.176385436984186	12.176385436984186	15.117348786538193	12.267044098644405	12.32931936718525
dd17-24	0.0	15.075065894057154	0.0	6.916739237469603	5.9931921891789885	15.277367349452984	11.116250401301414	11.116250401301414	9.312583787092093	11.365276497583807	12.36488269403836
dd17-25	2.7002978780511437	15.923793122543447	3.2000058346284037	15.721926446065213	12.911969909636884	14.394516189853485	15.089427061470413	15.089427061470413	12.778925710379006	15.089427061470413	15.30613260617193
dd17-26	0.0	8.300755035981348	0.0	7.070420463364215	7.351037281582202	8.483294676223172	7.790408721697379	7.790408721697379	6.787576123046381	7.8118619799394695	7.8118619799394695
dd17-27	2.8381195683928104	7.456170483061234	2.8381195683928104	5.986906230375565	6.140405828271887	7.4638831193124915	5.687406129155406	5.687406129155406	3.702527190662384	5.687406129155406	7.889994341959481
dd17-28	0.0	16.643826514273698	0.0	19.7442538251137	18.78264521354684	17.22667910517991	18.62400315973704	18.62400315973704	14.537850397436108	18.386301110281558	18.43668545534476
dd17-29	16.032060846192337	16.497489287967415	11.256075805516854	20.137891541095946	20.038323448427988	19.998166648930113	17.382809827689155	17.382809827689155	18.0320262988459	18.0320262988459	18.497040105675808
dd17-3	0.0	0.6648506928826766	0.0	4.5710555212154915	2.1687589134545124	1.098705039313925	3.4229525514905603	3.4229525514905603	6.308364419446011	3.4229525514905603	3.8488175141045056
dd17-30	13.759400254884712	11.596372828554996	11.84857956575492	10.731089309400124	10.432985819522221	13.892258932643347	9.878420643710367	9.878420643710367	13.532032584001165	10.049057904301128	10.763077646973873
dd17-31	13.516621539270478	5.316767431600778	6.021118277503557	7.7771186703975115	11.821263997952473	10.726863849730801	13.968979579875805	13.968979579875805	12.7154160893738	13.096109125958721	13.879233354479586
dd17-32	11.857504152226332	4.513861132126512	4.69963491525971	7.908276874473305	4.458122450597665	3.821147298238724	3.1278234707095023	3.1278234707095023	8.176603923657643	3.1278234707095023	4.323492834440273
dd17-33	0.0	14.371840224344597	0.0	13.913919616315011	13.938011817004087	14.280719131741593	10.174233072640984	10.174233072640984	11.201310068827349	10.4438308189536	10.844221050331113
dd17-34	10.64872434284514	6.7888347157377655	8.347258754906953	8.713628441303737	10.742347445828765	11.896099476139073	9.895874706072057	9.895874706072057	8.71063971782461	8.02294786330434	9.473657847452401
dd17-35	1.0	10.268687923477463	1.0	14.201151474058554	11.635697741976454	11.070508737268737	12.95861107817348	12.95861107817348	13.161296578334735	12.970363585071105	13.10557711541709
dd17-36	0.0	0.4733108851317429	0.0	5.224093248716339	1.1496728800117648	1.4428473048668715	0.0	0.0	0.0	0.0	0.15865235464257793
dd17-37	0.0	4.3624644365985645	0.0	3.582260568947638	5.503908220571836	5.503908220571836	5.409929652733854	5.409929652733854	7.200584004991375	5.409929652733854	5.409929652733854
dd17-38	6.31027104260076	4.626803775653151	5.327633214992339	6.390898309996152	4.218658157867379	4.509876994926084	4.3586002026021635	4.3586002026021635	5.624650416771827	4.872934272594058	4.8941739684283485
dd17-39	7.9538431822262625	8.716752410129732	6.8259120167973855	9.120388941148944	5.527199136011614	8.979991989074687	9.326702508112023	9.326702508112023	10.900343561096454	9.647132397655595	9.889517609102116
dd17-4	0.0	14.851001106249509	0.0	20.340491408296735	14.330017817165475	14.423484903296695	20.7042807940246	20.7042807940246	17.312108285207934	20.98003516588808	21.185411578932346
dd17-40	7.9118799928970684	6.626461391149911	8.362222827457973	7.272162036127115	7.272047627575687	7.638041992206838	9.499924300386507	9.499924300386507	9.672598660100574	9.499924300386507	9.620159439625192
dd17-41	9.669948538226327	7.6420792290276784	8.025405800982536	4.508589325582249	10.327859216499938	10.880395221696023	8.581710564421725	8.581710564421725	8.100625881935457	8.179810637152363	8.950160216606879
dd17-42	18.291382708122658	16.805299206286467	18.19134608914361	17.093597686698626	18.26132003045916	18.849309508277734	16.14708234938719	16.14708234938719	15.901278381032348	16.03822187808943	16.395250178550608
dd17-43	9.599036765173343	16.226430115733415	8.334214679233558	22.936153801438266	17.67493986301799	16.470352361901178	17.105179337593032	17.105179337593032	16.901095817462302	18.84526872130381	19.56101540556337
dd17-44	0.0	8.505672205952227	0.0	8.672281888378484	7.212999942872707	8.577648522799294	7.19125822828982	7.19125822828982	5.8298872834326705	7.19125822828982	7.241444010480808
dd17-45	11.599750196381125	12.712608646030253	10.482834772548033	14.602593429608312	13.14063232325502	15.27535966981776	11.826602728372677	11.826602728372677	11.183503843520405	12.677209385182804	14.022019972720326
dd17-46	11.08948993670831	12.549751390158168	7.477622178895223	11.102701572095942	6.339536606905563	12.705969642529034	15.344326722508244	15.344326722508244	12.482280129634942	15.071595589447467	15.205742257350845
dd17-47	16.006459010866685	10.469168371130248	9.097257963938628				13.152199280559106	13.152199280559106	15.221389427596533	13.359867384344964	13.67900513153023
dd17-48	0.0	5.614072344459952	0.0	8.367543843988566	7.257708926224871	6.439500481073183	10.201516743568495	10.201516743568495	7.772922344338642	10.277962860406047	10.420449273162113
dd17-49	6.095211112314236	4.459486385713292	4.127931165428877	11.831482960506591	6.777130926221285	4.7646951940159585	8.186019218428838	8.186019218428838	10.842928475754023	8.186019218428838	9.218315781841612
dd17-5	8.083755448976152	7.577957432572878	5.6077068914549315	6.790946513464857	6.1849115793985625	5.153615271058949	3.0362006708205693	3.0362006708205693	2.2150153528575847	3.0362006708205693	4.5076474955784365
dd17-50	2.3146249264333147	10.658844940070354	2.3146249264333147	13.558019186942706	11.546645028366106	13.313714960855794	11.429329560960884	11.429329560960884	12.60922295932525	10.989187668703888	11.443014024016072
dd17-51	0.0	1.2631404439962877	0.0	3.4038633340364837	1.6451637436491202	0.034298011201750966	2.9035913905506425	2.9035913905506425	3.791130284473819	2.9035913905506425	3.655287536765893
dd17-52	2.295628555772722	4.483711715365275	2.4281932470715386	5.849532672916667	4.677401316832542	2.3171495582613906	8.958496991919683	8.958496991919683	11.04784455805424	8.301188919484831	8.677335236285803
dd17-53	10.992757464936073	9.581043954131877	8.730139655887825	10.750009926970892	11.990002795612028	0.3613632590302129	11.828933876423562	11.828933876423562	8.922027854356879	12.006468594529688	12.411504371044595
dd17-54	14.140589304308287	12.17193450510785	12.458202738918128	14.995633388060908	13.813912162560372	14.956982165984881	14.016603004767425	14.016603004767425	14.238210290535841	13.70933918329289	14.201477021944775
dd17-55	0.0	0.4733108851317429	0.0	3.748531192930672	6.036176323794547	5.503908220571836	1.503908220571836	1.503908220571836	4.0	1.503908220571836	1.7496260095989644
dd17-56	6.3649650714877435	6.674334157749492	5.263882417265744	7.994979584539047	7.0890951884301625	7.3716628546902525	6.454209669642937	6.454209669642937	5.209911745473628	6.59026100678271	7.06314653352167
dd17-57	8.814926445302383	9.337390478923847	8.54604250902402	10.199584873897738	10.2312558545314	10.199584873897738	7.99851466606951	7.99851466606951	6.184010109316867	7.157870873644018	7.707835964335913
dd17-58	5.6436558082121575	9.076660888072412	6.813441473375027	9.406115554331599	7.136791120178487	10.314474703259194	10.680883611251499	10.680883611251499	11.70255354761244	10.714152257889372	10.802732680194406
dd17-59	13.049473044495912	13.885191477345636	12.614637351746335	13.784544243279695	8.224992340834161	3.3557885346822225	12.608299617232248	12.608299617232248	11.931894828866449	12.183299943611296	12.307592087571981
dd17-6	0.0	7.5713846352324286	0.0	0.0	12.854725862999251	7.701877541124014	9.797342983861	9.797342983861	17.94122915554009	9.797246719397883	10.27165264901974
dd17-60	13.786816872012364	13.073044752610668	11.966739871137664	15.068969409910974	14.514367966832404	15.364776125345907	15.564595787713024	15.564595787713024	16.036217900997368	15.610079733036516	15.610079733036516
dd17-7	8.82143107939684	3.9415975842738553	4.6355754630937955	11.190432088186084	6.271665113438326	8.145602498278013	4.970568036341005	4.970568036341005	8.585331837355517	4.38377091224082	5.616319814633754
dd17-8	0.0	3.3048709246242405	0.0	0.32137348875502825	4.131871236222332	2.9812479302056585	2.9385936998285604	2.9385936998285604	6.045863559849558	3.5326891096337176	3.6690546761641065
dd17-9	9.359459162066592	8.029484858496591	8.410638271648528		0.0	0.0	9.892218145889348	9.892218145889348	11.308006558649245	9.584543637935763	9.698627214878325
