\relax 
\providecommand\hyper@newdestlabel[2]{}
\providecommand\HyperFirstAtBeginDocument{\AtBeginDocument}
\HyperFirstAtBeginDocument{\ifx\hyper@anchor\@undefined
\global\let\oldcontentsline\contentsline
\gdef\contentsline#1#2#3#4{\oldcontentsline{#1}{#2}{#3}}
\global\let\oldnewlabel\newlabel
\gdef\newlabel#1#2{\newlabelxx{#1}#2}
\gdef\newlabelxx#1#2#3#4#5#6{\oldnewlabel{#1}{{#2}{#3}}}
\AtEndDocument{\ifx\hyper@anchor\@undefined
\let\contentsline\oldcontentsline
\let\newlabel\oldnewlabel
\fi}
\fi}
\global\let\hyper@last\relax 
\gdef\HyperFirstAtBeginDocument#1{#1}
\providecommand\HyField@AuxAddToFields[1]{}
\providecommand\HyField@AuxAddToCoFields[2]{}
\AC@reset@newl@bel
\citation{AmigoEtAl2017,Fuhr2012}
\citation{Carterette:2011}
\citation{Norris:1998}
\citation{YangS15,YangS16}
\citation{Jarvelin:2008}
\providecommand \oddpage@label [2]{}
\@writefile{toc}{\contentsline {section}{Abstract}{1}{section*.1}}
\@writefile{toc}{\contentsline {section}{\numberline {1}Introduction}{1}{section.1}}
\newlabel{sec:introduction}{{1}{1}{Introduction}{section.1}{}}
\@writefile{toc}{\contentsline {section}{\numberline {2}Related Work}{1}{section.2}}
\newlabel{sec:related}{{2}{1}{Related Work}{section.2}{}}
\citation{Yang:2009}
\citation{Kanoulas:2011}
\citation{Moffat:2008}
\citation{Luo:2013}
\citation{Smucker:2012a,Smucker:2012b}
\citation{Ferrante:2014}
\@writefile{toc}{\contentsline {section}{\numberline {3}The Model}{2}{section.3}}
\newlabel{sec:TheModel}{{3}{2}{The Model}{section.3}{}}
\@writefile{toc}{\contentsline {subsection}{\numberline {3.1}Multi-query session dynamics}{2}{subsection.3.1}}
\@writefile{toc}{\contentsline {subsection}{\numberline {3.2}Evaluation of Multi-query Sessions}{3}{subsection.3.2}}
\newlabel{eq:eij}{{1}{4}{Evaluation of Multi-query Sessions}{equation.3.1}{}}
\newlabel{E(j)}{{2}{4}{Evaluation of Multi-query Sessions}{equation.3.2}{}}
\newlabel{MsM}{{3}{4}{Evaluation of Multi-query Sessions}{equation.3.3}{}}
\@writefile{toc}{\contentsline {subsection}{\numberline {3.3}User's dynamic examples}{4}{subsection.3.3}}
\AC@undonewlabel{acro:RBP}
\newlabel{acro:RBP}{{3.3}{4}{User's dynamic examples}{section*.5}{}}
\acronymused{RBP}
\newlabel{ForwardModel}{{3.3}{4}{User's dynamic examples}{subsection.3.3}{}}
\newlabel{RWModel}{{3.3}{4}{User's dynamic examples}{theorem.3.2}{}}
\@writefile{toc}{\contentsline {subsection}{\numberline {3.4}Computation of the $MsM$ measure}{4}{subsection.3.4}}
\citation{Jarvelin:2008}
\citation{Yang:2009}
\citation{Luo:2013}
\citation{Tang:2017}
\@writefile{lot}{\contentsline {table}{\numberline {1}{\ignorespaces Dynamic Domain datasets \& benchmark statistics. Where appropriate we report mean, standard deviation and median.\relax }}{5}{table.caption.6}}
\providecommand*\caption@xref[2]{\@setref\relax\@undefined{#1}}
\newlabel{tab:dd_stats}{{1}{5}{Dynamic Domain datasets \& benchmark statistics. Where appropriate we report mean, standard deviation and median.\relax }{table.caption.6}{}}
\@writefile{toc}{\contentsline {section}{\numberline {4}Experimental Setup}{5}{section.4}}
\newlabel{sec:Experimental_Setup}{{4}{5}{Experimental Setup}{section.4}{}}
\newlabel{section:setup:rq1}{{4}{5}{Experimental Setup}{section*.9}{}}
\newlabel{section:setup:rq2}{{4}{5}{Experimental Setup}{section*.10}{}}
\@writefile{toc}{\contentsline {subsection}{\numberline {4.1}Data Collections}{5}{subsection.4.1}}
\newlabel{subsec:Data_Collections}{{4.1}{5}{Data Collections}{subsection.4.1}{}}
\@writefile{toc}{\contentsline {subsection}{\numberline {4.2}Model Instantiation}{5}{subsection.4.2}}
\newlabel{subsec:Inst}{{4.2}{5}{Model Instantiation}{subsection.4.2}{}}
\@writefile{toc}{\contentsline {subsection}{\numberline {4.3}Session Evaluation Measures}{5}{subsection.4.3}}
\newlabel{subsec:Evaluation_Metrics}{{4.3}{5}{Session Evaluation Measures}{subsection.4.3}{}}
\newlabel{MsM-pseudo-code}{{1}{6}{Computation of the $MsM$ measure}{algocf.1}{}}
\@writefile{loa}{\contentsline {algocf}{\numberline {1}{\ignorespaces Pseudo-code for computing the $MsM$ measure in eq.\nonbreakingspace \textup  {\hbox {\mathsurround \z@ \normalfont  (\ignorespaces \ref  {MsM}\unskip \@@italiccorr )}}. (It continues on the next page.)\relax }}{6}{algocf.1}}
\@writefile{loa}{\contentsline {algocf}{\numberline {1}{\ignorespaces Pseudo-code for computing the $MsM$ measure in eq.\nonbreakingspace \textup  {\hbox {\mathsurround \z@ \normalfont  (\ignorespaces \ref  {MsM}\unskip \@@italiccorr )}}. (Continued from the previous page.)\relax }}{7}{algocf.1}}
\citation{Kendall1948}
\citation{Ferro2017}
\citation{YilmazEtAl2008}
\citation{Sakai:2006}
\citation{Tang:2017}
\@writefile{lof}{\contentsline {figure}{\numberline {1}{\ignorespaces Average Kendall's $\tau $ correlation heatmap.\relax }}{8}{figure.caption.11}}
\newlabel{fig:Kendall}{{1}{8}{Average Kendall's $\tau $ correlation heatmap.\relax }{figure.caption.11}{}}
\@writefile{toc}{\contentsline {section}{\numberline {5}Results and Analysis}{8}{section.5}}
\newlabel{subsec:Results_and_Analysis}{{5}{8}{Results and Analysis}{section.5}{}}
\AC@undonewlabel{acro:DP}
\newlabel{acro:DP}{{5}{8}{Results and Analysis}{section*.12}{}}
\acronymused{DP}
\@writefile{toc}{\contentsline {subsection}{\numberline {5.1}Correlation Analysis}{8}{subsection.5.1}}
\newlabel{subsubsec:Correlation_Analysis}{{5.1}{8}{Correlation Analysis}{subsection.5.1}{}}
\@writefile{lot}{\contentsline {table}{\numberline {2}{\ignorespaces Kendall's $\tau $ correlations of the system rankings produced by the Forward and Random-Walk MsM models.\relax }}{9}{table.caption.13}}
\newlabel{table:Fwd-Bck}{{2}{9}{Kendall's $\tau $ correlations of the system rankings produced by the Forward and Random-Walk MsM models.\relax }{table.caption.13}{}}
\@writefile{lot}{\contentsline {table}{\numberline {3}{\ignorespaces ANOVA analysis of the factors influencing correlation with respect to nsDCGs.\relax }}{9}{table.caption.14}}
\newlabel{tab:anova_corr_nsDCGs}{{3}{9}{ANOVA analysis of the factors influencing correlation with respect to nsDCGs.\relax }{table.caption.14}{}}
\AC@undonewlabel{acro:ANOVA}
\newlabel{acro:ANOVA}{{5.1}{9}{Correlation Analysis}{section*.15}{}}
\acronymused{ANOVA}
\acronymused{ANOVA}
\acronymused{ANOVA}
\AC@undonewlabel{acro:HSD}
\newlabel{acro:HSD}{{5.1}{9}{Correlation Analysis}{section*.16}{}}
\acronymused{HSD}
\@writefile{lot}{\contentsline {table}{\numberline {4}{\ignorespaces ANOVA analysis of the factors influencing correlation with respect to nEUs.\relax }}{9}{table.caption.18}}
\newlabel{tab:anova_corr_nEUs}{{4}{9}{ANOVA analysis of the factors influencing correlation with respect to nEUs.\relax }{table.caption.18}{}}
\acronymused{HSD}
\AC@undonewlabel{acro:SOA}
\newlabel{acro:SOA}{{5.1}{9}{Correlation Analysis}{section*.17}{}}
\acronymused{SOA}
\acronymused{ANOVA}
\acronymused{ANOVA}
\acronymused{ANOVA}
\acronymused{HSD}
\acronymused{SOA}
\acronymused{ANOVA}
\@writefile{toc}{\contentsline {subsection}{\numberline {5.2}Discriminative Power}{9}{subsection.5.2}}
\newlabel{subsubsec:Discriminative_Power}{{5.2}{9}{Discriminative Power}{subsection.5.2}{}}
\acronymused{DP}
\acronymused{DP}
\bibcite{AmigoEtAl2017}{{1}{2017}{{Amig{\'o} et~al\unhbox \voidb@x \hbox {.}}}{{Amig{\'o}, Fang, Mizzaro, and Zhai}}}
\bibcite{Carterette:2011}{{2}{2011}{{Carterette}}{{Carterette}}}
\bibcite{Carterette:2016}{{3}{2016}{{Carterette et~al\unhbox \voidb@x \hbox {.}}}{{Carterette, Clough, Hall, Kanoulas, and Sanderson}}}
\bibcite{Ferrante:2014}{{4}{2014}{{Ferrante et~al\unhbox \voidb@x \hbox {.}}}{{Ferrante, Ferro, and Maistro}}}
\bibcite{Ferro2017}{{5}{2017}{{Ferro}}{{Ferro}}}
\bibcite{Fuhr2012}{{6}{2012}{{Fuhr}}{{Fuhr}}}
\bibcite{Jarvelin:2008}{{7}{2008}{{J\"{a}rvelin et~al\unhbox \voidb@x \hbox {.}}}{{J\"{a}rvelin, Price, Delcambre, and Nielsen}}}
\bibcite{Kanoulas:2011}{{8}{2011}{{Kanoulas et~al\unhbox \voidb@x \hbox {.}}}{{Kanoulas, Carterette, Clough, and Sanderson}}}
\bibcite{Kendall1948}{{9}{1948}{{Kendall}}{{Kendall}}}
\bibcite{Luo:2013}{{10}{2013}{{Luo et~al\unhbox \voidb@x \hbox {.}}}{{Luo, Wing, Yang, and Hearst}}}
\bibcite{Moffat:2008}{{11}{2008}{{Moffat and Zobel}}{{Moffat and Zobel}}}
\bibcite{Norris:1998}{{12}{1998}{{Norris}}{{Norris}}}
\bibcite{Sakai:2006}{{13}{2006}{{Sakai}}{{Sakai}}}
\bibcite{Sakai2012}{{14}{2012}{{Sakai}}{{Sakai}}}
\bibcite{Smucker:2012b}{{15}{2012a}{{Smucker and Clarke}}{{Smucker and Clarke}}}
\bibcite{Smucker:2012a}{{16}{2012b}{{Smucker and Clarke}}{{Smucker and Clarke}}}
\bibcite{Tang:2017}{{17}{2017}{{Tang and Yang}}{{Tang and Yang}}}
\bibcite{VanGysel2016}{{18}{2016}{{Van~Gysel et~al\unhbox \voidb@x \hbox {.}}}{{Van~Gysel, Kanoulas, and de~Rijke}}}
\bibcite{YangS15}{{19}{2015}{{Yang and Soboroff}}{{Yang and Soboroff}}}
\bibcite{YangS16}{{20}{2016}{{Yang and Soboroff}}{{Yang and Soboroff}}}
\bibcite{Yang2015}{{21}{2015}{{Yang et~al\unhbox \voidb@x \hbox {.}}}{{Yang, Guan, and Zhang}}}
\bibcite{Yang:2009}{{22}{2009}{{Yang and Lad}}{{Yang and Lad}}}
\bibcite{YilmazEtAl2008}{{23}{2008}{{Yilmaz et~al\unhbox \voidb@x \hbox {.}}}{{Yilmaz, Aslam, and Robertson}}}
\newlabel{tocindent-1}{0pt}
\newlabel{tocindent0}{0pt}
\newlabel{tocindent1}{4.185pt}
\newlabel{tocindent2}{10.34999pt}
\newlabel{tocindent3}{0pt}
\@writefile{lot}{\contentsline {table}{\numberline {5}{\ignorespaces \acf {DP} for different measures across different tracks. In bold, the maximum DP for both state-of-the-art and MsM measures.\relax }}{10}{table.caption.19}}
\acronymused{DP}
\newlabel{tab:discriminative_power}{{5}{10}{\acf {DP} for different measures across different tracks. In bold, the maximum DP for both state-of-the-art and MsM measures.\relax }{table.caption.19}{}}
\@writefile{lot}{\contentsline {table}{\numberline {6}{\ignorespaces ANOVA analysis of the factors influencing DP.\relax }}{10}{table.caption.20}}
\newlabel{tab:anova_dp}{{6}{10}{ANOVA analysis of the factors influencing DP.\relax }{table.caption.20}{}}
\acronymused{ANOVA}
\acronymused{DP}
\acronymused{ANOVA}
\acronymused{ANOVA}
\acronymused{HSD}
\acronymused{DP}
\acronymused{HSD}
\acronymused{DP}
\acronymused{SOA}
\@writefile{toc}{\contentsline {section}{\numberline {6}Conclusions and Future Work}{10}{section.6}}
\newacro{3G}[3G]{Third Generation Mobile System}
\newacro{5S}[5S]{Streams, Structures, Spaces, Scenarios, Societies}
\newacro{AAAI}[AAAI]{Association for the Advancement of Artificial Intelligence}
\newacro{ASL}[ASL]{Achieved Significance Level}
\newacro{DP}[DP]{Discriminative Power}
\newacro{AAL}[AAL]{Annotation Abstraction Layer}
\newacro{AAM}[AAM]{Automatic Annotation Manager}
\newacro{ACLIA}[ACLIA]{Advanced Cross-Lingual Information Access}
\newacro{ACM}[ACM]{Association for Computing Machinery}
\newacro{ADSL}[ADSL]{Asymmetric Digital Subscriber Line}
\newacro{ADUI}[ADUI]{ADministrator User Interface}
\newacro{AIP}[AIP]{Archival Information Package}
\newacro{AJAX}[AJAX]{Asynchronous JavaScript Technology and \acs {XML}}
\newacro{ALU}[ALU]{Aritmetic-Logic Unit}
\newacro{AMUSID}[AMUSID]{Adaptive MUSeological IDentity-service}
\newacro{ANOVA}[ANOVA]{ANalysis Of VAriance}
\newacro{ANSI}[ANSI]{American National Standards Institute}
\newacro{AP}[AP]{Average Precision}
\newacro{APC}[APC]{AP Correlation}
\newacro{API}[API]{Application Program Interface}
\newacro{AR}[AR]{Address Register}
\newacro{AS}[AS]{Annotation Service}
\newacro{ASAP}[ASAP]{Adaptable Software Architecture Performance}
\newacro{ASI}[ASI]{Annotation Service Integrator}
\newacro{ASM}[ASM]{Annotation Storing Manager}
\newacro{ASR}[ASR]{Automatic Speech Recognition}
\newacro{ASUI}[ASUI]{ASsessor User Interface}
\newacro{ATIM}[ATIM]{Annotation Textual Indexing Manager}
\newacro{AUC}[AUC]{Area Under the ROC Curve}
\newacro{AUI}[AUI]{Administrative User Interface}
\newacro{AWARE}[AWARE]{Assessor-driven Weighted Averages for Retrieval Evaluation}
\newacro{BANKS-I}[BANKS-I]{Browsing ANd Keyword Searching I}
\newacro{BANKS-II}[BANKS-II]{Browsing ANd Keyword Searching II}
\newacro{bpref}[bpref]{Binary Preference}
\newacro{BNF}[BNF]{Backus and Naur Form}
\newacro{BRICKS}[BRICKS]{Building Resources for Integrated Cultural Knowledge Services}
\newacro{CAN}[CAN]{Content Addressable Netword}
\newacro{CAS}[CAS]{Content-And-Structure}
\newacro{CBSD}[CBSD]{Component-Based Software Developlement}
\newacro{CBSE}[CBSE]{Component-Based Software Engineering}
\newacro{CB-SPE}[CB-SPE]{Component-Based \acs {SPE}}
\newacro{CD}[CD]{Collaboration Diagram}
\newacro{CD}[CD]{Compact Disk}
\newacro{CENL}[CENL]{Conference of European National Librarians}
\newacro{CIDOC CRM}[CIDOC CRM]{CIDOC Conceptual Reference Model}
\newacro{CIR}[CIR]{Current Instruction Register}
\newacro{CIRCO}[CIRCO]{Coordinated Information Retrieval Components Orchestration}
\newacro{CG}[CG]{Cumulated Gain}
\newacro{CLEF1}[CLEF]{Cross-Language Evaluation Forum}
\newacro{CLEF}[CLEF]{Conference and Labs of the Evaluation Forum}
\newacro{CLIR}[CLIR]{Cross Language Information Retrieval}
\newacro{CMS}[CMS]{Content Management System}
\newacro{CMT}[CMT]{Campaign Management Tool}
\newacro{CNR}[CNR]{Italian National Council of Research}
\newacro{CO}[CO]{Content-Only}
\newacro{COD}[COD]{Code On Demand}
\newacro{CODATA}[CODATA]{Committee on Data for Science and Technology}
\newacro{COLLATE}[COLLATE]{Collaboratory for Annotation Indexing and Retrieval of Digitized Historical Archive Material}
\newacro{CP}[CP]{Characteristic Pattern}
\newacro{CPE}[CPE]{Control Processor Element}
\newacro{CPU}[CPU]{Central Processing Unit}
\newacro{CQL}[CQL]{Contextual Query Language}
\newacro{CRP}[CRP]{Cumulated Relative Position}
\newacro{CRUD}[CRUD]{Create--Read--Update--Delete}
\newacro{CS}[CS]{Characteristic Structure}
\newacro{CSM}[CSM]{Campaign Storing Manager}
\newacro{CSS}[CSS]{Cascading Style Sheets}
\newacro{CU}[CU]{Control Unit}
\newacro{CUI}[CUI]{Client User Interface}
\newacro{CV}[CV]{Cross-Validation}
\newacro{DAFFODIL}[DAFFODIL]{Distributed Agents for User-Friendly Access of Digital Libraries}
\newacro{DAO}[DAO]{Data Access Object}
\newacro{DARE}[DARE]{Drawing Adequate REpresentations}
\newacro{DARPA}[DARPA]{Defense Advanced Research Projects Agency}
\newacro{DAS}[DAS]{Distributed Annotation System}
\newacro{DB}[DB]{DataBase}
\newacro{DBMS}[DBMS]{DataBase Management System}
\newacro{DC}[DC]{Dublin Core}
\newacro{DCG}[DCG]{Discounted Cumulated Gain}
\newacro{DCMI}[DCMI]{Dublin Core Metadata Initiative}
\newacro{DCV}[DCV]{Document Cut--off Value}
\newacro{DD}[DD]{Deployment Diagram}
\newacro{DDC}[DDC]{Dewey Decimal Classification}
\newacro{DDS}[DDS]{Direct Data Structure}
\newacro{DF}[DF]{Degrees of Freedom}
\newacro{DFI}[DFI]{Divergence From Independence}
\newacro{DFR}[DFR]{Divergence From Randomness}
\newacro{DHT}[DHT]{Distributed Hash Table}
\newacro{DI}[DI]{Digital Image}
\newacro{DIKW}[DIKW]{Data, Information, Knowledge, Wisdom}
\newacro{DIL}[DIL]{\acs {DIRECT} Integration Layer}
\newacro{DiLAS}[DiLAS]{Digital Library Annotation Service}
\newacro{DIRECT}[DIRECT]{Distributed Information Retrieval Evaluation Campaign Tool}
\newacro{DKMS}[DKMS]{Data and Knowledge Management System}
\newacro{DL}[DL]{Digital Library}
\newacroplural{DL}[DL]{Digital Libraries}
\newacro{DLMS}[DLMS]{Digital Library Management System}
\newacro{DLOG}[DL]{Description Logics}
\newacro{DLS}[DLS]{Digital Library System}
\newacro{DLSS}[DLSS]{Digital Library Service System}
\newacro{DM}[DM]{Data Mining}
\newacro{DO}[DO]{Digital Object}
\newacro{DOI}[DOI]{Digital Object Identifier}
\newacro{DOM}[DOM]{Document Object Model}
\newacro{DoMDL}[DoMDL]{Document Model for Digital Libraries}
\newacro{DPBF}[DPBF]{Dynamic Programming Best-First}
\newacro{DR}[DR]{Data Register}
\newacro{DRIVER}[DRIVER]{Digital Repository Infrastructure Vision for European Research}
\newacro{DTD}[DTD]{Document Type Definition}
\newacro{DVD}[DVD]{Digital Versatile Disk}
\newacro{EAC-CPF}[EAC-CPF]{Encoded Archival Context for Corporate Bodies, Persons, and Families}
\newacro{EAD}[EAD]{Encoded Archival Description}
\newacro{EAN}[EAN]{International Article Number}
\newacro{ECD}[ECD]{Enhanced Contenty Delivery}
\newacro{ECDL}[ECDL]{European Conference on Research and Advanced Technology for Digital Libraries}
\newacro{EDM}[EDM]{Europeana Data Model}
\newacro{EG}[EG]{Execution Graph}
\newacro{ELDA}[ELDA]{Evaluation and Language resources Distribution Agency}
\newacro{ELRA}[ELRA]{European Language Resources Association}
\newacro{EM}[EM]{Expectation Maximization}
\newacro{EMMA}[EMMA]{Extensible MultiModal Annotation}
\newacro{EPROM}[EPROM]{Erasable Programmable \acs {ROM}}
\newacro{EQNM}[EQNM]{Extended Queueing Network Model}
\newacro{ER}[ER]{Entity--Relationship}
\newacro{ERR}[ERR]{Expected Reciprocal Rank}
\newacro{ETL}[ETL]{Extract-Transform-Load}
\newacro{FAST}[FAST]{Flexible Annotation Service Tool}
\newacro{FIFO}[FIFO]{First-In / First-Out}
\newacro{FIRE}[FIRE]{Forum for Information Retrieval Evaluation}
\newacro{FN}[FN]{False Negative}
\newacro{FNR}[FNR]{False Negative Rate}
\newacro{FOAF}[FOAF]{Friend of a Friend}
\newacro{FORESEE}[FORESEE]{FOod REcommentation sErvER}
\newacro{FP}[FP]{False Positive}
\newacro{FPR}[FPR]{False Positive Rate}
\newacro{GIF}[GIF]{Graphics Interchange Format}
\newacro{GIR}[GIR]{Geografic Information Retrieval}
\newacro{GAP}[GAP]{Graded Average Precision}
\newacro{GLM}[GLM]{General Linear Model}
\newacro{GLMM}[GLMM]{General Linear Mixed Model}
\newacro{GMAP}[GMAP]{Geometric Mean Average Precision}
\newacro{GoP}[GoP]{Grid of Points}
\newacro{GPRS}[GPRS]{General Packet Radio Service}
\newacro{gRBP}[gRBP]{Graded Rank-Biased Precision}
\newacro{GTIN}[GTIN]{Global Trade Item Number}
\newacro{GUI}[GUI]{Graphical User Interface}
\newacro{GW}[GW]{Gateway}
\newacro{HCI}[HCI]{Human Computer Interaction}
\newacro{HDS}[HDS]{Hybrid Data Structure}
\newacro{HIR}[HIR]{Hypertext Information Retrieval}
\newacro{HIT}[HIT]{Human Intelligent Task}
\newacro{HITS}[HITS]{Hyperlink-Induced Topic Search}
\newacro{HTML}[HTML]{HyperText Markup Language}
\newacro{HTTP}[HTTP]{HyperText Transfer Protocol}
\newacro{HSD}[HSD]{Honestly Significant Difference}
\newacro{ICA}[ICA]{International Council on Archives}
\newacro{ICSU}[ICSU]{International Council for Science}
\newacro{IDF}[IDF]{Inverse Document Frequency}
\newacro{IDS}[IDS]{Inverse Data Structure}
\newacro{IEEE}[IEEE]{Institute of Electrical and Electronics Engineers}
\newacro{IEI}[IEI]{Istituto della Enciclopedia Italiana fondata da Giovanni Treccani}
\newacro{IETF}[IETF]{Internet Engineering Task Force}
\newacro{IMS}[IMS]{Information Management System}
\newacro{IMSPD}[IMS]{Information Management Systems Research Group}
\newacro{indAP}[indAP]{Induced Average Precision}
\newacro{infAP}[infAP]{Inferred Average Precision}
\newacro{INEX}[INEX]{INitiative for the Evaluation of \acs {XML} Retrieval}
\newacro{INS-M}[INS-M]{Inverse Set Data Model}
\newacro{INTR}[INTR]{Interrupt Register}
\newacro{IP}[IP]{Internet Protocol}
\newacro{IPSA}[IPSA]{Imaginum Patavinae Scientiae Archivum}
\newacro{IR}[IR]{Information Retrieval}
\newacro{IRON}[IRON]{Information Retrieval ON}
\newacro{IRON2}[IRON$^2$]{Information Retrieval On aNNotations}
\newacro{IRON-SAT}[IRON-SAT]{\acs {IRON} - Statistical Analysis Tool}
\newacro{IRS}[IRS]{Information Retrieval System}
\newacro{ISAD(G)}[ISAD(G)]{International Standard for Archival Description (General)}
\newacro{ISBN}[ISBN]{International Standard Book Number}
\newacro{ISIS}[ISIS]{Interactive SImilarity Search}
\newacro{ISJ}[ISJ]{Interactive Searching and Judging}
\newacro{ISO}[ISO]{International Organization for Standardization}
\newacro{ITU}[ITU]{International Telecommunication Union }
\newacro{ITU-T}[ITU-T]{Telecommunication Standardization Sector of \acs {ITU}}
\newacro{IV}[IV]{Information Visualization}
\newacro{JAN}[JAN]{Japanese Article Number}
\newacro{JDBC}[JDBC]{Java DataBase Connectivity}
\newacro{JMB}[JMB]{Java--Matlab Bridge}
\newacro{JPEG}[JPEG]{Joint Photographic Experts Group}
\newacro{JSON}[JSON]{JavaScript Object Notation}
\newacro{JSP}[JSP]{Java Server Pages}
\newacro{JTE}[JTE]{Java-Treceval Engine}
\newacro{KDE}[KDE]{Kernel Density Estimation}
\newacro{KLD}[KLD]{Kullback-Leibler Divergence}
\newacro{KLAPER}[KLAPER]{Kernel LAnguage for PErformance and Reliability analysis}
\newacro{LAM}[LAM]{Libraries, Archives, and Museums}
\newacro{LAM2}[LAM]{Logistic Average Misclassification}
\newacro{LAN}[LAN]{Local Area Network}
\newacro{LD}[LD]{Linked Data}
\newacro{LEAF}[LEAF]{Linking and Exploring Authority Files}
\newacro{LIDO}[LIDO]{Lightweight Information Describing Objects}
\newacro{LIFO}[LIFO]{Last-In / First-Out}
\newacro{LM}[LM]{Language Model}
\newacro{LMT}[LMT]{Log Management Tool}
\newacro{LOD}[LOD]{Linked Open Data}
\newacro{LODE}[LODE]{Linking Open Descriptions of Events}
\newacro{LpO}[LpO]{Leave-$p$-Out}
\newacro{LRM}[LRM]{Local Relational Model}
\newacro{LRU}[LRU]{Last Recently Used}
\newacro{LS}[LS]{Lexical Signature}
\newacro{LSM}[LSM]{Log Storing Manager}
\newacro{LtR}[LtR]{Learning to Rank}
\newacro{LUG}[LUG]{Lexical Unit Generator}
\newacro{MA}[MA]{Mobile Agent}
\newacro{MA}[MA]{Moving Average}
\newacro{MACS}[MACS]{Multilingual ACcess to Subjects}
\newacro{MADCOW}[MADCOW]{Multimedia Annotation of Digital Content Over the Web}
\newacro{MAD}[MAD]{Mean Assessed Documents}
\newacro{MADP}[MADP]{Mean Assessed Documents Precision}
\newacro{MADS}[MADS]{Metadata Authority Description Standard}
\newacro{MAP}[MAP]{Mean Average Precision}
\newacro{MARC}[MARC]{Machine Readable Cataloging}
\newacro{MATTERS}[MATTERS]{MATlab Toolkit for Evaluation of information Retrieval Systems}
\newacro{MDA}[MDA]{Model Driven Architecture}
\newacro{MDD}[MDD]{Model-Driven Development}
\newacro{METS}[METS]{Metadata Encoding and Transmission Standard}
\newacro{MIDI}[MIDI]{Musical Instrument Digital Interface}
\newacro{MIME}[MIME]{Multipurpose Internet Mail Extensions}
\newacro{MLIA}[MLIA]{MultiLingual Information Access}
\newacro{MM}[MM]{Machinery Model}
\newacro{MMU}[MMU]{Memory Management Unit}
\newacro{MODS}[MODS]{Metadata Object Description Schema}
\newacro{MOF}[MOF]{Meta-Object Facility}
\newacro{MP}[MP]{Markov Precision}
\newacro{MPEG}[MPEG]{Motion Picture Experts Group}
\newacro{MRD}[MRD]{Machine Readable Dictionary}
\newacro{MRF}[MRF]{Markov Random Field}
\newacro{MS}[MS]{Mean Squares}
\newacro{MSAC}[MSAC]{Multilingual Subject Access to Catalogues}
\newacro{MSE}[MSE]{Mean Square Error}
\newacro{MT}[MT]{Machine Translation}
\newacro{MV}[MV]{Majority Vote}
\newacro{MVC}[MVC]{Model-View-Controller}
\newacro{NACSIS}[NACSIS]{NAtional Center for Science Information Systems}
\newacro{NAP}[NAP]{Network processors Applications Profile}
\newacro{NCP}[NCP]{Normalized Cumulative Precision}
\newacro{nCG}[nCG]{Normalized Cumulated Gain}
\newacro{nCRP}[nCRP]{Normalized Cumulated Relative Position}
\newacro{nDCG}[nDCG]{Normalized Discounted Cumulated Gain}
\newacro{NESTOR}[NESTOR]{NEsted SeTs for Object hieRarchies}
\newacro{NEXI}[NEXI]{Narrowed Extended XPath I}
\newacro{NII}[NII]{National Institute of Informatics}
\newacro{NISO}[NISO]{National Information Standards Organization}
\newacro{NIST}[NIST]{National Institute of Standards and Technology}
\newacro{NLP}[NLP]{Natural Language Processing}
\newacro{NP}[NP]{Network Processor}
\newacro{NR}[NR]{Normalized Recall}
\newacro{NS-M}[NS-M]{Nested Set Model}
\newacro{NTCIR}[NTCIR]{NII Testbeds and Community for Information access Research}
\newacro{OAI}[OAI]{Open Archives Initiative}
\newacro{OAI-ORE}[OAI-ORE]{Open Archives Initiative Object Reuse and Exchange}
\newacro{OAI-PMH}[OAI-PMH]{Open Archives Initiative Protocol for Metadata Harvesting}
\newacro{OAIS}[OAIS]{Open Archival Information System}
\newacro{OC}[OC]{Operation Code}
\newacro{OCLC}[OCLC]{Online Computer Library Center}
\newacro{OMG}[OMG]{Object Management Group}
\newacro{OO}[OO]{Object Oriented}
\newacro{OODB}[OODB]{Object-Oriented \acs {DB}}
\newacro{OODBMS}[OODBMS]{Object-Oriented \acs {DBMS}}
\newacro{OPAC}[OPAC]{Online Public Access Catalog}
\newacro{OQL}[OQL]{Object Query Language}
\newacro{ORP}[ORP]{Open Relevance Project}
\newacro{OSIRIS}[OSIRIS]{Open Service Infrastructure for Reliable and Integrated process Support}
\newacro{P2P}[P2P]{Peer-To-Peer}
\newacro{PA}[PA]{Performance Analysis}
\newacro{PAMT}[PAMT]{Pool-Assessment Management Tool}
\newacro{PASM}[PASM]{Pool-Assessment Storing Manager}
\newacro{PC}[PC]{Program Counter}
\newacro{PCP}[PCP]{Pre-Commercial Procurement}
\newacro{PCR}[PCR]{Peripherical Command Register}
\newacro{PDA}[PDA]{Personal Digital Assistant}
\newacro{PDF}[PDF]{Probability Density Function}
\newacro{PDR}[PDR]{Peripherical Data Register}
\newacro{PIR}[PIR]{Personalized Information Retrieval}
\newacro{POI}[POI]{\acs {PURL}-based Object Identifier}
\newacro{PoS}[PoS]{Part of Speech}
\newacro{PPE}[PPE]{Programmable Processing Engine}
\newacro{PREFORMA}[PREFORMA]{PREservation FORMAts for culture information/e-archives}
\newacro{PRIMAmob-UML}[PRIMAmob-UML]{mobile \acs {PRIMA-UML}}
\newacro{PRIMA-UML}[PRIMA-UML]{PeRformance IncreMental vAlidation in \acs {UML}}
\newacro{PROM}[PROM]{Programmable \acs {ROM}}
\newacro{PROMISE}[PROMISE]{Participative Research labOratory for Multimedia and Multilingual Information Systems Evaluation}
\newacro{pSQL}[pSQL]{propagate \acs {SQL}}
\newacro{PUI}[PUI]{Participant User Interface}
\newacro{PURL}[PURL]{Persistent \acs {URL}}
\newacro{QA}[QA]{Question Answering}
\newacro{QoS-UML}[QoS-UML]{\acs {UML} Profile for QoS and Fault Tolerance}
\newacro{QPA}[QPA]{Query Performance Analyzer}
\newacro{RAM}[RAM]{Random Access Memory}
\newacro{RAMM}[RAM]{Random Access Machine}
\newacro{RBO}[RBO]{Rank-Biased Overlap}
\newacro{RBP}[RBP]{Rank-Biased Precision}
\newacro{RDBMS}[RDBMS]{Relational \acs {DBMS}}
\newacro{RDF}[RDF]{Resource Description Framework}
\newacro{REST}[REST]{REpresentational State Transfer}
\newacro{REV}[REV]{Remote Evaluation}
\newacro{RFC}[RFC]{Request for Comments}
\newacro{RIA}[RIA]{Reliable Information Access}
\newacro{RMSE}[RMSE]{Root Mean Square Error}
\newacro{RMT}[RMT]{Run Management Tool}
\newacro{ROM}[ROM]{Read Only Memory}
\newacro{ROMIP}[ROMIP]{Russian Information Retrieval Evaluation Seminar}
\newacro{RoMP}[RoMP]{Rankings of Measure Pairs}
\newacro{RoS}[RoS]{Rankings of Systems}
\newacro{RP}[RP]{Relative Position}
\newacro{RR}[RR]{Reciprocal Rank}
\newacro{RSM}[RSM]{Run Storing Manager}
\newacro{RST}[RST]{Rhetorical Structure Theory}
\newacro{RT-UML}[RT-UML]{\acs {UML} Profile for Schedulability, Performance and Time}
\newacro{SA}[SA]{Software Architecture}
\newacro{SAL}[SAL]{Storing Abstraction Layer}
\newacro{SAMT}[SAMT]{Statistical Analysis Management Tool}
\newacro{SAN}[SAN]{Sistema Archivistico Nazionale}
\newacro{SASM}[SASM]{Statistical Analysis Storing Manager}
\newacro{SD}[SD]{Sequence Diagram}
\newacro{SE}[SE]{Search Engine}
\newacro{SEBD}[SEBD]{Convegno Nazionale su Sistemi Evoluti per Basi di Dati}
\newacro{SFT}[SFT]{Satisfaction--Frustration--Total}
\newacro{SIL}[SIL]{Service Integration Layer}
\newacro{SIP}[SIP]{Submission Information Package}
\newacro{SKOS}[SKOS]{Simple Knowledge Organization System}
\newacro{SM}[SM]{Software Model}
\newacro{SME}[SME]{Statistics--Metrics-Experiments}
\newacro{SMART}[SMART]{System for the Mechanical Analysis and Retrieval of Text}
\newacro{SoA}[SoA]{Service-oriented Architectures}
\newacro{SOA}[SOA]{Strength of Association}
\newacro{SOAP}[SOAP]{Simple Object Access Protocol}
\newacro{SOM}[SOM]{Self-Organizing Map}
\newacro{SPE}[SPE]{Software Performance Engineering}
\newacro{SPINA}[SPINA]{Superimposed Peer Infrastructure for iNformation Access}
\newacro{SPLIT}[SPLIT]{Stemming Program for Language Independent Tasks}
\newacro{SPOOL}[SPOOL]{Simultaneous Peripheral Operations On Line}
\newacro{SQL}[SQL]{Structured Query Language}
\newacro{SR}[SR]{Sliding Ratio}
\newacro{SR}[SR]{Status Register}
\newacro{SRU}[SRU]{Search/Retrieve via \acs {URL}}
\newacro{SS}[SS]{Sum of Squares}
\newacro{SSTF}[SSTF]{Shortest Seek Time First}
\newacro{STAR}[STAR]{Steiner-Tree Approximation in Relationship graphs}
\newacro{STON}[STON]{STemming ON}
\newacro{TAC}[TAC]{Text Analysis Conference}
\newacro{TBG}[TBG]{Time-Biased Gain}
\newacro{TCP}[TCP]{Transmission Control Protocol}
\newacro{TEL}[TEL]{The European Library}
\newacro{TERRIER}[TERRIER]{TERabyte RetrIEveR}
\newacro{TF}[TF]{Term Frequency}
\newacro{TFR}[TFR]{True False Rate}
\newacro{TME}[TME]{Topics--Metrics-Experiments}
\newacro{TN}[TN]{True Negative}
\newacro{TO}[TO]{Transfer Object}
\newacro{TP}[TP]{True Positve}
\newacro{TPR}[TPR]{True Positive Rate}
\newacro{TRAT}[TRAT]{Text Relevance Assessing Task}
\newacro{TREC}[TREC]{Text REtrieval Conference}
\newacro{TRECVID}[TRECVID]{TREC Video Retrieval Evaluation}
\newacro{TTL}[TTL]{Time-To-Live}
\newacro{UCD}[UCD]{Use Case Diagram}
\newacro{UDC}[UDC]{Universal Decimal Classification}
\newacro{uGAP}[uGAP]{User-oriented Graded Average Precision}
\newacro{UI}[UI]{User Interface}
\newacro{UML}[UML]{Unified Modeling Language}
\newacro{UMT}[UMT]{User Management Tool}
\newacro{UMTS}[UMTS]{Universal Mobile Telecommunication System}
\newacro{UoM}[UoM]{Utility-oriented Measurement}
\newacro{UPC}[UPC]{Universal Product Code}
\newacro{URI}[URI]{Uniform Resource Identifier}
\newacro{URL}[URL]{Uniform Resource Locator}
\newacro{URN}[URN]{Uniform Resource Name}
\newacro{USM}[USM]{User Storing Manager}
\newacro{VA}[VA]{Visual Analytics}
\newacro{VAIRE}[VAIR\"{E}]{Visual Analytics for Information Retrieval Evaluation}
\newacro{VATE}[VATE$^2$]{Visual Analytics Tool for Experimental Evaluation}
\newacro{VIRTUE}[VIRTUE]{Visual Information Retrieval Tool for Upfront Evaluation}
\newacro{VD}[VD]{Virtual Document}
\newacro{VDM}[VDM]{Visual Data Mining}
\newacro{VIAF}[VIAF]{Virtual International Authority File}
\newacro{VL}[VL]{Visual Language}
\newacro{VoIP}[VoIP]{Voice over IP}
\newacro{VS}[VS]{Visual Sentence}
\newacro{W3C}[W3C]{World Wide Web Consortium}
\newacro{WAN}[WAN]{Wide Area Network}
\newacro{WHO}[WHO]{World Health Organization}
\newacro{WLAN}[WLAN]{Wireless \acs {LAN}}
\newacro{WP}[WP]{Work Package}
\newacro{WS}[WS]{Web Services}
\newacro{WSD}[WSD]{Word Sense Disambiguation}
\newacro{WSDL}[WSDL]{Web Services Description Language}
\newacro{WWW}[WWW]{World Wide Web}
\newacro{XMI}[XMI]{\acs {XML} Metadata Interchange}
\newacro{XML}[XML]{eXtensible Markup Language}
\newacro{XPath}[XPath]{XML Path Language}
\newacro{XSL}[XSL]{eXtensible Stylesheet Language}
\newacro{XSL-FO}[XSL-FO]{\acs {XSL} Formatting Objects}
\newacro{XSLT}[XSLT]{\acs {XSL} Transformations}
\newacro{YAGO}[YAGO]{Yet Another Great Ontology}
\newacro{YASS}[YASS]{Yet Another Suffix Stripper}
\@writefile{toc}{\contentsline {section}{References}{10}{section*.22}}
\newlabel{TotPages}{{10}{10}{}{page.10}{}}
