0       0       Q       8       0       7       103     51      92      43      12      73      69      27      105
0       36      Q       174     0       1625    1627    1623    1626    1624    1622    1619    1621    1620    1618
0       50      Q       227     0       2094    2091    2087    2089    2093    2088    2090    2092    2095    2086
0       515     Q       174     0       1625    1627    1623    1626    1624    1622    1619    1621    1620    1618
0       524     Q       1974    0       17562   1627    1626    1623    2091    17559   17563   17558   17561   17560
0       527     C       17562
0       528     C       1627
0       529     C       1626
1       0       Q       9       0       13      70      66      94      50      104     29      21      89      85
1       20      C       104
1       123     C       21
1       291     Q       1324    0       11807   11805   11812   11813   11804   11809   11806   11811   11808   11810
1       301     C       11813
1       8605    C       11808
1       8737    C       11810
1       8884    C       11811
2       0       Q       7       0       77      93      55      86      64      67      76      98      18      54
2       11      C       18
2       1122    Q       4088    0       35554   35561   35562   35556   35557   35567   35550   35566   35568   35553
2       1127    C       35561
2       1645    Q       5863    0       36505   36514   36508   36509   50480   36510   36507   50482   50483   50481
2       1646    C       36505
3       0       Q       1       0       15      32      0       9       80      30      88      82      97      65
3       40      Q       32      0       314     230     338     282     335     257     216     241     342     281
3       95      Q       431     0       3884    0       3887    3888    3889    3885    3882    3881    3886    3883
3       103     C       3884
3       7367    Q       23323   0       191148  191149  191144  191145  191151  191143  191147  191150  191146  191152
3       7377    C       191148
